<?xml version="1.0" encoding="iso-8859-1"?>
<!-- Generator: Adobe Illustrator 15.1.0, SVG Export Plug-In . SVG Version: 6.00 Build 0)  -->
<!DOCTYPE svg PUBLIC "-//W3C//DTD SVG 1.1//EN" "http://www.w3.org/Graphics/SVG/1.1/DTD/svg11.dtd">
<svg version="1.1" id="Layer_12" xmlns="http://www.w3.org/2000/svg" xmlns:xlink="http://www.w3.org/1999/xlink" x="0px" y="0px"
	 width="155px" height="118px" viewBox="0 0 155 118" style="enable-background:new 0 0 155 118;" xml:space="preserve">
<symbol  id="Tween_1" viewBox="-19.75 -22.55 39.5 45.1">
	<g id="Layer_1_24_">
		<g>
			<g>
				<path style="fill-rule:evenodd;clip-rule:evenodd;fill:#414E20;" d="M-4.05-19.8c-2.4,0.6-4.333,2.083-5.8,4.45
					c-1.066,1.7-0.95,2.9,0.35,3.6c0.733,0.4,1.683,0.6,2.85,0.6c0.267,0,1.95-0.05,5.05-0.15c2.8-0.633,3.783-2.317,2.95-5.05
					C0.45-19.317-1.35-20.467-4.05-19.8z"/>
			</g>
			<g>
				<path style="fill-rule:evenodd;clip-rule:evenodd;fill:#B2C271;" d="M6.6,11.15c-0.167,0.1-0.35,0.2-0.55,0.3
					c0.233-0.7,0.434-1.45,0.6-2.25C6.517,7.567,6.067,5.283,5.3,2.35c-1-3.867-2.55-8.8-4.65-14.8l-0.35-2.1
					c0.267-1.034,1.583-0.5,3.95,1.6c3.633,5.367,5.933,9.867,6.9,13.5c0.9,3.367,0.667,6.133-0.7,8.3
					c-1.067,1.767-2.6,2.95-4.6,3.55C6.25,12.233,6.5,11.817,6.6,11.15z M4.35,11.95c-0.667-1.434-1.333-3.25-2-5.45
					c-1.8-5.8-2.8-11.4-3-16.8c1.367,2.7,2.767,7.667,4.2,14.9C4.517,9.5,4.783,11.95,4.35,11.95z M14.1,2.65
					c-0.067-2.867-0.8-5.967-2.2-9.3c-1.667-3.733-3.65-6.583-5.95-8.55c-0.733-0.5-1.767-1-3.1-1.5
					c-2.7-0.966-5.283-1.183-7.75-0.65c-2.367,0.434-4.25,1.733-5.65,3.9l-1.2,2.8c-0.833,3.333-1.067,7.1-0.7,11.3
					c0.4,3.6,1.233,6.5,2.5,8.7c1.4,2.367,3.367,3.85,5.9,4.45c2.466,0.6,5.733,0.383,9.8-0.65c2.767-0.7,4.833-1.883,6.2-3.55
					C13.383,7.9,14.1,5.583,14.1,2.65z M-1.7,13.65l-2.55-0.45c-1.833-0.6-3.217-1.517-4.15-2.75c-1.2-1.633-1.983-4.034-2.35-7.2
					c-0.367-3.367-0.3-7.85,0.2-13.45c0.867-3.7,2.667-5.316,5.4-4.85c1,0.133,1.816,0.6,2.45,1.4c0.633,0.8,0.85,1.566,0.65,2.3
					c-0.5,2.4-0.284,6.633,0.65,12.7c0.833,5.533,2.333,9.25,4.5,11.15C1.8,13.367,0.2,13.75-1.7,13.65z"/>
				<path style="fill-rule:evenodd;clip-rule:evenodd;fill:#8B9C6A;" d="M6.65,9.2C6.917,7.8,7.1,6.233,7.2,4.5
					C7.633-2.967,6.033-8.75,2.4-12.85c1.1,0.934,2.417,2.867,3.95,5.8C7.783-4.25,8.8-1.6,9.4,0.9c1.2,5.033,0.267,8.45-2.8,10.25
					c-0.1,0.667-0.35,1.083-0.75,1.25c2-0.6,3.533-1.783,4.6-3.55c1.367-2.167,1.6-4.934,0.7-8.3c-0.967-3.633-3.267-8.133-6.9-13.5
					c-2.367-2.1-3.683-2.633-3.95-1.6l0.35,2.1c2.1,6,3.65,10.934,4.65,14.8C6.067,5.283,6.517,7.567,6.65,9.2z M4.35,11.95
					c0.433,0,0.167-2.45-0.8-7.35C2.117-2.633,0.717-7.6-0.65-10.3c0.2,5.4,1.2,11,3,16.8C3.017,8.7,3.683,10.517,4.35,11.95z
					 M-1.7,13.65c1.9,0.1,3.5-0.283,4.8-1.15C0.933,10.6-0.567,6.883-1.4,1.35c-0.934-6.067-1.15-10.3-0.65-12.7
					c0.2-0.733-0.017-1.5-0.65-2.3c-0.633-0.8-1.45-1.267-2.45-1.4c-2.733-0.467-4.533,1.15-5.4,4.85
					c-0.5,5.6-0.567,10.083-0.2,13.45c0.367,3.167,1.15,5.567,2.35,7.2c0.933,1.233,2.316,2.15,4.15,2.75L-1.7,13.65z M-1.85,10.55
					C-3.05,8.883-3.967,6.333-4.6,2.9c-0.667-3.667-1.066-8.683-1.2-15.05c0.433-1.233,0.833-1.65,1.2-1.25
					C-4.267-7.7-3.717-2.667-2.95,1.7c1.034,6.367,2.467,10.083,4.3,11.15C0.25,12.683-0.817,11.917-1.85,10.55z M-5.85,11.35
					c-1.5-1.434-2.5-3.733-3-6.9c-0.533-3.434-0.533-8.117,0-14.05l0.55-1.65c0.367,4.633,1,9.3,1.9,14c1.233,6,2.85,9.5,4.85,10.5
					C-3.15,13.183-4.583,12.55-5.85,11.35z"/>
				<path style="fill-rule:evenodd;clip-rule:evenodd;fill:#DCEAA9;" d="M6.6,11.15c3.066-1.8,4-5.217,2.8-10.25
					C8.8-1.6,7.783-4.25,6.35-7.05c-1.533-2.934-2.85-4.867-3.95-5.8C6.033-8.75,7.633-2.967,7.2,4.5C7.1,6.233,6.917,7.8,6.65,9.2
					c-0.167,0.8-0.367,1.55-0.6,2.25C6.25,11.35,6.433,11.25,6.6,11.15z"/>
				<path style="fill-rule:evenodd;clip-rule:evenodd;fill:#414E20;" d="M-5.85,11.35c1.267,1.2,2.7,1.833,4.3,1.9
					c-2-1-3.617-4.5-4.85-10.5c-0.9-4.7-1.533-9.367-1.9-14L-8.85-9.6c-0.533,5.934-0.533,10.617,0,14.05
					C-8.35,7.617-7.35,9.917-5.85,11.35z"/>
				<path style="fill-rule:evenodd;clip-rule:evenodd;fill:#5C6E37;" d="M-1.85,10.55c1.033,1.367,2.1,2.133,3.2,2.3
					c-1.833-1.067-3.267-4.783-4.3-11.15C-3.717-2.667-4.267-7.7-4.6-13.4c-0.367-0.4-0.767,0.017-1.2,1.25
					C-5.667-5.783-5.267-0.767-4.6,2.9C-3.967,6.333-3.05,8.883-1.85,10.55z"/>
			</g>
			<g>
				<path style="fill-rule:evenodd;clip-rule:evenodd;fill:#4D120B;" d="M1.05,13.2c-0.2-1.4-0.483-1.833-0.85-1.3l-0.5,1.25
					l0.35,9.4C1.017,18.45,1.35,15.333,1.05,13.2z M8.15,7.6c-0.8-2.067-1.767-3.417-2.9-4.05c-0.667-0.333-1.033-0.3-1.1,0.1
					C4.083,3.917,4.1,4.183,4.2,4.45L8.15,7.6z M5.35,10.6l-0.3,1.15l1.8,8.4c0.367-3.767,0.217-6.6-0.45-8.5
					C5.967,10.383,5.617,10.033,5.35,10.6z M9.1,10.85l8.1,2.7c-2.967-2.167-5.5-3.483-7.6-3.95C8.333,9.333,7.883,9.467,8.25,10
					C8.35,10.133,8.633,10.417,9.1,10.85z M19.75,10.35c-2.533-2.867-4.733-4.684-6.6-5.45c-1.2-0.566-1.683-0.55-1.45,0.05
					c0.1,0.267,0.316,0.6,0.65,1L19.75,10.35z M11.1,0.45l8.05-2.9c-3.8,0.167-6.6,0.684-8.4,1.55C9.583-0.333,9.3,0.05,9.9,0.25
					C10.167,0.383,10.567,0.45,11.1,0.45z M0.1-7.2l-3.85-1l1,1.05c0.8,0.7,1.533,1.083,2.2,1.15c0.667,0,0.966-0.2,0.9-0.6L0.1-7.2
					z M2.2-11.4l1.2-11.15c-1.6,4.5-2.433,8.133-2.5,10.9c-0.033,1.667,0.167,2.2,0.6,1.6L2.2-11.4z M6-4.4
					c1.9-1.934,4.033-4.983,6.4-9.15L5.2-5C4.867-4.433,4.65-3.967,4.55-3.6C4.35-2.9,4.833-3.167,6-4.4z M-19.75,7.75
					c4.2-0.2,7.283-0.767,9.25-1.7c1.3-0.6,1.633-1,1-1.2l-1.3-0.1L-19.75,7.75z M-14.55,2.75c2.7,0.467,4.667,0.617,5.9,0.45
					c1.4-0.133,1.85-0.4,1.35-0.8l-1.2-0.55L-17.95,2L-14.55,2.75z M-8.2,9l-1.15,0.6l-5.85,7.45c3.434-2.5,5.7-4.667,6.8-6.5
					C-7.633,9.35-7.567,8.833-8.2,9z M-10-7.7l-8.05-4.9l2.5,2.45c1.867,1.767,3.433,2.95,4.7,3.55c1.333,0.6,1.867,0.6,1.6,0
					L-10-7.7z M-2.1-15.8l-5.6-4.3l1.5,2.15c1.167,1.567,2.2,2.6,3.1,3.1c0.934,0.567,1.367,0.567,1.3,0L-2.1-15.8z"/>
			</g>
		</g>
	</g>
</symbol>
<symbol  id="Tween_11" viewBox="-3.906 -5.21 7.784 10.422">
	<g id="Layer_1_11_">
		<g>
			<path style="fill-rule:evenodd;clip-rule:evenodd;fill:#8B9C6A;" d="M3.05,0.3c0.233,1.167,0.067,2.167-0.5,3
				C1.95,4.133,1.167,4.4,0.2,4.1C-0.767,3.833-1.5,3.55-2,3.25c-0.533-0.3-0.9-0.933-1.1-1.9c-0.233-0.934-0.133-1.9,0.3-2.9
				c0.466-1,1.117-1.6,1.95-1.8c0.867-0.2,1.667,0.05,2.4,0.75C2.317-1.9,2.817-0.933,3.05,0.3z M3.4-1.45
				C3.067-2.183,2.6-2.817,2-3.35c-0.467-0.4-0.95-0.667-1.45-0.8c-0.466-0.133-0.966-0.133-1.5,0
				c-0.767,0.167-1.383,0.566-1.85,1.2C-3-2.683-3.183-2.4-3.35-2.1c-0.566,1.167-0.7,2.35-0.4,3.55c0.267,1.2,0.883,2.1,1.85,2.7
				C-0.967,4.783,0,5.133,1,5.2c0.967,0.1,1.733-0.417,2.3-1.55C3.867,2.517,4.017,1.267,3.75-0.1C3.683-0.567,3.567-1.017,3.4-1.45
				z"/>
			
				<linearGradient id="SVGID_1_" gradientUnits="userSpaceOnUse" x1="10425.9307" y1="-19273.2266" x2="10431.1104" y2="-19273.2266" gradientTransform="matrix(-0.8592 -0.5117 0.5499 -0.8364 19559.7305 -10783.4707)">
				<stop  offset="0" style="stop-color:#232916"/>
				<stop  offset="0.9882" style="stop-color:#414E20"/>
			</linearGradient>
			<path style="fill-rule:evenodd;clip-rule:evenodd;fill:url(#SVGID_1_);" d="M3.05,0.3c-0.233-1.233-0.733-2.2-1.5-2.9
				c-0.733-0.7-1.533-0.95-2.4-0.75c-0.833,0.2-1.483,0.8-1.95,1.8c-0.434,1-0.534,1.966-0.3,2.9c0.2,0.967,0.567,1.6,1.1,1.9
				c0.5,0.3,1.233,0.583,2.2,0.85c0.966,0.3,1.75,0.033,2.35-0.8C3.117,2.467,3.283,1.467,3.05,0.3z"/>
			<path style="fill-rule:evenodd;clip-rule:evenodd;fill:#414E20;" d="M-2.8-2.95c0.466-0.633,1.083-1.033,1.85-1.2
				c0.534-0.133,1.034-0.133,1.5,0c0.5,0.133,0.983,0.4,1.45,0.8c0.6,0.533,1.067,1.167,1.4,1.9l0.05-0.6
				c0-0.434-0.034-0.817-0.1-1.15L3.1-4.05c-1.233-1.233-2.567-1.483-4-0.75C-1.3-4.633-1.667-4.517-2-4.45L-2.8-2.95z"/>
		</g>
	</g>
</symbol>
<symbol  id="Tween_13" viewBox="-9.35 -1.2 18.75 2.4">
	<g id="Layer_1_16_">
		<g>
			<path style="fill-rule:evenodd;clip-rule:evenodd;fill:#CFE08A;" d="M8.8,1C9,1,9.2,0.95,9.4,0.85l-0.5-2H8.25L8.2-1.2v0.05
				L8.8,1z"/>
			<path style="fill-rule:evenodd;clip-rule:evenodd;fill:#B2C271;" d="M-9.05,1.15C-8.817,1.183-8.567,1.2-8.3,1.2
				c-0.1-1.267-0.233-1.983-0.4-2.15c-0.2-0.133-0.417-0.167-0.65-0.1C-9.25-0.05-9.15,0.683-9.05,1.15z"/>
		</g>
	</g>
</symbol>
<symbol  id="Tween_17" viewBox="-17.75 -20.05 35.55 40.05">
	<g id="Layer_1_28_">
		<g>
			<g>
				<path style="fill-rule:evenodd;clip-rule:evenodd;fill:#414E20;" d="M4.7-17.4c-3.034-0.434-5.067-0.517-6.1-0.25
					c-1.333,0.367-1.383,1.35-0.15,2.95c1.133,1.467,3.15,2.717,6.05,3.75c2.4,0.833,4.05,1.184,4.95,1.05l0.65-0.05
					c0.4-0.066,0.6-0.267,0.6-0.6c0-1.034-0.35-2.167-1.05-3.4C8.583-15.917,6.933-17.067,4.7-17.4z"/>
			</g>
			<g>
				<path style="fill-rule:evenodd;clip-rule:evenodd;fill:#8B9C6A;" d="M4.5,9.45C5.067,8.25,5.567,6.9,6,5.4
					C8.067-1.2,7.983-6.75,5.75-11.25c0.767,1.133,1.467,3.167,2.1,6.1c0.6,2.933,0.883,5.533,0.85,7.8C8.567,7.45,7,10.317,4,11.25
					c-0.233,0.567-0.533,0.883-0.9,0.95c1.8-0.1,3.383-0.817,4.75-2.15C9.483,8.417,10.3,5.967,10.3,2.7
					c-0.033-3.5-1-8.05-2.9-13.65c-1.566-2.4-2.6-3.167-3.1-2.3L4.15-11.3C4.617-5.5,4.85-0.733,4.85,3
					C4.85,5.8,4.733,7.95,4.5,9.45z M1.9,11.45c0.367,0.033,0.684-2.217,0.95-6.75C3.217-2.2,3.133-6.983,2.6-9.65
					C1.567-4.917,1.167,0.333,1.4,6.1C1.467,7.9,1.633,9.683,1.9,11.45z M1.55-13.15c-0.333-0.867-0.933-1.467-1.8-1.8
					c-2.233-1-4.117,0.05-5.65,3.15c-3.2,9.2-4.117,15.533-2.75,19c0.5,1.333,1.483,2.483,2.95,3.45l2.05,0.95
					c1.6,0.5,3.05,0.517,4.35,0.05c-1.434-2.133-1.883-5.8-1.35-11c0.6-5.867,1.367-9.717,2.3-11.55
					C1.983-11.6,1.95-12.35,1.55-13.15z M-2.05,0.55c-0.5,5.967-0.1,9.65,1.2,11.05c-0.9-0.367-1.65-1.3-2.25-2.8
					C-4.467,5.267-3.9-1.833-1.4-12.5c0.667-1.033,1.1-1.317,1.3-0.85C-1-8.55-1.65-3.917-2.05,0.55z M-6.7,8.65
					c-0.966-1.667-1.316-3.967-1.05-6.9c0.3-3.2,1.35-7.4,3.15-12.6l0.85-1.35c-0.767,4.4-1.267,8.717-1.5,12.95
					c-0.267,5.7,0.333,9.217,1.8,10.55C-4.783,10.9-5.867,10.017-6.7,8.65z"/>
				<path style="fill-rule:evenodd;clip-rule:evenodd;fill:#B2C271;" d="M4,11.25c-0.167,0.067-0.333,0.117-0.5,0.15
					c0.333-0.6,0.667-1.25,1-1.95C4.733,7.95,4.85,5.8,4.85,3c0-3.733-0.233-8.5-0.7-14.3l0.15-1.95c0.5-0.867,1.534-0.1,3.1,2.3
					C9.3-5.35,10.267-0.8,10.3,2.7c0,3.267-0.816,5.716-2.45,7.35C6.483,11.383,4.9,12.1,3.1,12.2
					C3.467,12.133,3.767,11.817,4,11.25z M1.9,11.45C1.633,9.683,1.467,7.9,1.4,6.1C1.167,0.333,1.567-4.917,2.6-9.65
					C3.133-6.983,3.217-2.2,2.85,4.7C2.583,9.233,2.267,11.483,1.9,11.45z M8.95,11.1c1.6-1.233,2.716-3.167,3.35-5.8
					s0.7-5.583,0.2-8.85c-0.567-3.733-1.617-6.733-3.15-9C8.783-13.217,8-13.9,7-14.6c-2-1.467-4.167-2.25-6.5-2.35
					c-2.133-0.167-4.033,0.583-5.7,2.25l-1.65,2.2c-1.5,2.867-2.533,6.2-3.1,10c-0.466,3.333-0.4,6.133,0.2,8.4
					c0.667,2.467,2.017,4.25,4.05,5.35c2,1.067,4.85,1.6,8.55,1.6C5.383,12.85,7.417,12.267,8.95,11.1z M1.55-13.15
					c0.4,0.8,0.434,1.55,0.1,2.25c-0.933,1.833-1.7,5.683-2.3,11.55c-0.533,5.2-0.083,8.867,1.35,11c-1.3,0.467-2.75,0.45-4.35-0.05
					l-2.05-0.95C-7.167,9.683-8.15,8.533-8.65,7.2c-1.367-3.467-0.45-9.8,2.75-19c1.533-3.1,3.417-4.15,5.65-3.15
					C0.617-14.617,1.217-14.017,1.55-13.15z"/>
				<path style="fill-rule:evenodd;clip-rule:evenodd;fill:#DCEAA9;" d="M4.5,9.45c-0.333,0.7-0.667,1.35-1,1.95
					c0.167-0.033,0.333-0.083,0.5-0.15c3-0.933,4.567-3.8,4.7-8.6c0.033-2.267-0.25-4.867-0.85-7.8
					c-0.633-2.934-1.333-4.967-2.1-6.1C7.983-6.75,8.067-1.2,6,5.4C5.567,6.9,5.067,8.25,4.5,9.45z"/>
				<path style="fill-rule:evenodd;clip-rule:evenodd;fill:#414E20;" d="M-6.7,8.65c0.833,1.367,1.917,2.25,3.25,2.65
					c-1.466-1.333-2.066-4.85-1.8-10.55c0.233-4.233,0.733-8.55,1.5-12.95l-0.85,1.35c-1.8,5.2-2.85,9.4-3.15,12.6
					C-8.017,4.683-7.667,6.983-6.7,8.65z"/>
				<path style="fill-rule:evenodd;clip-rule:evenodd;fill:#5C6E37;" d="M-2.05,0.55c0.4-4.466,1.05-9.1,1.95-13.9
					c-0.2-0.467-0.633-0.183-1.3,0.85C-3.9-1.833-4.467,5.267-3.1,8.8c0.6,1.5,1.35,2.434,2.25,2.8C-2.15,10.2-2.55,6.517-2.05,0.55
					z"/>
			</g>
			<g>
				<path style="fill-rule:evenodd;clip-rule:evenodd;fill:#4D120B;" d="M10.1,7.85l5.35,5.6c-1.434-3-2.9-5.133-4.4-6.4
					c-0.867-0.667-1.3-0.75-1.3-0.25C9.817,7.133,9.933,7.483,10.1,7.85z M6.2,11.5l6.35,4.25c-2.1-2.667-3.966-4.417-5.6-5.25
					c-1-0.467-1.434-0.45-1.3,0.05L6.2,11.5z M3.05,10.45l-0.5,0.95l-0.3,8c1.1-3.333,1.583-5.933,1.45-7.8
					C3.667,10.4,3.45,10.017,3.05,10.45z M3.6,3.95c-0.1,0.2-0.15,0.433-0.15,0.7l2.7,3.7c-0.267-2.067-0.8-3.483-1.6-4.25
					C4.017,3.633,3.7,3.583,3.6,3.95z M10.2,1.35C9.1,1.617,8.783,1.9,9.25,2.2l1,0.45L17.8,1.8C14.533,1.1,12,0.95,10.2,1.35z
					 M5.25-10l3.55-9.75c-2.466,3.767-4,6.85-4.6,9.25C3.8-9,3.85-8.483,4.35-8.95L5.25-10z M5.55-2.5
					c-0.3,0.567,0.167,0.45,1.4-0.35c2-1.3,4.517-3.566,7.55-6.8L6.4-3.6C6.1-3.3,5.817-2.933,5.55-2.5z M1.7-5.8
					c0.533,0.133,0.85,0.033,0.95-0.3l-0.1-0.65l-3.1-1.7L0.1-7.3C0.667-6.433,1.2-5.933,1.7-5.8z M2.6-14l-0.05-0.9l-3.85-5.15
					l0.8,2.25c0.667,1.733,1.333,2.9,2,3.5C2.133-13.6,2.5-13.5,2.6-14z M-5.95,0.25l-0.9-0.75l-8.1-2l2.7,1.45
					c2,0.966,3.667,1.55,5,1.75C-6.05,0.833-5.617,0.683-5.95,0.25z M-8.35,1.95l-1.1-0.4l-8.3,0.7c3.6,0.767,6.367,0.95,8.3,0.55
					C-8.283,2.567-7.917,2.283-8.35,1.95z M-2.35,11.45L-4.15,20c1.767-3.433,2.75-6.167,2.95-8.2
					c0.167-1.267,0.017-1.716-0.45-1.35L-2.35,11.45z M-8.2,6l-1.1,0.25l-6.65,5.35c3.4-1.4,5.817-2.817,7.25-4.25
					C-7.8,6.45-7.633,6-8.2,6z M-10.2-12.85c1.167,1.934,2.25,3.35,3.25,4.25c0.967,0.8,1.417,0.9,1.35,0.3L-6-9.45l-5.8-6.2
					L-10.2-12.85z"/>
			</g>
		</g>
	</g>
</symbol>
<symbol  id="Tween_25" viewBox="-19.6 -16.45 39.25 32.9">
	<g id="Layer_1_29_">
		<g>
			<g>
				<path style="fill-rule:evenodd;clip-rule:evenodd;fill:#B2C271;" d="M10.05,8.4c2.567-1.1,4.333-2.6,5.3-4.5
					c0.933-1.9,1.183-4.367,0.75-7.4c-0.3-2.133-1.184-3.733-2.65-4.8c-1.567-1.133-3.833-1.733-6.8-1.8
					c-3.066,0-6.483,0.5-10.25,1.5c-4.433,1.267-7.933,2.817-10.5,4.65c-0.733,0.6-1.483,1.45-2.25,2.55
					c-1.566,2.233-2.233,4.367-2,6.4c0.167,1.967,1.4,3.483,3.7,4.55l3,0.9c3.933,0.566,8.033,0.617,12.3,0.15
					C4.483,10.2,7.617,9.467,10.05,8.4z M15.5,2.15l-0.8,1.9c-0.867,1.367-1.983,2.417-3.35,3.15c-3.7,1.966-11.133,2.7-22.3,2.2
					c-2-0.267-3.4-0.767-4.2-1.5c-0.833-0.733-1-1.65-0.5-2.75c0.3-0.833,0.95-1.5,1.95-2c0.934-0.5,1.85-0.7,2.75-0.6
					c2.567,0.4,7.233,0.2,14-0.6c5.833-0.667,9.833-1.817,12-3.45C15.717-0.567,15.867,0.65,15.5,2.15z M14.25-4.2
					c0.067,0.167,0.133,0.317,0.2,0.45c-0.733-0.167-1.5-0.333-2.3-0.5c-1.7,0.1-4.066,0.433-7.1,1C-0.383-2.25-6-1.033-11.8,0.4
					l-2.45,0.3c-1.133-0.233-0.317-1.317,2.45-3.25C-5.367-5.35-0.133-7.1,3.9-7.8c3.733-0.667,6.6-0.45,8.6,0.65
					c1.6,0.9,2.55,2.083,2.85,3.55C15.25-3.867,14.883-4.067,14.25-4.2z M7.15-1.9c5.067-0.667,7.583-0.85,7.55-0.55
					c-1.5,0.467-3.417,0.967-5.75,1.5C2.483,0.483-3.683,1.267-9.55,1.4C-6.317,0.333-0.75-0.767,7.15-1.9z"/>
				<path style="fill-rule:evenodd;clip-rule:evenodd;fill:#8B9C6A;" d="M12.65,5.25c-1.667,1.2-4.2,2.017-7.6,2.45
					C1.383,8.2-3.633,8.317-10,8.05l-1.75-0.4c5.333-0.4,10.5-1,15.5-1.8C10.117,4.817,13.917,3.533,15.15,2
					C14.917,3.2,14.083,4.283,12.65,5.25z M15.5,2.15c0.367-1.5,0.217-2.717-0.45-3.65c-2.167,1.633-6.167,2.783-12,3.45
					c-6.767,0.8-11.433,1-14,0.6c-0.9-0.1-1.816,0.1-2.75,0.6c-1,0.5-1.65,1.167-1.95,2c-0.5,1.1-0.333,2.017,0.5,2.75
					c0.8,0.733,2.2,1.233,4.2,1.5c11.167,0.5,18.6-0.233,22.3-2.2c1.367-0.733,2.483-1.784,3.35-3.15L15.5,2.15z M12.15-4.25
					C10.75-4.45,9.233-4.6,7.6-4.7C-0.333-5.133-6.867-3.917-12-1.05c1.233-0.867,3.617-1.917,7.15-3.15c3.3-1.1,6.3-1.85,9-2.25
					c5.367-0.867,8.733-0.117,10.1,2.25c0.633,0.133,1,0.333,1.1,0.6c-0.3-1.467-1.25-2.65-2.85-3.55c-2-1.1-4.867-1.317-8.6-0.65
					c-4.033,0.7-9.267,2.45-15.7,5.25c-2.767,1.933-3.583,3.017-2.45,3.25l2.45-0.3C-6-1.033-0.383-2.25,5.05-3.25
					C8.083-3.817,10.45-4.15,12.15-4.25z M7.15-1.9c-7.9,1.133-13.467,2.233-16.7,3.3c5.867-0.133,12.033-0.917,18.5-2.35
					c2.333-0.533,4.25-1.033,5.75-1.5C14.733-2.75,12.217-2.567,7.15-1.9z M3.15,3.2c6.733-0.9,10.733-2.034,12-3.4
					c-0.3,0.833-1.217,1.65-2.75,2.45C8.7,4.117,0.417,5.233-12.45,5.6c-1.333-0.333-1.75-0.65-1.25-0.95
					C-7.5,4.317-1.883,3.833,3.15,3.2z"/>
				<path style="fill-rule:evenodd;clip-rule:evenodd;fill:#414E20;" d="M12.65,5.25c1.434-0.967,2.267-2.05,2.5-3.25
					c-1.233,1.533-5.033,2.817-11.4,3.85c-5,0.8-10.167,1.4-15.5,1.8l1.75,0.4C-3.633,8.317,1.383,8.2,5.05,7.7
					C8.45,7.267,10.983,6.45,12.65,5.25z"/>
				<path style="fill-rule:evenodd;clip-rule:evenodd;fill:#5C6E37;" d="M3.15,3.2C-1.883,3.833-7.5,4.317-13.7,4.65
					c-0.5,0.3-0.083,0.617,1.25,0.95C0.417,5.233,8.7,4.117,12.4,2.25c1.533-0.8,2.45-1.617,2.75-2.45
					C13.883,1.167,9.883,2.3,3.15,3.2z"/>
				<path style="fill-rule:evenodd;clip-rule:evenodd;fill:#DCEAA9;" d="M12.15-4.25c0.8,0.167,1.567,0.333,2.3,0.5
					c-0.067-0.133-0.133-0.283-0.2-0.45c-1.367-2.367-4.733-3.117-10.1-2.25c-2.7,0.4-5.7,1.15-9,2.25
					C-8.383-2.967-10.767-1.917-12-1.05C-6.867-3.917-0.333-5.133,7.6-4.7C9.233-4.6,10.75-4.45,12.15-4.25z"/>
			</g>
			<g>
				<path style="fill-rule:evenodd;clip-rule:evenodd;fill:#4D120B;" d="M2.65,7.8L2.2,8.85l0.2,7.6c0.967-3.3,1.317-5.85,1.05-7.65
					C3.25,7.7,2.983,7.367,2.65,7.8z M6.55,7.55l0.2,1l4.6,5.8c-1.1-3-2.283-5.133-3.55-6.4C7,7.15,6.583,7.017,6.55,7.55z
					 M0.35,6.5l-2.45,7.6l1.6-2.6c1.067-1.9,1.733-3.45,2-4.65c0.233-1.133,0.117-1.533-0.35-1.2L0.35,6.5z M11.15,1.5L12,2.1
					l7.65,1.5c-3-1.533-5.417-2.367-7.25-2.5C11.2,1,10.783,1.133,11.15,1.5z M11.65-5.1l0.95-0.5l4.25-5.7
					c-2.6,1.867-4.317,3.55-5.15,5.05C11.133-5.317,11.117-4.933,11.65-5.1z M19.45-2.05c-2.9-1.034-5.217-1.467-6.95-1.3
					c-1.1,0.1-1.467,0.3-1.1,0.6l0.85,0.45L19.45-2.05z M9.4-9.2l5.5-4.75c-2.933,1.3-5,2.6-6.2,3.9
					C7.933-9.217,7.833-8.833,8.4-8.9C8.667-8.9,9-9,9.4-9.2z M5.95-3.1l3.7-2.45c-2,0.2-3.383,0.683-4.15,1.45
					C5-3.633,4.933-3.35,5.3-3.25C5.467-3.15,5.683-3.1,5.95-3.1z M3.95-8.5L4.4-9.4l-0.35-7.05c-0.833,3-1.133,5.35-0.9,7.05
					C3.35-8.4,3.617-8.1,3.95-8.5z M-12.4,10.05c2.1-1.167,3.633-2.233,4.6-3.2c0.933-0.967,1.066-1.4,0.4-1.3L-8.6,5.9l-6.85,5.8
					L-12.4,10.05z M-6.05,0.1c0.8-0.434,1.35-0.95,1.65-1.55c0.167-0.533,0.066-0.816-0.3-0.85l-0.65,0.05L-7.3,0.7L-6.05,0.1z
					 M-17.1,0.75c1.833-0.667,3.117-1.317,3.85-1.95c0.767-0.667,0.883-1.017,0.35-1.05l-0.95,0.05l-5.75,3.75L-17.1,0.75z
					 M-1.2-6.4c-1.1-1.833-3.25-4.267-6.45-7.3l5.7,7.85l1.05,0.8C-0.333-4.75-0.433-5.2-1.2-6.4z M-8.55-4.8l-10.2-3.55
					c3.9,2.434,7.1,3.95,9.6,4.55c1.566,0.333,2.117,0.283,1.65-0.15L-8.55-4.8z"/>
			</g>
		</g>
	</g>
</symbol>
<symbol  id="Tween_40" viewBox="-25.772 -53.2 51.544 106.424">
	<g id="Layer_1_21_">
		<path style="fill-rule:evenodd;clip-rule:evenodd;fill:#B2C271;" d="M25.25,4.5c-0.9-10.233-2.883-20.333-5.95-30.3
			c-2.767-9-5.75-15.767-8.95-20.3L6.4-49.65c-3.167-2.333-6.317-3.517-9.45-3.55c-3.066,0-5.85,1.517-8.35,4.55l-2.85,4.6
			c-3.034,6.8-5.684,15.55-7.95,26.25c-2.567,12.367-3.75,23.7-3.55,34c0.267,12.767,2.7,22.3,7.3,28.6
			c5.7,7.8,14.417,10.184,26.15,7.15c7-1.767,11.983-6.667,14.95-14.7C25.583,29.25,26.45,18.333,25.25,4.5z"/>
	</g>
</symbol>
<symbol  id="Tween_8" viewBox="-5 -6.327 10 12.678">
	<g id="Layer_1_9_">
		<g>
			<path style="fill-rule:evenodd;clip-rule:evenodd;fill:#B2C271;" d="M2.85,3.45C2.117,3.683,1.217,4,0.15,4.4
				C-0.917,4.8-1.783,4.667-2.45,4c-0.667-0.667-1-1.65-1-2.95c0-1.333,0.367-2.483,1.1-3.45c0.7-0.934,1.567-1.4,2.6-1.4
				c1,0,1.867,0.466,2.6,1.4C3.55-1.433,3.9-0.283,3.9,1.05C3.9,2.417,3.55,3.217,2.85,3.45z M4.4-1.9
				C4.167-2.4,3.883-2.867,3.55-3.3C2.55-4.533,1.367-5.15,0-5.15c-0.1,0-0.2,0-0.3,0c-1.233,0.1-2.317,0.717-3.25,1.85
				C-3.683-3.133-3.8-2.983-3.9-2.85C-4.633-1.717-5-0.4-5,1.1c0,1.667,0.533,3.017,1.6,4.05c1.066,1.033,2.217,1.4,3.45,1.1
				c1.233-0.3,2.367-0.8,3.4-1.5C4.483,4.083,5,2.867,5,1.1C5,0,4.8-1,4.4-1.9z"/>
			
				<linearGradient id="SVGID_2_" gradientUnits="userSpaceOnUse" x1="6260.7007" y1="-19472.5898" x2="6267.667" y2="-19472.5898" gradientTransform="matrix(-0.585 -0.8111 0.8111 -0.585 19458.332 -6308.7983)">
				<stop  offset="0" style="stop-color:#232916"/>
				<stop  offset="0.9882" style="stop-color:#414E20"/>
			</linearGradient>
			<path style="fill-rule:evenodd;clip-rule:evenodd;fill:url(#SVGID_2_);" d="M2.85,3.45c0.7-0.233,1.05-1.034,1.05-2.4
				c0-1.333-0.35-2.483-1.05-3.45c-0.733-0.934-1.6-1.4-2.6-1.4c-1.033,0-1.9,0.466-2.6,1.4c-0.733,0.967-1.1,2.117-1.1,3.45
				c0,1.3,0.333,2.284,1,2.95c0.667,0.667,1.534,0.8,2.6,0.4C1.217,4,2.117,3.683,2.85,3.45z"/>
			<path style="fill-rule:evenodd;clip-rule:evenodd;fill:#8B9C6A;" d="M4.4-1.9C4.233-2.7,3.95-3.517,3.55-4.35
				c-0.333-0.8-0.667-1.3-1-1.5c-1.233-0.6-2.433-0.633-3.6-0.1C-2.117-5.35-2.933-4.6-3.5-3.7c-0.167,0.3-0.3,0.583-0.4,0.85
				c0.1-0.133,0.217-0.283,0.35-0.45c0.933-1.133,2.017-1.75,3.25-1.85c0.1,0,0.2,0,0.3,0c1.367,0,2.55,0.617,3.55,1.85
				C3.883-2.867,4.167-2.4,4.4-1.9z"/>
		</g>
	</g>
</symbol>
<symbol  id="Tween_9" viewBox="-21.378 -20.15 42.778 40.25">
	<g id="Layer_1_25_">
		<g>
			<g>
				<path style="fill-rule:evenodd;clip-rule:evenodd;fill:#414E20;" d="M-19.25,2c0.833,0.633,1.517,0.75,2.05,0.35
					c1.934-1.3,3.35-2.883,4.25-4.75c1.3-2.7,1.2-5.517-0.3-8.45c-1.6-3.133-3.467-3.15-5.6-0.05c-2.133,3-2.917,6.033-2.35,9.1
					C-20.867-0.033-20.217,1.233-19.25,2z"/>
			</g>
			<g>
				<path style="fill-rule:evenodd;clip-rule:evenodd;fill:#8B9C6A;" d="M14.25,7.05c-0.733,1.267-2.067,2.2-4,2.8
					c-2.267,0.633-5.233,0.483-8.9-0.45C-2.617,8.333-7.7,6.283-13.9,3.25l-1.55-1.2c5.6,1.833,10.967,3.333,16.1,4.5
					C7.717,8.15,12.25,8.317,14.25,7.05z M14.6,7.35c0.967-1.567,1.3-3.083,1-4.55C12.5,3.767,7.767,3.417,1.4,1.75
					c-7.167-1.933-11.867-3.6-14.1-5c-0.733-0.5-1.683-0.65-2.85-0.45c-1.167,0.2-2.034,0.684-2.6,1.45
					c-1.767,2.067-0.833,4.283,2.8,6.65C-9.517,7.3-4.667,9.317-0.8,10.45c3.6,1.066,6.566,1.45,8.9,1.15c1.7-0.233,3.333-1,4.9-2.3
					L14.6,7.35z M15.15,4.4c-0.7,0.9-2.033,1.467-4,1.7c-2.333,0.3-5.517-0.033-9.55-1c-4.3-1.033-9.934-2.883-16.9-5.55
					c-1.133-0.933-1.417-1.466-0.85-1.6C-10.05,0.083-4.333,1.833,1,3.2C8.433,5.067,13.15,5.467,15.15,4.4z M15.55,1.5
					c0.167-0.367-2.617-1.217-8.35-2.55C-1.567-2.983-7.617-3.967-10.95-4C-5.017-1.833,1.533-0.233,8.7,0.8
					C11.133,1.133,13.417,1.367,15.55,1.5z M15.75-0.8c0.667,0.4,1,0.8,1,1.2c0.2-1.933-0.4-3.75-1.8-5.45
					c-1.733-2.067-4.65-3.467-8.75-4.2C1.8-10.017-4.133-10.033-11.6-9.3c-3.333,1.1-4.517,2-3.55,2.7l2.4,0.6
					C-5.283-5.167,0.8-4.333,5.5-3.5c3.4,0.6,6.05,1.183,7.95,1.75c-1.4-0.8-2.967-1.617-4.7-2.45c-7.967-3.566-15-4.733-21.1-3.5
					c1.767-0.533,4.483-0.8,8.15-0.8c3.733,0,7.067,0.3,10,0.9C11.833-6.4,15.15-4.133,15.75-0.8z"/>
				<path style="fill-rule:evenodd;clip-rule:evenodd;fill:#5C6E37;" d="M15.15,4.4C13.15,5.467,8.433,5.067,1,3.2
					c-5.333-1.367-11.05-3.117-17.15-5.25c-0.567,0.133-0.283,0.667,0.85,1.6C-8.333,2.217-2.7,4.067,1.6,5.1
					c4.033,0.967,7.217,1.3,9.55,1C13.117,5.867,14.45,5.3,15.15,4.4z"/>
				<path style="fill-rule:evenodd;clip-rule:evenodd;fill:#B2C271;" d="M17.5,0.85c0.5-2.667,0.167-4.934-1-6.8
					c-1.233-1.966-3.45-3.583-6.65-4.85c-3.1-1.233-6.8-1.967-11.1-2.2c-4.833-0.2-8.833,0.233-12,1.3
					c-0.967,0.4-1.983,1.067-3.05,2c-2.267,1.8-3.7,3.867-4.3,6.2c-0.6,2.233-0.033,4.4,1.7,6.5l2.5,2.25
					c3.367,2.2,7.367,4.033,12,5.5c4.1,1.267,7.633,1.817,10.6,1.65c3.233-0.167,5.75-1.167,7.55-3
					C15.517,7.567,16.767,4.717,17.5,0.85z M14.6,7.35L13,9.3c-1.567,1.3-3.2,2.067-4.9,2.3c-2.333,0.3-5.3-0.083-8.9-1.15
					C-4.667,9.317-9.517,7.3-15.35,4.4c-3.633-2.367-4.566-4.583-2.8-6.65c0.566-0.767,1.433-1.25,2.6-1.45
					c1.167-0.2,2.117-0.05,2.85,0.45c2.233,1.4,6.934,3.067,14.1,5C7.767,3.417,12.5,3.767,15.6,2.8
					C15.9,4.267,15.567,5.783,14.6,7.35z M15.75-0.8c0.033,0.233,0.05,0.45,0.05,0.65c-0.733-0.533-1.517-1.067-2.35-1.6
					C11.55-2.317,8.9-2.9,5.5-3.5C0.8-4.333-5.283-5.167-12.75-6l-2.4-0.6c-0.967-0.7,0.217-1.6,3.55-2.7
					c7.467-0.733,13.4-0.717,17.8,0.05c4.1,0.733,7.017,2.133,8.75,4.2c1.4,1.7,2,3.517,1.8,5.45C16.75,0,16.417-0.4,15.75-0.8z
					 M15.55,1.5c-2.133-0.133-4.417-0.367-6.85-0.7C1.533-0.233-5.017-1.833-10.95-4C-7.617-3.967-1.567-2.983,7.2-1.05
					C12.933,0.283,15.717,1.133,15.55,1.5z"/>
				<path style="fill-rule:evenodd;clip-rule:evenodd;fill:#414E20;" d="M14.25,7.05c-2,1.267-6.533,1.1-13.6-0.5
					c-5.133-1.167-10.5-2.667-16.1-4.5l1.55,1.2C-7.7,6.283-2.617,8.333,1.35,9.4c3.667,0.934,6.633,1.083,8.9,0.45
					C12.183,9.25,13.517,8.317,14.25,7.05z"/>
				<path style="fill-rule:evenodd;clip-rule:evenodd;fill:#DCEAA9;" d="M15.75-0.8c-0.6-3.333-3.917-5.6-9.95-6.8
					c-2.933-0.6-6.267-0.9-10-0.9c-3.667,0-6.383,0.267-8.15,0.8c6.1-1.233,13.133-0.066,21.1,3.5c1.733,0.833,3.3,1.65,4.7,2.45
					c0.833,0.533,1.617,1.067,2.35,1.6C15.8-0.35,15.783-0.567,15.75-0.8z"/>
			</g>
			<g>
				<path style="fill-rule:evenodd;clip-rule:evenodd;fill:#4D120B;" d="M5.25,20.1c0-4.167-0.417-7.25-1.25-9.25
					C3.467,9.517,3.083,9.167,2.85,9.8l-0.2,1.3L5.25,20.1z M10.8,5.8l7.85,5.25c-2.7-3.2-5.033-5.316-7-6.35
					C10.417,4.067,9.9,4.05,10.1,4.65L10.8,5.8z M20.7,4.1c-2.7-2.434-5.1-3.983-7.2-4.65c-1.233-0.367-1.717-0.284-1.45,0.25
					l0.75,0.9L20.7,4.1z M11.2-8.75c0.267,0.1,0.667,0.117,1.2,0.05l7.9-3.45c-3.667,0.4-6.433,1.117-8.3,2.15
					C10.933-9.367,10.667-8.95,11.2-8.75z M14.45-3.2l6.95-5c-3.6,1.233-6.15,2.517-7.65,3.85C12.85-3.45,12.683-3,13.25-3
					C13.617-3,14.017-3.067,14.45-3.2z M7.2-10.9l2.35-8.25c-2.1,3.2-3.316,5.783-3.65,7.75c-0.2,1.233-0.05,1.683,0.45,1.35
					C6.583-10.15,6.867-10.433,7.2-10.9z M0.3-9.6c-0.466-2.7-1.7-6.217-3.7-10.55l2.75,10.9c0.267,0.633,0.517,1.067,0.75,1.3
					C0.533-7.35,0.6-7.9,0.3-9.6z M5.75-3.4c0.1,0.133,0.317,0.283,0.65,0.45l4.85-1.4c-2.133-0.566-3.783-0.566-4.95,0
					C5.6-3.983,5.417-3.667,5.75-3.4z M-11.35,2.8c1.267-0.7,1.567-1.15,0.9-1.35l-1.3-0.05l-8.7,3.7L-17,4.55
					C-14.467,4.05-12.583,3.467-11.35,2.8z M-1.3,8.35l-0.85,1l-2.8,9c2.3-3.467,3.65-6.3,4.05-8.5C-0.6,8.483-0.733,7.983-1.3,8.35
					z M-2.1,6.7C-1.367,5.467-1.333,4.95-2,5.15l-1.15,0.7l-5.4,7.75l2.6-2.3C-4.083,9.467-2.8,7.933-2.1,6.7z M-5.45-6.45L-8.5-3.9
					l1.45-0.25c1.066-0.2,1.8-0.55,2.2-1.05s0.417-0.883,0.05-1.15L-5.45-6.45z M-6.9-9.25l-0.7-1.35l-8.35-7.55
					c2.8,4.033,5.267,6.85,7.4,8.45C-7.183-8.633-6.633-8.483-6.9-9.25z M-13.5-8.35c1-0.4,1.25-0.75,0.75-1.05l-0.95-0.25l-6.75,2
					h2.6C-15.95-7.65-14.5-7.883-13.5-8.35z"/>
			</g>
		</g>
	</g>
</symbol>
<symbol  id="cactus_1_" viewBox="-72.95 -61.95 138.72 126.666">
	<g id="Layer_8_1_">
		<g>
			
				<radialGradient id="SVGID_3_" cx="-11.2749" cy="-55.1504" r="24.5143" gradientTransform="matrix(1 0 0 -0.2766 0 -70.4063)" gradientUnits="userSpaceOnUse">
				<stop  offset="0" style="stop-color:#000000;stop-opacity:0.6784"/>
				<stop  offset="0.7176" style="stop-color:#000000;stop-opacity:0.1137"/>
			</radialGradient>
			<path style="fill-rule:evenodd;clip-rule:evenodd;fill:url(#SVGID_3_);" d="M13.25-55.15c0-1.867-2.4-3.467-7.2-4.8
				c-4.8-1.333-10.583-2-17.35-2c-6.767,0-12.55,0.667-17.35,2c-4.767,1.333-7.15,2.934-7.15,4.8s2.383,3.467,7.15,4.8
				c4.8,1.333,10.583,2,17.35,2c6.767,0,12.55-0.667,17.35-2C10.85-51.683,13.25-53.283,13.25-55.15z"/>
		</g>
	</g>
	<g id="Layer_7_1_">
		<g>
			
				<use xlink:href="#Tween_25"  width="39.25" height="32.9" x="-19.6" y="-16.45" transform="matrix(1 0 0 1 -40.8501 -15.7002)" style="overflow:visible;"/>
			
				<use xlink:href="#Tween_17"  width="35.55" height="40.05" x="-17.75" y="-20.05" transform="matrix(1 0 0 1 -55.2002 5.2002)" style="overflow:visible;"/>
		</g>
	</g>
	<g id="Layer_6_1_">
		<g>
			
				<use xlink:href="#Tween_9"  width="42.778" height="40.25" x="-21.378" y="-20.15" transform="matrix(1 0 0 1 25.2002 -17.0498)" style="overflow:visible;"/>
			
				<use xlink:href="#Tween_1"  width="39.5" height="45.1" x="-19.75" y="-22.55" transform="matrix(1 0 0 1 42.3501 2.1499)" style="overflow:visible;"/>
		</g>
	</g>
	<g id="Layer_5_1_">
		<g>
			<path style="fill-rule:evenodd;clip-rule:evenodd;fill:#B2C271;" d="M14.5,33.3c2.933-8,3.8-18.917,2.6-32.75
				c-0.9-10.233-2.883-20.333-5.95-30.3c-2.767-9-5.75-15.767-8.95-20.3l-3.95-3.55c-3.167-2.333-6.317-3.517-9.45-3.55
				c-3.066,0-5.85,1.517-8.35,4.55L-22.4-48c-3.033,6.8-5.684,15.55-7.95,26.25c-2.566,12.367-3.75,23.7-3.55,34
				c0.267,12.767,2.7,22.3,7.3,28.6c5.7,7.8,14.417,10.183,26.15,7.15C6.55,46.233,11.533,41.333,14.5,33.3z"/>
			
				<use xlink:href="#line_x5F_01"  width="44.946" height="98.945" x="0.018" y="-98.947" transform="matrix(1 0 0 1 -32.1001 44.9502)" style="overflow:visible;"/>
			
				<use xlink:href="#line_x5F_02"  width="37.948" height="92.007" x="0.006" y="-92.007" transform="matrix(1 0 0 1 -28.7002 41.2998)" style="overflow:visible;"/>
			
				<use xlink:href="#sting"  width="68.2" height="99.2" y="-99.2" transform="matrix(1 0 0 1 -44.5498 53.9502)" style="overflow:visible;"/>
		</g>
	</g>
	<g id="Layer_4_1_">
		<g>
			
				<linearGradient id="SVGID_4_" gradientUnits="userSpaceOnUse" x1="185.8682" y1="-16886.7461" x2="197.1043" y2="-16886.7461" gradientTransform="matrix(-0.0801 -0.9968 1.001 -0.0275 16906.2324 -267.8882)">
				<stop  offset="0" style="stop-color:#232916"/>
				<stop  offset="0.9882" style="stop-color:#414E20"/>
			</linearGradient>
			<path style="fill-rule:evenodd;clip-rule:evenodd;fill:url(#SVGID_4_);" d="M-31.05,9.1c-0.167,0.667,0,1.167,0.5,1.5
				c0.033,0.066,0.083,0.117,0.15,0.15c0.5,0.367,1.6,0.867,3.3,1.5l0.9,0.15c0.067-0.633,0.083-1.017,0.05-1.15
				c0-0.4,0.1-0.6,0.3-0.6l2.15,0.1c0.233,0,0.483,0.05,0.75,0.15c0.233,0.067,0.467,0.184,0.7,0.35c0.133,0.033,0.267,0.6,0.4,1.7
				c0.067,0,0.133,0,0.2,0c0.167,0,0.333,0.017,0.5,0.05c4.433,0.4,8.283,0.45,11.55,0.15l-0.25-1.75c0-0.367,0.233-0.583,0.7-0.65
				c1.066-0.167,1.9-0.25,2.5-0.25l1.4,0.1l0.55,2.1v0.05c0.067-0.033,0.15-0.05,0.25-0.05c4.233-0.833,6.883-1.517,7.95-2.05
				c1.1-0.533,1.75-0.983,1.95-1.35C5.617,8.967,5.7,8.667,5.7,8.4V8.05c-0.034-0.333-0.217-0.667-0.55-1
				c-0.066-0.066-0.133-0.133-0.2-0.2C4.883,6.817,4.833,6.783,4.8,6.75L4.25,6.4C3.117,5.933,1.9,5.633,0.6,5.5
				c-1.533-0.2-3.1-0.3-4.7-0.3c-1.4-0.034-2.833-0.067-4.3-0.1c-1.6-0.033-3.2,0-4.8,0.1c-0.167,0.033-0.316,0.05-0.45,0.05
				c-0.1,0.033-0.184,0.05-0.25,0.05c0,0.9-0.2,1.8-0.6,2.7c-1.133,0.067-2.3,0.033-3.5-0.1l-0.25-0.35
				c-0.067-0.333-0.083-0.95-0.05-1.85V5.6h-1.4c-2.7-0.067-5.25,0.217-7.65,0.85c-1.867,0.533-2.9,0.983-3.1,1.35
				C-30.783,8.367-30.983,8.8-31.05,9.1z"/>
			<path style="fill-rule:evenodd;clip-rule:evenodd;fill:#B2C271;" d="M-15.35,7.4l-2.9,0.15l0.25,0.4c1.2,0.1,2.367,0.1,3.5,0
				c0.4-0.867,0.6-1.767,0.6-2.7c0.233,0,0.467,0,0.7,0c1.6-0.133,3.2-0.183,4.8-0.15c1.467,0,2.9,0.017,4.3,0.05
				c1.6,0.033,3.167,0.133,4.7,0.3c1.3,0.133,2.517,0.466,3.65,1c-1.133-0.567-2.333-1.034-3.6-1.4C-0.683,4.683-2.1,4.5-3.6,4.5
				c-1.566-0.033-3.1-0.067-4.6-0.1c-1.566-0.133-3.117-0.15-4.65-0.05c-0.7,0.066-1.383,0.117-2.05,0.15
				C-14.9,5.5-15.05,6.467-15.35,7.4z M-30.55,10.65c-0.5-0.4-0.667-0.917-0.5-1.55c0.066-0.3,0.267-0.717,0.6-1.25
				c0.2-0.4,1.233-0.867,3.1-1.4c2.4-0.667,4.95-0.967,7.65-0.9l1.35,0.05c0.033-0.233,0.033-0.45,0-0.65
				c-0.6,0-1.367,0.017-2.3,0.05c-2.7-0.067-5.2,0.267-7.5,1c-1.8,0.5-2.817,0.967-3.05,1.4c-0.333,0.533-0.533,0.967-0.6,1.3
				c-0.167,0.667,0.05,1.2,0.65,1.6C-31.05,10.367-30.85,10.483-30.55,10.65z"/>
			
				<use xlink:href="#Tween_13"  width="18.75" height="2.4" x="-9.35" y="-1.2" transform="matrix(1 0 0 1 -13.5498 11.75)" style="overflow:visible;"/>
		</g>
	</g>
	<g id="Layer_3_1_">
		<g>
			
				<use xlink:href="#Tween_11"  width="7.784" height="10.422" x="-3.906" y="-5.21" transform="matrix(1 0 0 1 -25.7998 20.0498)" style="overflow:visible;"/>
			
				<use xlink:href="#Tween_8"  width="10" height="12.678" x="-5" y="-6.327" transform="matrix(1 0 0 1 -2.5 18.8999)" style="overflow:visible;"/>
		</g>
	</g>
	<g id="Layer_2_2_">
		<g>
			
				<use xlink:href="#water"  width="6.073" height="4.669" y="-4.669" transform="matrix(0.9999 0.0126 -0.0126 0.9999 59.6499 25.6499)" style="overflow:visible;opacity:0;"/>
			
				<use xlink:href="#water_x5F_02"  width="8.134" height="4.665" y="-4.65" transform="matrix(1 0 0 1 57.6001 64.7002)" style="overflow:visible;opacity:0;"/>
			
				<use xlink:href="#water_x5F_01"  width="8.8" height="3.039" y="-3.064" transform="matrix(0.8411 0.5409 -0.5409 0.8411 -52.9502 25.1001)" style="overflow:visible;opacity:0;"/>
		</g>
	</g>
	<g id="label_1_">
	</g>
</symbol>
<symbol  id="line_x5F_01" viewBox="0.018 -98.947 44.946 98.945">
	<g id="Layer_1_20_">
		<path style="fill-rule:evenodd;clip-rule:evenodd;fill:#8B9C6A;" d="M34.3-9.1c-0.367,4.067-1.1,6.467-2.2,7.2
			c4.9-2,8.55-7.567,10.95-16.7c2.333-8.933,2.534-19.6,0.6-32c-1.9-12.233-5.816-25.883-11.75-40.95c-2.8-4.5-4.483-5.9-5.05-4.2
			v3.85c1.9,12.367,3.633,25.967,5.2,40.8c1.3,12.1,2.083,21.967,2.35,29.6L34.3-9.1z M25.15-3.95
			c-4.233-12.8-5.917-30.95-5.05-54.45c0.7-17.167,1.7-27.934,3-32.3c0.467-1.433,0.35-2.933-0.35-4.5
			c-0.633-1.533-1.567-2.617-2.8-3.25c-3.2-1.6-6.15,0.667-8.85,6.8C2.433-64.017-1.15-42.217,0.35-26.25
			C1.017-18.783,3.167-12.367,6.8-7l1.55,1.85c1.333,1.433,2.7,2.6,4.1,3.5C17.117,1.15,21.35,0.383,25.15-3.95z"/>
	</g>
</symbol>
<symbol  id="line_x5F_02" viewBox="0.006 -92.007 37.948 92.007">
	<g id="Layer_1_19_">
		<path style="fill-rule:evenodd;clip-rule:evenodd;fill:#DCEAA9;" d="M37.25-20.6c1.167-7.767,0.883-17.617-0.85-29.55
			c-1.167-8.1-2.933-16.233-5.3-24.4C29.133-81.417,27.417-86,25.95-88.3c5.033,10.267,7.15,27.066,6.35,50.4
			c-0.233,7.033-0.667,13.75-1.3,20.15c-0.467,4.733-1.017,9.3-1.65,13.7c0.533-0.434,1.05-0.9,1.55-1.4
			C34.1-8.783,36.217-13.833,37.25-20.6z"/>
		<path style="fill-rule:evenodd;clip-rule:evenodd;fill:#414E20;" d="M9.45-0.55c-3.8-7.567-4.6-24.75-2.4-51.55
			c1.133-13.433,2.567-25.667,4.3-36.7l-1.4,3.15C0.883-54.217-1.983-30.667,1.35-15C2.45-9.933,4.133-6.017,6.4-3.25
			C7.567-1.85,8.583-0.95,9.45-0.55z"/>
		<path style="fill-rule:evenodd;clip-rule:evenodd;fill:#5C6E37;" d="M17.25,0c-3.667-8.133-4.817-26.317-3.45-54.55
			c0.667-13.367,1.667-25.767,3-37.2c-0.1-0.2-0.25-0.283-0.45-0.25c-0.4,0.1-0.9,0.783-1.5,2.05
			c-5.233,31.867-6.467,56.317-3.7,73.35C12.617-7.533,14.65-2,17.25,0z"/>
		<path style="fill-rule:evenodd;clip-rule:evenodd;fill:#8B9C6A;" d="M24.95-39.95c-1-23.367-2.2-38.233-3.6-44.6
			c-1.1,12.7-0.85,29.9,0.75,51.6c0.867,11.733,1.833,21.867,2.9,30.4C26.067-2.35,26.05-14.817,24.95-39.95z"/>
	</g>
</symbol>
<symbol  id="mouse_x5F_talk" viewBox="-215.054 118.36 37.551 11.769">
	<g id="Layer_3_2_">
		
			<use xlink:href="#mouth"  width="36.812" height="10.91" x="-0.013" y="-10.907" transform="matrix(0.9999 0.0263 0 1 -214.2998 129.7002)" style="overflow:visible;"/>
	</g>
	<g id="leftarm_1_">
		
			<use xlink:href="#tooth02"  width="36.105" height="8.806" x="-0.004" y="-8.806" transform="matrix(0.9999 0.0263 0 1 -215.0498 126.5996)" style="overflow:visible;"/>
	</g>
	<g id="rigfhtarm_1_">
		
			<use xlink:href="#tooth01"  width="18.8" height="3.6" y="-3.6" transform="matrix(0.9999 0.0263 0 1 -206.1504 129.5996)" style="overflow:visible;"/>
	</g>
</symbol>
<symbol  id="mouth" viewBox="-0.013 -10.907 36.812 10.91">
	<g id="Layer_1_15_">
		
			<linearGradient id="SVGID_5_" gradientUnits="userSpaceOnUse" x1="499.7349" y1="-16715.9102" x2="514.3127" y2="-16715.9102" gradientTransform="matrix(-0.0617 -0.9981 0.9981 -0.0617 16733.4863 -535.5928)">
			<stop  offset="0" style="stop-color:#232916"/>
			<stop  offset="0.9882" style="stop-color:#414E20"/>
		</linearGradient>
		<path style="fill-rule:evenodd;clip-rule:evenodd;fill:url(#SVGID_5_);" d="M36.8-6.95c0-0.3,0-0.466,0-0.5
			c-0.033-0.4-0.216-0.816-0.55-1.25c-0.067-0.1-0.133-0.2-0.2-0.3c-0.066-0.033-0.117-0.083-0.15-0.15L35.35-9.5
			c-1.133-0.633-2.35-1.017-3.65-1.15c-1.534-0.2-3.1-0.283-4.7-0.25c-1.4,0-2.833,0-4.3,0c-1.6,0-3.2,0.1-4.8,0.3
			c-0.151,0.021-0.302,0.047-0.45,0.075c-0.085,0.005-0.168,0.013-0.25,0.025v0.025C17.196-9.281,16.996-8.122,16.6-7
			c-1.133,0.167-2.3,0.183-3.5,0.05l-0.25-0.5c-0.064-0.448-0.081-1.248-0.05-2.4c-0.001-0.051-0.001-0.102,0-0.15h-1.4
			c-2.7,0-5.25,0.45-7.65,1.35c-1.867,0.767-2.9,1.4-3.1,1.9c-0.333,0.733-0.533,1.3-0.6,1.7c-0.167,0.833,0,1.483,0.5,1.95
			C0.583-3.033,0.633-2.983,0.7-2.95C1.2-2.517,2.3-1.9,4-1.1l0.9,0.2c0.067-0.833,0.083-1.333,0.05-1.5c0-0.533,0.1-0.8,0.3-0.8
			L7.4-3.1c0.233,0,0.483,0.05,0.75,0.15c0.233,0.1,0.467,0.233,0.7,0.4c0.133,0.066,0.267,0.816,0.4,2.25c0.067,0,0.133,0,0.2,0
			c0.169,0.016,0.335,0.032,0.5,0.05c4.424,0.382,8.274,0.332,11.55-0.15l-0.25-2.3c0-0.466,0.233-0.75,0.7-0.85
			c1.066-0.233,1.9-0.35,2.5-0.35l1.4,0.05l0.55,2.775v0.025c0.074-0.021,0.149-0.037,0.225-0.05C30.86-2.28,33.519-3.246,34.6-4
			c1.1-0.733,1.75-1.333,1.95-1.8C36.717-6.233,36.8-6.617,36.8-6.95z"/>
	</g>
</symbol>
<symbol  id="sting" viewBox="0 -99.2 68.2 99.2">
	<g id="Layer_1_18_">
		<path style="fill-rule:evenodd;clip-rule:evenodd;fill:#4D120B;" d="M42.9-12.1c-1.133-1.233-1.65-1.483-1.55-0.75l0.45,1.45
			l6.85,8.9C46.65-7,44.733-10.2,42.9-12.1z M53.05-20.7c2,1.8,5.15,3.8,9.45,6l-8.9-6.8c-0.434-0.267-0.9-0.467-1.4-0.6
			C51.533-22.267,51.817-21.8,53.05-20.7z M56.2-31.85c0.233,0.333,0.633,0.65,1.2,0.95l10.8,3.15c-4.3-2.433-7.733-3.917-10.3-4.45
			C56.233-32.5,55.667-32.383,56.2-31.85z M49.65-27.55l2.7,1.05c-0.4-1.3-1-2-1.8-2.1c-0.5,0-0.8,0.167-0.9,0.5V-27.55z
			 M59.85-46.25c1.367,0.3,3.267-0.083,5.7-1.15l-5.8-0.15c-0.333,0.167-0.567,0.333-0.7,0.5
			C58.717-46.683,58.983-46.417,59.85-46.25z M50.95-44.65c-1.3,0.1-1.733,0.35-1.3,0.75c0.167,0.167,0.533,0.367,1.1,0.6l8.95,0.5
			C56.033-44.133,53.117-44.75,50.95-44.65z M31.55-0.25l0.4-4.2c0.233-3.033,0.2-5.383-0.1-7.05c-0.3-1.633-0.617-2.133-0.95-1.5
			l-0.4,1.5L31.55-0.25z M22.55-2.7c1.034-2,1.633-3.633,1.8-4.9c0.2-1.2,0.05-1.65-0.45-1.35L23.1-8.1L21.05,0L22.55-2.7z
			 M9.2-23.9c3.2-0.3,5.517-0.733,6.95-1.3c1.533-0.533,1.95-0.933,1.25-1.2l-1.5-0.1L5.05-23.6L9.2-23.9z M4.1-43.95
			c3.066,0.333,5.417,0.383,7.05,0.15c1.6-0.267,2.1-0.567,1.5-0.9c-0.3-0.133-0.783-0.283-1.45-0.45L0-44.55L4.1-43.95z
			 M14.95-38.45c-0.1-0.167-0.3-0.316-0.6-0.45l-4.7,0.65l1.7,0.6c1.233,0.333,2.2,0.383,2.9,0.15
			C14.95-37.767,15.183-38.083,14.95-38.45z M25-37.25c1.633,0.433,2.967,0.6,4,0.5c0.967-0.167,1.3-0.433,1-0.8l-0.8-0.6l-6.45,0.1
			L25-37.25z M38.4-69.15l0.65,0.45l5.1-0.6c-2.1-0.9-3.767-1.15-5-0.75C38.417-69.817,38.167-69.517,38.4-69.15z M20.25-64.35
			c0.6,0.367,1.383,0.767,2.35,1.2c1.833,0.833,3.283,1.267,4.35,1.3c1.066,0,1.45-0.217,1.15-0.65c-0.133-0.2-0.4-0.417-0.8-0.65
			L20.25-64.35z M18.85-71.8c1.3-0.1,1.733-0.35,1.3-0.75c-0.1-0.1-0.467-0.317-1.1-0.65l-8.8-0.5l3.1,1
			C15.75-72.067,17.583-71.767,18.85-71.8z M16.5-62.4c1.333-0.067,1.767-0.317,1.3-0.75c-0.333-0.267-0.683-0.45-1.05-0.55
			L7.9-64.2l3.1,1C13.5-62.567,15.333-62.3,16.5-62.4z M16-90.2c2,1.133,3.633,1.8,4.9,2c1.3,0.233,1.767,0.067,1.4-0.5
			c-0.2-0.3-0.5-0.55-0.9-0.75l-8.1-2.35L16-90.2z M40.45-81.3l8.35-3.35c-3.9,0.333-6.8,0.983-8.7,1.95
			c-1.133,0.633-1.417,1.05-0.85,1.25C39.45-81.35,39.85-81.3,40.45-81.3z M27.05-78.65c1.1,0.133,1.5-0.033,1.2-0.5
			c-0.1-0.167-0.333-0.417-0.7-0.75l-6.95-1.8l2.25,1.4C24.617-79.3,26.017-78.75,27.05-78.65z M37.35-96.95l0.85,0.25l5.45-2.5
			c-2.633,0-4.566,0.383-5.8,1.15C37.117-97.517,36.95-97.15,37.35-96.95z M43.35-60.2c-1.2,0.4-1.55,0.75-1.05,1.05l1.2,0.3
			l8.75-1.9C48.283-61.05,45.317-60.867,43.35-60.2z M50.2-92.55c-1.133,0.6-1.417,1.017-0.85,1.25c0.3,0.066,0.717,0.066,1.25,0
			l8.25-3.4C54.95-94.3,52.067-93.583,50.2-92.55z"/>
	</g>
</symbol>
<symbol  id="t01" viewBox="-19.75 -22.55 39.5 45.1">
	<g id="Layer_1_22_">
		<g>
			<g>
				<path style="fill-rule:evenodd;clip-rule:evenodd;fill:#414E20;" d="M-9.5-11.75c0.733,0.4,1.683,0.6,2.85,0.6
					c0.267,0,1.95-0.05,5.05-0.15c2.8-0.633,3.783-2.317,2.95-5.05c-0.9-2.967-2.7-4.117-5.4-3.45c-2.4,0.6-4.333,2.083-5.8,4.45
					C-10.917-13.65-10.8-12.45-9.5-11.75z"/>
			</g>
			<g>
				<path style="fill-rule:evenodd;clip-rule:evenodd;fill:#B2C271;" d="M6.6,11.15c-0.167,0.1-0.35,0.2-0.55,0.3
					c0.233-0.7,0.434-1.45,0.6-2.25C6.517,7.567,6.067,5.283,5.3,2.35c-1-3.867-2.55-8.8-4.65-14.8l-0.35-2.1
					c0.267-1.034,1.583-0.5,3.95,1.6c3.633,5.367,5.933,9.867,6.9,13.5c0.9,3.367,0.667,6.133-0.7,8.3
					c-1.067,1.767-2.6,2.95-4.6,3.55C6.25,12.233,6.5,11.817,6.6,11.15z M4.35,11.95c-0.667-1.434-1.333-3.25-2-5.45
					c-1.8-5.8-2.8-11.4-3-16.8c1.367,2.7,2.767,7.667,4.2,14.9C4.517,9.5,4.783,11.95,4.35,11.95z M14.1,2.65
					c-0.067-2.867-0.8-5.967-2.2-9.3c-1.667-3.733-3.65-6.583-5.95-8.55c-0.733-0.5-1.767-1-3.1-1.5
					c-2.7-0.966-5.283-1.183-7.75-0.65c-2.367,0.434-4.25,1.733-5.65,3.9l-1.2,2.8c-0.833,3.333-1.067,7.1-0.7,11.3
					c0.4,3.6,1.233,6.5,2.5,8.7c1.4,2.367,3.367,3.85,5.9,4.45c2.466,0.6,5.733,0.383,9.8-0.65c2.767-0.7,4.833-1.883,6.2-3.55
					C13.383,7.9,14.1,5.583,14.1,2.65z M-1.7,13.65l-2.55-0.45c-1.833-0.6-3.217-1.517-4.15-2.75c-1.2-1.633-1.983-4.034-2.35-7.2
					c-0.367-3.367-0.3-7.85,0.2-13.45c0.867-3.7,2.667-5.316,5.4-4.85c1,0.133,1.816,0.6,2.45,1.4c0.633,0.8,0.85,1.566,0.65,2.3
					c-0.5,2.4-0.284,6.633,0.65,12.7c0.833,5.533,2.333,9.25,4.5,11.15C1.8,13.367,0.2,13.75-1.7,13.65z"/>
				<path style="fill-rule:evenodd;clip-rule:evenodd;fill:#8B9C6A;" d="M6.65,9.2C6.917,7.8,7.1,6.233,7.2,4.5
					C7.633-2.967,6.033-8.75,2.4-12.85c1.1,0.934,2.417,2.867,3.95,5.8C7.783-4.25,8.8-1.6,9.4,0.9c1.2,5.033,0.267,8.45-2.8,10.25
					c-0.1,0.667-0.35,1.083-0.75,1.25c2-0.6,3.533-1.783,4.6-3.55c1.367-2.167,1.6-4.934,0.7-8.3c-0.967-3.633-3.267-8.133-6.9-13.5
					c-2.367-2.1-3.683-2.633-3.95-1.6l0.35,2.1c2.1,6,3.65,10.934,4.65,14.8C6.067,5.283,6.517,7.567,6.65,9.2z M4.35,11.95
					c0.433,0,0.167-2.45-0.8-7.35C2.117-2.633,0.717-7.6-0.65-10.3c0.2,5.4,1.2,11,3,16.8C3.017,8.7,3.683,10.517,4.35,11.95z
					 M-1.7,13.65c1.9,0.1,3.5-0.283,4.8-1.15C0.933,10.6-0.567,6.883-1.4,1.35c-0.934-6.067-1.15-10.3-0.65-12.7
					c0.2-0.733-0.017-1.5-0.65-2.3c-0.633-0.8-1.45-1.267-2.45-1.4c-2.733-0.467-4.533,1.15-5.4,4.85
					c-0.5,5.6-0.567,10.083-0.2,13.45c0.367,3.167,1.15,5.567,2.35,7.2c0.933,1.233,2.316,2.15,4.15,2.75L-1.7,13.65z M-1.85,10.55
					C-3.05,8.883-3.967,6.333-4.6,2.9c-0.667-3.667-1.066-8.683-1.2-15.05c0.433-1.233,0.833-1.65,1.2-1.25
					C-4.267-7.7-3.717-2.667-2.95,1.7c1.034,6.367,2.467,10.083,4.3,11.15C0.25,12.683-0.817,11.917-1.85,10.55z M-5.85,11.35
					c-1.5-1.434-2.5-3.733-3-6.9c-0.533-3.434-0.533-8.117,0-14.05l0.55-1.65c0.367,4.633,1,9.3,1.9,14c1.233,6,2.85,9.5,4.85,10.5
					C-3.15,13.183-4.583,12.55-5.85,11.35z"/>
				<path style="fill-rule:evenodd;clip-rule:evenodd;fill:#DCEAA9;" d="M6.6,11.15c3.066-1.8,4-5.217,2.8-10.25
					C8.8-1.6,7.783-4.25,6.35-7.05c-1.533-2.934-2.85-4.867-3.95-5.8C6.033-8.75,7.633-2.967,7.2,4.5C7.1,6.233,6.917,7.8,6.65,9.2
					c-0.167,0.8-0.367,1.55-0.6,2.25C6.25,11.35,6.433,11.25,6.6,11.15z"/>
				<path style="fill-rule:evenodd;clip-rule:evenodd;fill:#414E20;" d="M-5.85,11.35c1.267,1.2,2.7,1.833,4.3,1.9
					c-2-1-3.617-4.5-4.85-10.5c-0.9-4.7-1.533-9.367-1.9-14L-8.85-9.6c-0.533,5.934-0.533,10.617,0,14.05
					C-8.35,7.617-7.35,9.917-5.85,11.35z"/>
				<path style="fill-rule:evenodd;clip-rule:evenodd;fill:#5C6E37;" d="M-1.85,10.55c1.033,1.367,2.1,2.133,3.2,2.3
					c-1.833-1.067-3.267-4.783-4.3-11.15C-3.717-2.667-4.267-7.7-4.6-13.4c-0.367-0.4-0.767,0.017-1.2,1.25
					C-5.667-5.783-5.267-0.767-4.6,2.9C-3.967,6.333-3.05,8.883-1.85,10.55z"/>
			</g>
			<g>
				<path style="fill-rule:evenodd;clip-rule:evenodd;fill:#4D120B;" d="M1.05,13.2c-0.2-1.4-0.483-1.833-0.85-1.3l-0.5,1.25
					l0.35,9.4C1.017,18.45,1.35,15.333,1.05,13.2z M4.15,3.65C4.083,3.917,4.1,4.183,4.2,4.45L8.15,7.6
					c-0.8-2.067-1.767-3.417-2.9-4.05C4.583,3.217,4.217,3.25,4.15,3.65z M5.35,10.6l-0.3,1.15l1.8,8.4
					c0.367-3.767,0.217-6.6-0.45-8.5C5.967,10.383,5.617,10.033,5.35,10.6z M9.1,10.85l8.1,2.7c-2.967-2.167-5.5-3.483-7.6-3.95
					C8.333,9.333,7.883,9.467,8.25,10C8.35,10.133,8.633,10.417,9.1,10.85z M11.7,4.95c0.1,0.267,0.316,0.6,0.65,1l7.4,4.4
					c-2.533-2.867-4.733-4.684-6.6-5.45C11.95,4.333,11.467,4.35,11.7,4.95z M11.1,0.45l8.05-2.9c-3.8,0.167-6.6,0.684-8.4,1.55
					C9.583-0.333,9.3,0.05,9.9,0.25C10.167,0.383,10.567,0.45,11.1,0.45z M0.1-7.2l-3.85-1l1,1.05c0.8,0.7,1.533,1.083,2.2,1.15
					c0.667,0,0.966-0.2,0.9-0.6L0.1-7.2z M2.2-11.4l1.2-11.15c-1.6,4.5-2.433,8.133-2.5,10.9c-0.033,1.667,0.167,2.2,0.6,1.6
					L2.2-11.4z M6-4.4c1.9-1.934,4.033-4.983,6.4-9.15L5.2-5C4.867-4.433,4.65-3.967,4.55-3.6C4.35-2.9,4.833-3.167,6-4.4z
					 M-19.75,7.75c4.2-0.2,7.283-0.767,9.25-1.7c1.3-0.6,1.633-1,1-1.2l-1.3-0.1L-19.75,7.75z M-14.55,2.75
					c2.7,0.467,4.667,0.617,5.9,0.45c1.4-0.133,1.85-0.4,1.35-0.8l-1.2-0.55L-17.95,2L-14.55,2.75z M-8.2,9l-1.15,0.6l-5.85,7.45
					c3.434-2.5,5.7-4.667,6.8-6.5C-7.633,9.35-7.567,8.833-8.2,9z M-10-7.7l-8.05-4.9l2.5,2.45c1.867,1.767,3.433,2.95,4.7,3.55
					c1.333,0.6,1.867,0.6,1.6,0L-10-7.7z M-3.1-14.85c0.934,0.567,1.367,0.567,1.3,0l-0.3-0.95l-5.6-4.3l1.5,2.15
					C-5.033-16.383-4-15.35-3.1-14.85z"/>
			</g>
		</g>
	</g>
</symbol>
<symbol  id="t05" viewBox="-21.378 -20.15 42.778 40.25">
	<g id="Layer_1_23_">
		<g>
			<g>
				<path style="fill-rule:evenodd;clip-rule:evenodd;fill:#414E20;" d="M-19.25,2c0.833,0.633,1.517,0.75,2.05,0.35
					c1.934-1.3,3.35-2.883,4.25-4.75c1.3-2.7,1.2-5.517-0.3-8.45c-1.6-3.133-3.467-3.15-5.6-0.05c-2.133,3-2.917,6.033-2.35,9.1
					C-20.867-0.033-20.217,1.233-19.25,2z"/>
			</g>
			<g>
				<path style="fill-rule:evenodd;clip-rule:evenodd;fill:#8B9C6A;" d="M14.25,7.05c-0.733,1.267-2.067,2.2-4,2.8
					c-2.267,0.633-5.233,0.483-8.9-0.45C-2.617,8.333-7.7,6.283-13.9,3.25l-1.55-1.2c5.6,1.833,10.967,3.333,16.1,4.5
					C7.717,8.15,12.25,8.317,14.25,7.05z M14.6,7.35c0.967-1.567,1.3-3.083,1-4.55C12.5,3.767,7.767,3.417,1.4,1.75
					c-7.167-1.933-11.867-3.6-14.1-5c-0.733-0.5-1.683-0.65-2.85-0.45c-1.167,0.2-2.034,0.684-2.6,1.45
					c-1.767,2.067-0.833,4.283,2.8,6.65C-9.517,7.3-4.667,9.317-0.8,10.45c3.6,1.066,6.566,1.45,8.9,1.15c1.7-0.233,3.333-1,4.9-2.3
					L14.6,7.35z M15.15,4.4c-0.7,0.9-2.033,1.467-4,1.7c-2.333,0.3-5.517-0.033-9.55-1c-4.3-1.033-9.934-2.883-16.9-5.55
					c-1.133-0.933-1.417-1.466-0.85-1.6C-10.05,0.083-4.333,1.833,1,3.2C8.433,5.067,13.15,5.467,15.15,4.4z M15.55,1.5
					c0.167-0.367-2.617-1.217-8.35-2.55C-1.567-2.983-7.617-3.967-10.95-4C-5.017-1.833,1.533-0.233,8.7,0.8
					C11.133,1.133,13.417,1.367,15.55,1.5z M15.75-0.8c0.667,0.4,1,0.8,1,1.2c0.2-1.933-0.4-3.75-1.8-5.45
					c-1.733-2.067-4.65-3.467-8.75-4.2C1.8-10.017-4.133-10.033-11.6-9.3c-3.333,1.1-4.517,2-3.55,2.7l2.4,0.6
					C-5.283-5.167,0.8-4.333,5.5-3.5c3.4,0.6,6.05,1.183,7.95,1.75c-1.4-0.8-2.967-1.617-4.7-2.45c-7.967-3.566-15-4.733-21.1-3.5
					c1.767-0.533,4.483-0.8,8.15-0.8c3.733,0,7.067,0.3,10,0.9C11.833-6.4,15.15-4.133,15.75-0.8z"/>
				<path style="fill-rule:evenodd;clip-rule:evenodd;fill:#5C6E37;" d="M15.15,4.4C13.15,5.467,8.433,5.067,1,3.2
					c-5.333-1.367-11.05-3.117-17.15-5.25c-0.567,0.133-0.283,0.667,0.85,1.6C-8.333,2.217-2.7,4.067,1.6,5.1
					c4.033,0.967,7.217,1.3,9.55,1C13.117,5.867,14.45,5.3,15.15,4.4z"/>
				<path style="fill-rule:evenodd;clip-rule:evenodd;fill:#B2C271;" d="M17.5,0.85c0.5-2.667,0.167-4.934-1-6.8
					c-1.233-1.966-3.45-3.583-6.65-4.85c-3.1-1.233-6.8-1.967-11.1-2.2c-4.833-0.2-8.833,0.233-12,1.3
					c-0.967,0.4-1.983,1.067-3.05,2c-2.267,1.8-3.7,3.867-4.3,6.2c-0.6,2.233-0.033,4.4,1.7,6.5l2.5,2.25
					c3.367,2.2,7.367,4.033,12,5.5c4.1,1.267,7.633,1.817,10.6,1.65c3.233-0.167,5.75-1.167,7.55-3
					C15.517,7.567,16.767,4.717,17.5,0.85z M14.6,7.35L13,9.3c-1.567,1.3-3.2,2.067-4.9,2.3c-2.333,0.3-5.3-0.083-8.9-1.15
					C-4.667,9.317-9.517,7.3-15.35,4.4c-3.633-2.367-4.566-4.583-2.8-6.65c0.566-0.767,1.433-1.25,2.6-1.45
					c1.167-0.2,2.117-0.05,2.85,0.45c2.233,1.4,6.934,3.067,14.1,5C7.767,3.417,12.5,3.767,15.6,2.8
					C15.9,4.267,15.567,5.783,14.6,7.35z M15.75-0.8c0.033,0.233,0.05,0.45,0.05,0.65c-0.733-0.533-1.517-1.067-2.35-1.6
					C11.55-2.317,8.9-2.9,5.5-3.5C0.8-4.333-5.283-5.167-12.75-6l-2.4-0.6c-0.967-0.7,0.217-1.6,3.55-2.7
					c7.467-0.733,13.4-0.717,17.8,0.05c4.1,0.733,7.017,2.133,8.75,4.2c1.4,1.7,2,3.517,1.8,5.45C16.75,0,16.417-0.4,15.75-0.8z
					 M15.55,1.5c-2.133-0.133-4.417-0.367-6.85-0.7C1.533-0.233-5.017-1.833-10.95-4C-7.617-3.967-1.567-2.983,7.2-1.05
					C12.933,0.283,15.717,1.133,15.55,1.5z"/>
				<path style="fill-rule:evenodd;clip-rule:evenodd;fill:#414E20;" d="M14.25,7.05c-2,1.267-6.533,1.1-13.6-0.5
					c-5.133-1.167-10.5-2.667-16.1-4.5l1.55,1.2C-7.7,6.283-2.617,8.333,1.35,9.4c3.667,0.934,6.633,1.083,8.9,0.45
					C12.183,9.25,13.517,8.317,14.25,7.05z"/>
				<path style="fill-rule:evenodd;clip-rule:evenodd;fill:#DCEAA9;" d="M15.75-0.8c-0.6-3.333-3.917-5.6-9.95-6.8
					c-2.933-0.6-6.267-0.9-10-0.9c-3.667,0-6.383,0.267-8.15,0.8c6.1-1.233,13.133-0.066,21.1,3.5c1.733,0.833,3.3,1.65,4.7,2.45
					c0.833,0.533,1.617,1.067,2.35,1.6C15.8-0.35,15.783-0.567,15.75-0.8z"/>
			</g>
			<g>
				<path style="fill-rule:evenodd;clip-rule:evenodd;fill:#4D120B;" d="M2.85,9.8l-0.2,1.3l2.6,9c0-4.167-0.417-7.25-1.25-9.25
					C3.467,9.517,3.083,9.167,2.85,9.8z M11.65,4.7C10.417,4.067,9.9,4.05,10.1,4.65l0.7,1.15l7.85,5.25
					C15.95,7.85,13.617,5.733,11.65,4.7z M20.7,4.1c-2.7-2.434-5.1-3.983-7.2-4.65c-1.233-0.367-1.717-0.284-1.45,0.25l0.75,0.9
					L20.7,4.1z M11.2-8.75c0.267,0.1,0.667,0.117,1.2,0.05l7.9-3.45c-3.667,0.4-6.433,1.117-8.3,2.15
					C10.933-9.367,10.667-8.95,11.2-8.75z M14.45-3.2l6.95-5c-3.6,1.233-6.15,2.517-7.65,3.85C12.85-3.45,12.683-3,13.25-3
					C13.617-3,14.017-3.067,14.45-3.2z M7.2-10.9l2.35-8.25c-2.1,3.2-3.316,5.783-3.65,7.75c-0.2,1.233-0.05,1.683,0.45,1.35
					C6.583-10.15,6.867-10.433,7.2-10.9z M0.3-9.6c-0.466-2.7-1.7-6.217-3.7-10.55l2.75,10.9c0.267,0.633,0.517,1.067,0.75,1.3
					C0.533-7.35,0.6-7.9,0.3-9.6z M5.75-3.4c0.1,0.133,0.317,0.283,0.65,0.45l4.85-1.4c-2.133-0.566-3.783-0.566-4.95,0
					C5.6-3.983,5.417-3.667,5.75-3.4z M-11.35,2.8c1.267-0.7,1.567-1.15,0.9-1.35l-1.3-0.05l-8.7,3.7L-17,4.55
					C-14.467,4.05-12.583,3.467-11.35,2.8z M-3.15,5.85l-5.4,7.75l2.6-2.3C-4.083,9.467-2.8,7.933-2.1,6.7
					C-1.367,5.467-1.333,4.95-2,5.15L-3.15,5.85z M-1.3,8.35l-0.85,1l-2.8,9c2.3-3.467,3.65-6.3,4.05-8.5
					C-0.6,8.483-0.733,7.983-1.3,8.35z M-4.85-5.2c0.4-0.5,0.417-0.883,0.05-1.15l-0.65-0.1L-8.5-3.9l1.45-0.25
					C-5.983-4.35-5.25-4.7-4.85-5.2z M-6.9-9.25l-0.7-1.35l-8.35-7.55c2.8,4.033,5.267,6.85,7.4,8.45
					C-7.183-8.633-6.633-8.483-6.9-9.25z M-12.75-9.4l-0.95-0.25l-6.75,2h2.6c1.9,0,3.35-0.233,4.35-0.7
					C-12.5-8.75-12.25-9.1-12.75-9.4z"/>
			</g>
		</g>
	</g>
</symbol>
<symbol  id="t09" viewBox="-3.878 -4.11 7.806 11.039">
	<g id="Layer_1_7_">
		<g>
			<path style="fill-rule:evenodd;clip-rule:evenodd;fill:#8B9C6A;" d="M3.45-0.35c-0.333-0.733-0.8-1.367-1.4-1.9
				C1.583-2.65,1.1-2.917,0.6-3.05c-0.467-0.133-0.967-0.133-1.5,0c-0.753,0.17-1.378,0.578-1.875,1.225
				C-2.971-1.583-3.146-1.308-3.3-1c-0.567,1.167-0.717,2.433-0.45,3.8S-2.9,5.233-2,6c0.933,0.8,1.917,1.083,2.95,0.85
				c1.033-0.267,1.833-0.967,2.4-2.1C3.917,3.617,4.067,2.367,3.8,1C3.733,0.533,3.617,0.083,3.45-0.35z M3.1,1.4
				c0.233,1.167,0.066,2.25-0.5,3.25c-0.533,0.967-1.25,1.567-2.15,1.8C-0.383,6.65-1.133,6.4-1.8,5.7
				c-0.633-0.667-1.05-1.617-1.25-2.85c-0.233-1.2-0.133-2.3,0.3-3.3c0.467-1,1.117-1.6,1.95-1.8C0.067-2.45,0.867-2.2,1.6-1.5
				C2.367-0.8,2.867,0.167,3.1,1.4z"/>
			
				<linearGradient id="SVGID_6_" gradientUnits="userSpaceOnUse" x1="10425.2832" y1="-19274.748" x2="10430.4629" y2="-19274.748" gradientTransform="matrix(-0.8592 -0.5117 0.5499 -0.8364 19559.7305 -10783.4707)">
				<stop  offset="0" style="stop-color:#232916"/>
				<stop  offset="0.9882" style="stop-color:#414E20"/>
			</linearGradient>
			<path style="fill-rule:evenodd;clip-rule:evenodd;fill:url(#SVGID_6_);" d="M3.1,1.4C2.867,0.167,2.367-0.8,1.6-1.5
				C0.867-2.2,0.067-2.45-0.8-2.25c-0.833,0.2-1.483,0.8-1.95,1.8c-0.433,1-0.533,2.1-0.3,3.3c0.2,1.233,0.617,2.183,1.25,2.85
				c0.667,0.7,1.417,0.95,2.25,0.75c0.9-0.233,1.617-0.833,2.15-1.8C3.167,3.65,3.333,2.567,3.1,1.4z"/>
			<path style="fill-rule:evenodd;clip-rule:evenodd;fill:#414E20;" d="M-2.775-1.825C-2.278-2.472-1.653-2.88-0.9-3.05
				c0.533-0.133,1.033-0.133,1.5,0c0.5,0.133,0.983,0.4,1.45,0.8c0.6,0.533,1.067,1.167,1.4,1.9l0.05-0.6
				c0-0.419-0.033-0.794-0.1-1.125L3.15-2.95c-1.233-1.233-2.566-1.483-4-0.75c-0.4,0.167-0.767,0.284-1.1,0.35L-2.775-1.825z"/>
		</g>
	</g>
</symbol>
<symbol  id="t11" viewBox="-5 -6.62 10 13.47">
	<g id="Layer_1_5_">
		<g>
			
				<linearGradient id="SVGID_7_" gradientUnits="userSpaceOnUse" x1="6260.9443" y1="-19472.4121" x2="6267.9106" y2="-19472.4121" gradientTransform="matrix(-0.585 -0.8111 0.8111 -0.585 19458.332 -6308.7983)">
				<stop  offset="0" style="stop-color:#232916"/>
				<stop  offset="0.9882" style="stop-color:#414E20"/>
			</linearGradient>
			<path style="fill-rule:evenodd;clip-rule:evenodd;fill:url(#SVGID_7_);" d="M3.05,4.1C3.617,3.233,3.9,2.117,3.9,0.75
				c0-1.333-0.35-2.483-1.05-3.45c-0.733-0.933-1.6-1.4-2.6-1.4c-1.033,0-1.9,0.467-2.6,1.4c-0.733,0.967-1.1,2.117-1.1,3.45
				c0,1.3,0.434,2.417,1.3,3.35c0.8,0.9,1.733,1.35,2.8,1.35C1.65,5.45,2.45,5,3.05,4.1z"/>
			<path style="fill-rule:evenodd;clip-rule:evenodd;fill:#B2C271;" d="M4.4-2.2C4.167-2.7,3.883-3.167,3.55-3.6
				C2.55-4.833,1.367-5.45,0-5.45c-0.1,0-0.2,0-0.3,0c-1.233,0.1-2.317,0.717-3.25,1.85C-3.675-3.444-3.792-3.286-3.9-3.125
				C-4.633-2.017-5-0.708-5,0.8c0,1.667,0.583,3.1,1.75,4.3c1.1,1.167,2.367,1.75,3.8,1.75C1.917,6.85,3,6.267,3.8,5.1
				C4.6,4,5,2.567,5,0.8C5-0.3,4.8-1.3,4.4-2.2z M3.05,4.1c-0.6,0.9-1.4,1.35-2.4,1.35c-1.066,0-2-0.45-2.8-1.35
				c-0.867-0.934-1.3-2.05-1.3-3.35c0-1.333,0.367-2.483,1.1-3.45c0.7-0.933,1.567-1.4,2.6-1.4c1,0,1.867,0.467,2.6,1.4
				C3.55-1.733,3.9-0.583,3.9,0.75C3.9,2.117,3.617,3.233,3.05,4.1z"/>
			<path style="fill-rule:evenodd;clip-rule:evenodd;fill:#8B9C6A;" d="M4.4-2.2C4.233-3,3.95-3.817,3.55-4.65
				c-0.348-0.799-0.682-1.299-1-1.5c-1.242-0.592-2.441-0.625-3.6-0.1C-2.117-5.65-2.933-4.9-3.5-4c-0.167,0.3-0.3,0.592-0.4,0.875
				C-3.792-3.286-3.675-3.444-3.55-3.6c0.933-1.133,2.017-1.75,3.25-1.85c0.1,0,0.2,0,0.3,0c1.367,0,2.55,0.617,3.55,1.85
				C3.883-3.167,4.167-2.7,4.4-2.2z"/>
		</g>
	</g>
</symbol>
<symbol  id="t12" viewBox="-19.6 -16.45 39.25 32.9">
	<g id="Layer_1_27_">
		<g>
			<g>
				<path style="fill-rule:evenodd;clip-rule:evenodd;fill:#B2C271;" d="M10.05,8.4c2.567-1.1,4.333-2.6,5.3-4.5
					c0.933-1.9,1.183-4.367,0.75-7.4c-0.3-2.133-1.184-3.733-2.65-4.8c-1.567-1.133-3.833-1.733-6.8-1.8
					c-3.066,0-6.483,0.5-10.25,1.5c-4.433,1.267-7.933,2.817-10.5,4.65c-0.733,0.6-1.483,1.45-2.25,2.55
					c-1.566,2.233-2.233,4.367-2,6.4c0.167,1.967,1.4,3.483,3.7,4.55l3,0.9c3.933,0.566,8.033,0.617,12.3,0.15
					C4.483,10.2,7.617,9.467,10.05,8.4z M15.5,2.15l-0.8,1.9c-0.867,1.367-1.983,2.417-3.35,3.15c-3.7,1.966-11.133,2.7-22.3,2.2
					c-2-0.267-3.4-0.767-4.2-1.5c-0.833-0.733-1-1.65-0.5-2.75c0.3-0.833,0.95-1.5,1.95-2c0.934-0.5,1.85-0.7,2.75-0.6
					c2.567,0.4,7.233,0.2,14-0.6c5.833-0.667,9.833-1.817,12-3.45C15.717-0.567,15.867,0.65,15.5,2.15z M14.25-4.2
					c0.067,0.167,0.133,0.317,0.2,0.45c-0.733-0.167-1.5-0.333-2.3-0.5c-1.7,0.1-4.066,0.433-7.1,1C-0.383-2.25-6-1.033-11.8,0.4
					l-2.45,0.3c-1.133-0.233-0.317-1.317,2.45-3.25C-5.367-5.35-0.133-7.1,3.9-7.8c3.733-0.667,6.6-0.45,8.6,0.65
					c1.6,0.9,2.55,2.083,2.85,3.55C15.25-3.867,14.883-4.067,14.25-4.2z M7.15-1.9c5.067-0.667,7.583-0.85,7.55-0.55
					c-1.5,0.467-3.417,0.967-5.75,1.5C2.483,0.483-3.683,1.267-9.55,1.4C-6.317,0.333-0.75-0.767,7.15-1.9z"/>
				<path style="fill-rule:evenodd;clip-rule:evenodd;fill:#8B9C6A;" d="M15.15,2c-0.233,1.2-1.066,2.283-2.5,3.25
					c-1.667,1.2-4.2,2.017-7.6,2.45C1.383,8.2-3.633,8.317-10,8.05l-1.75-0.4c5.333-0.4,10.5-1,15.5-1.8
					C10.117,4.817,13.917,3.533,15.15,2z M15.5,2.15c0.367-1.5,0.217-2.717-0.45-3.65c-2.167,1.633-6.167,2.783-12,3.45
					c-6.767,0.8-11.433,1-14,0.6c-0.9-0.1-1.816,0.1-2.75,0.6c-1,0.5-1.65,1.167-1.95,2c-0.5,1.1-0.333,2.017,0.5,2.75
					c0.8,0.733,2.2,1.233,4.2,1.5c11.167,0.5,18.6-0.233,22.3-2.2c1.367-0.733,2.483-1.784,3.35-3.15L15.5,2.15z M12.15-4.25
					C10.75-4.45,9.233-4.6,7.6-4.7C-0.333-5.133-6.867-3.917-12-1.05c1.233-0.867,3.617-1.917,7.15-3.15c3.3-1.1,6.3-1.85,9-2.25
					c5.367-0.867,8.733-0.117,10.1,2.25c0.633,0.133,1,0.333,1.1,0.6c-0.3-1.467-1.25-2.65-2.85-3.55c-2-1.1-4.867-1.317-8.6-0.65
					c-4.033,0.7-9.267,2.45-15.7,5.25c-2.767,1.933-3.583,3.017-2.45,3.25l2.45-0.3C-6-1.033-0.383-2.25,5.05-3.25
					C8.083-3.817,10.45-4.15,12.15-4.25z M7.15-1.9c-7.9,1.133-13.467,2.233-16.7,3.3c5.867-0.133,12.033-0.917,18.5-2.35
					c2.333-0.533,4.25-1.033,5.75-1.5C14.733-2.75,12.217-2.567,7.15-1.9z M3.15,3.2c6.733-0.9,10.733-2.034,12-3.4
					c-0.3,0.833-1.217,1.65-2.75,2.45C8.7,4.117,0.417,5.233-12.45,5.6c-1.333-0.333-1.75-0.65-1.25-0.95
					C-7.5,4.317-1.883,3.833,3.15,3.2z"/>
				<path style="fill-rule:evenodd;clip-rule:evenodd;fill:#414E20;" d="M15.15,2c-1.233,1.533-5.033,2.817-11.4,3.85
					c-5,0.8-10.167,1.4-15.5,1.8l1.75,0.4C-3.633,8.317,1.383,8.2,5.05,7.7c3.4-0.434,5.934-1.25,7.6-2.45
					C14.083,4.283,14.917,3.2,15.15,2z"/>
				<path style="fill-rule:evenodd;clip-rule:evenodd;fill:#DCEAA9;" d="M12.15-4.25c0.8,0.167,1.567,0.333,2.3,0.5
					c-0.067-0.133-0.133-0.283-0.2-0.45c-1.367-2.367-4.733-3.117-10.1-2.25c-2.7,0.4-5.7,1.15-9,2.25
					C-8.383-2.967-10.767-1.917-12-1.05C-6.867-3.917-0.333-5.133,7.6-4.7C9.233-4.6,10.75-4.45,12.15-4.25z"/>
				<path style="fill-rule:evenodd;clip-rule:evenodd;fill:#5C6E37;" d="M3.15,3.2C-1.883,3.833-7.5,4.317-13.7,4.65
					c-0.5,0.3-0.083,0.617,1.25,0.95C0.417,5.233,8.7,4.117,12.4,2.25c1.533-0.8,2.45-1.617,2.75-2.45
					C13.883,1.167,9.883,2.3,3.15,3.2z"/>
			</g>
			<g>
				<path style="fill-rule:evenodd;clip-rule:evenodd;fill:#4D120B;" d="M2.65,7.8L2.2,8.85l0.2,7.6c0.967-3.3,1.317-5.85,1.05-7.65
					C3.25,7.7,2.983,7.367,2.65,7.8z M6.55,7.55l0.2,1l4.6,5.8c-1.1-3-2.283-5.133-3.55-6.4C7,7.15,6.583,7.017,6.55,7.55z
					 M0.35,6.5l-2.45,7.6l1.6-2.6c1.067-1.9,1.733-3.45,2-4.65c0.233-1.133,0.117-1.533-0.35-1.2L0.35,6.5z M19.65,3.6
					c-3-1.533-5.417-2.367-7.25-2.5c-1.2-0.1-1.617,0.033-1.25,0.4L12,2.1L19.65,3.6z M16.85-11.3c-2.6,1.867-4.317,3.55-5.15,5.05
					c-0.567,0.933-0.583,1.317-0.05,1.15l0.95-0.5L16.85-11.3z M11.4-2.75l0.85,0.45l7.2,0.25c-2.9-1.034-5.217-1.467-6.95-1.3
					C11.4-3.25,11.033-3.05,11.4-2.75z M9.4-9.2l5.5-4.75c-2.933,1.3-5,2.6-6.2,3.9C7.933-9.217,7.833-8.833,8.4-8.9
					C8.667-8.9,9-9,9.4-9.2z M5.5-4.1C5-3.633,4.933-3.35,5.3-3.25C5.467-3.15,5.683-3.1,5.95-3.1l3.7-2.45
					C7.65-5.35,6.267-4.867,5.5-4.1z M3.95-8.5L4.4-9.4l-0.35-7.05c-0.833,3-1.133,5.35-0.9,7.05C3.35-8.4,3.617-8.1,3.95-8.5z
					 M-8.6,5.9l-6.85,5.8l3.05-1.65c2.1-1.167,3.633-2.233,4.6-3.2c0.933-0.967,1.066-1.4,0.4-1.3L-8.6,5.9z M-6.05,0.1
					c0.8-0.434,1.35-0.95,1.65-1.55c0.167-0.533,0.066-0.816-0.3-0.85l-0.65,0.05L-7.3,0.7L-6.05,0.1z M-17.1,0.75
					c1.833-0.667,3.117-1.317,3.85-1.95c0.767-0.667,0.883-1.017,0.35-1.05l-0.95,0.05l-5.75,3.75L-17.1,0.75z M-1.2-6.4
					c-1.1-1.833-3.25-4.267-6.45-7.3l5.7,7.85l1.05,0.8C-0.333-4.75-0.433-5.2-1.2-6.4z M-8.55-4.8l-10.2-3.55
					c3.9,2.434,7.1,3.95,9.6,4.55c1.566,0.333,2.117,0.283,1.65-0.15L-8.55-4.8z"/>
			</g>
		</g>
	</g>
</symbol>
<symbol  id="t13" viewBox="-17.75 -20.05 35.55 40.05">
	<g id="Layer_1_26_">
		<g>
			<g>
				<path style="fill-rule:evenodd;clip-rule:evenodd;fill:#414E20;" d="M10.7-10.55c0-1.034-0.35-2.167-1.05-3.4
					c-1.066-1.966-2.717-3.117-4.95-3.45c-3.034-0.434-5.067-0.517-6.1-0.25c-1.333,0.367-1.383,1.35-0.15,2.95
					c1.133,1.467,3.15,2.717,6.05,3.75c2.4,0.833,4.05,1.184,4.95,1.05l0.65-0.05C10.5-10.017,10.7-10.217,10.7-10.55z"/>
			</g>
			<g>
				<path style="fill-rule:evenodd;clip-rule:evenodd;fill:#8B9C6A;" d="M4.5,9.45C5.067,8.25,5.567,6.9,6,5.4
					C8.067-1.2,7.983-6.75,5.75-11.25c0.767,1.133,1.467,3.167,2.1,6.1c0.6,2.933,0.883,5.533,0.85,7.8C8.567,7.45,7,10.317,4,11.25
					c-0.233,0.567-0.533,0.883-0.9,0.95c1.8-0.1,3.383-0.817,4.75-2.15C9.483,8.417,10.3,5.967,10.3,2.7
					c-0.033-3.5-1-8.05-2.9-13.65c-1.566-2.4-2.6-3.167-3.1-2.3L4.15-11.3C4.617-5.5,4.85-0.733,4.85,3
					C4.85,5.8,4.733,7.95,4.5,9.45z M1.9,11.45c0.367,0.033,0.684-2.217,0.95-6.75C3.217-2.2,3.133-6.983,2.6-9.65
					C1.567-4.917,1.167,0.333,1.4,6.1C1.467,7.9,1.633,9.683,1.9,11.45z M1.55-13.15c-0.333-0.867-0.933-1.467-1.8-1.8
					c-2.233-1-4.117,0.05-5.65,3.15c-3.2,9.2-4.117,15.533-2.75,19c0.5,1.333,1.483,2.483,2.95,3.45l2.05,0.95
					c1.6,0.5,3.05,0.517,4.35,0.05c-1.434-2.133-1.883-5.8-1.35-11c0.6-5.867,1.367-9.717,2.3-11.55
					C1.983-11.6,1.95-12.35,1.55-13.15z M-2.05,0.55c-0.5,5.967-0.1,9.65,1.2,11.05c-0.9-0.367-1.65-1.3-2.25-2.8
					C-4.467,5.267-3.9-1.833-1.4-12.5c0.667-1.033,1.1-1.317,1.3-0.85C-1-8.55-1.65-3.917-2.05,0.55z M-3.45,11.3
					c-1.333-0.4-2.417-1.283-3.25-2.65c-0.966-1.667-1.316-3.967-1.05-6.9c0.3-3.2,1.35-7.4,3.15-12.6l0.85-1.35
					c-0.767,4.4-1.267,8.717-1.5,12.95C-5.517,6.45-4.917,9.967-3.45,11.3z"/>
				<path style="fill-rule:evenodd;clip-rule:evenodd;fill:#B2C271;" d="M4,11.25c-0.167,0.067-0.333,0.117-0.5,0.15
					c0.333-0.6,0.667-1.25,1-1.95C4.733,7.95,4.85,5.8,4.85,3c0-3.733-0.233-8.5-0.7-14.3l0.15-1.95c0.5-0.867,1.534-0.1,3.1,2.3
					C9.3-5.35,10.267-0.8,10.3,2.7c0,3.267-0.816,5.716-2.45,7.35C6.483,11.383,4.9,12.1,3.1,12.2
					C3.467,12.133,3.767,11.817,4,11.25z M1.9,11.45C1.633,9.683,1.467,7.9,1.4,6.1C1.167,0.333,1.567-4.917,2.6-9.65
					C3.133-6.983,3.217-2.2,2.85,4.7C2.583,9.233,2.267,11.483,1.9,11.45z M8.95,11.1c1.6-1.233,2.716-3.167,3.35-5.8
					s0.7-5.583,0.2-8.85c-0.567-3.733-1.617-6.733-3.15-9C8.783-13.217,8-13.9,7-14.6c-2-1.467-4.167-2.25-6.5-2.35
					c-2.133-0.167-4.033,0.583-5.7,2.25l-1.65,2.2c-1.5,2.867-2.533,6.2-3.1,10c-0.466,3.333-0.4,6.133,0.2,8.4
					c0.667,2.467,2.017,4.25,4.05,5.35c2,1.067,4.85,1.6,8.55,1.6C5.383,12.85,7.417,12.267,8.95,11.1z M1.55-13.15
					c0.4,0.8,0.434,1.55,0.1,2.25c-0.933,1.833-1.7,5.683-2.3,11.55c-0.533,5.2-0.083,8.867,1.35,11c-1.3,0.467-2.75,0.45-4.35-0.05
					l-2.05-0.95C-7.167,9.683-8.15,8.533-8.65,7.2c-1.367-3.467-0.45-9.8,2.75-19c1.533-3.1,3.417-4.15,5.65-3.15
					C0.617-14.617,1.217-14.017,1.55-13.15z"/>
				<path style="fill-rule:evenodd;clip-rule:evenodd;fill:#DCEAA9;" d="M4.5,9.45c-0.333,0.7-0.667,1.35-1,1.95
					c0.167-0.033,0.333-0.083,0.5-0.15c3-0.933,4.567-3.8,4.7-8.6c0.033-2.267-0.25-4.867-0.85-7.8
					c-0.633-2.934-1.333-4.967-2.1-6.1C7.983-6.75,8.067-1.2,6,5.4C5.567,6.9,5.067,8.25,4.5,9.45z"/>
				<path style="fill-rule:evenodd;clip-rule:evenodd;fill:#414E20;" d="M-3.45,11.3c-1.466-1.333-2.066-4.85-1.8-10.55
					c0.233-4.233,0.733-8.55,1.5-12.95l-0.85,1.35c-1.8,5.2-2.85,9.4-3.15,12.6c-0.267,2.933,0.083,5.233,1.05,6.9
					C-5.867,10.017-4.783,10.9-3.45,11.3z"/>
				<path style="fill-rule:evenodd;clip-rule:evenodd;fill:#5C6E37;" d="M-2.05,0.55c0.4-4.466,1.05-9.1,1.95-13.9
					c-0.2-0.467-0.633-0.183-1.3,0.85C-3.9-1.833-4.467,5.267-3.1,8.8c0.6,1.5,1.35,2.434,2.25,2.8C-2.15,10.2-2.55,6.517-2.05,0.55
					z"/>
			</g>
			<g>
				<path style="fill-rule:evenodd;clip-rule:evenodd;fill:#4D120B;" d="M10.1,7.85l5.35,5.6c-1.434-3-2.9-5.133-4.4-6.4
					c-0.867-0.667-1.3-0.75-1.3-0.25C9.817,7.133,9.933,7.483,10.1,7.85z M6.2,11.5l6.35,4.25c-2.1-2.667-3.966-4.417-5.6-5.25
					c-1-0.467-1.434-0.45-1.3,0.05L6.2,11.5z M3.05,10.45l-0.5,0.95l-0.3,8c1.1-3.333,1.583-5.933,1.45-7.8
					C3.667,10.4,3.45,10.017,3.05,10.45z M3.6,3.95c-0.1,0.2-0.15,0.433-0.15,0.7l2.7,3.7c-0.267-2.067-0.8-3.483-1.6-4.25
					C4.017,3.633,3.7,3.583,3.6,3.95z M10.2,1.35C9.1,1.617,8.783,1.9,9.25,2.2l1,0.45L17.8,1.8C14.533,1.1,12,0.95,10.2,1.35z
					 M5.25-10l3.55-9.75c-2.466,3.767-4,6.85-4.6,9.25C3.8-9,3.85-8.483,4.35-8.95L5.25-10z M5.55-2.5
					c-0.3,0.567,0.167,0.45,1.4-0.35c2-1.3,4.517-3.566,7.55-6.8L6.4-3.6C6.1-3.3,5.817-2.933,5.55-2.5z M2.65-6.1l-0.1-0.65
					l-3.1-1.7L0.1-7.3c0.566,0.867,1.1,1.367,1.6,1.5C2.233-5.667,2.55-5.767,2.65-6.1z M2.6-14l-0.05-0.9l-3.85-5.15l0.8,2.25
					c0.667,1.733,1.333,2.9,2,3.5C2.133-13.6,2.5-13.5,2.6-14z M-5.95,0.25l-0.9-0.75l-8.1-2l2.7,1.45c2,0.966,3.667,1.55,5,1.75
					C-6.05,0.833-5.617,0.683-5.95,0.25z M-8.35,1.95l-1.1-0.4l-8.3,0.7c3.6,0.767,6.367,0.95,8.3,0.55
					C-8.283,2.567-7.917,2.283-8.35,1.95z M-2.35,11.45L-4.15,20c1.767-3.433,2.75-6.167,2.95-8.2
					c0.167-1.267,0.017-1.716-0.45-1.35L-2.35,11.45z M-8.2,6l-1.1,0.25l-6.65,5.35c3.4-1.4,5.817-2.817,7.25-4.25
					C-7.8,6.45-7.633,6-8.2,6z M-6-9.45l-5.8-6.2l1.6,2.8c1.167,1.934,2.25,3.35,3.25,4.25c0.967,0.8,1.417,0.9,1.35,0.3L-6-9.45z"
					/>
			</g>
		</g>
	</g>
</symbol>
<symbol  id="talk_x5F_eye" viewBox="-212.878 129.53 32.228 13.47">
	<g id="bodyanim_1_">
		
			<use xlink:href="#t09"  width="7.806" height="11.039" x="-3.878" y="-4.11" transform="matrix(1 0 0 1 -209 135.9004)" style="overflow:visible;"/>
	</g>
	<g id="right_eye_1_">
		
			<use xlink:href="#t11"  width="10" height="13.47" x="-5" y="-6.62" transform="matrix(1 0 0 1 -185.6504 136.1504)" style="overflow:visible;"/>
	</g>
</symbol>
<symbol  id="talk_x5F_leftarm" viewBox="-256.1 84.8 51.75 57.351">
	<g id="Layer_2_5_">
		
			<use xlink:href="#t12"  width="39.25" height="32.9" x="-19.6" y="-16.45" transform="matrix(1 0 0 1 -224 101.25)" style="overflow:visible;"/>
	</g>
	<g id="Layer_1_32_">
		
			<use xlink:href="#t13"  width="35.55" height="40.05" x="-17.75" y="-20.05" transform="matrix(1 0 0 1 -238.3496 122.1504)" style="overflow:visible;"/>
	</g>
</symbol>
<symbol  id="talk_x5F_rightarm" viewBox="-179.329 79.75 58.279 61.899">
	<g id="Layer_2_4_">
		
			<use xlink:href="#t05"  width="42.778" height="40.25" x="-21.378" y="-20.15" transform="matrix(1 0 0 1 -157.9502 99.9004)" style="overflow:visible;"/>
	</g>
	<g id="Layer_1_31_">
		
			<use xlink:href="#t01"  width="39.5" height="45.1" x="-19.75" y="-22.55" transform="matrix(1 0 0 1 -140.7998 119.0996)" style="overflow:visible;"/>
	</g>
</symbol>
<symbol  id="talk_x5F_sweat" viewBox="-214.9 164.41 60.507 8.155">
	<g id="mouthainm_1_">
		
			<use xlink:href="#water"  width="6.073" height="4.669" y="-4.669" transform="matrix(0.7745 0.63 -0.63 0.7745 -161.7002 165.2998)" style="overflow:visible;"/>
	</g>
	<g id="eye_1_">
		
			<use xlink:href="#water_x5F_02"  width="8.134" height="4.665" y="-4.65" transform="matrix(1 0 0 1 -174.75 172.5498)" style="overflow:visible;"/>
	</g>
	<g id="water_x5F_33_1_">
		
			<use xlink:href="#water_x5F_01"  width="8.8" height="3.039" y="-3.064" transform="matrix(1 0 0 1 -214.9004 172.5498)" style="overflow:visible;"/>
	</g>
</symbol>
<symbol  id="tooth01" viewBox="0 -3.6 18.8 3.6">
	<g id="Layer_1_13_">
		<path style="fill-rule:evenodd;clip-rule:evenodd;fill:#B2C271;" d="M0.35-0.05C0.583-0.017,0.833,0,1.1,0
			C0.967-1.433,0.833-2.183,0.7-2.25C0.467-2.417,0.233-2.55,0-2.65C0.133-1.517,0.25-0.65,0.35-0.05z"/>
		<path style="fill-rule:evenodd;clip-rule:evenodd;fill:#CFE08A;" d="M18.2-0.7c0.2-0.066,0.4-0.15,0.6-0.25L18.35-3.2L17.7-3.55
			h-0.05L17.6-3.6v0.05L18.2-0.7z"/>
	</g>
</symbol>
<symbol  id="tooth02" viewBox="-0.004 -8.806 36.105 8.806">
	<g id="Layer_1_14_">
		<path style="fill-rule:evenodd;clip-rule:evenodd;fill:#B2C271;" d="M12.15-6.9h1.35c0.033-0.3,0.033-0.583,0-0.85
			c-0.6,0.033-1.367,0.067-2.3,0.1C8.5-7.617,6-7.117,3.7-6.15C1.9-5.383,0.883-4.733,0.65-4.2c-0.333,0.733-0.533,1.3-0.6,1.7
			C-0.117-1.6,0.1-0.9,0.7-0.4C0.8-0.3,1-0.167,1.3,0C0.8-0.467,0.633-1.117,0.8-1.95c0.067-0.4,0.267-0.966,0.6-1.7
			c0.2-0.5,1.233-1.133,3.1-1.9C6.9-6.45,9.45-6.9,12.15-6.9z M32.5-8.05c-1.333-0.434-2.75-0.65-4.25-0.65
			c-1.567,0-3.1-0.017-4.6-0.05c-1.566-0.1-3.117-0.067-4.65,0.1c-0.7,0.1-1.383,0.183-2.05,0.25c0,1.3-0.15,2.566-0.45,3.8
			l-2.9,0.25l0.25,0.5c1.2,0.133,2.367,0.117,3.5-0.05c0.4-1.133,0.6-2.3,0.6-3.5c0.233-0.033,0.466-0.067,0.7-0.1
			c1.6-0.2,3.2-0.3,4.8-0.3c1.466,0,2.9,0,4.3,0c1.6-0.034,3.167,0.05,4.7,0.25c1.3,0.133,2.517,0.517,3.65,1.15
			C34.967-7.067,33.767-7.617,32.5-8.05z"/>
	</g>
</symbol>
<symbol  id="water" viewBox="0 -4.669 6.073 4.669">
	<g id="Layer_1_4_">
		<path style="fill-rule:evenodd;clip-rule:evenodd;fill:#BADDD2;" d="M5.25-4.65c-0.8-0.1-1.417,0.2-1.85,0.9
			c-0.5,0.8-1.083,1.567-1.75,2.3C0.917-0.617,0.367-0.133,0,0l2.6-0.65c1.867-0.633,2.967-1.4,3.3-2.3
			C6.267-3.983,6.05-4.55,5.25-4.65z M5.2-3.3c0.7-0.233,0.7,0.066,0,0.9c-0.233,0.267-0.684,0.6-1.35,1l-0.9,0.5l0.9-0.75
			C4.45-2.15,4.9-2.7,5.2-3.3z"/>
		<path style="fill-rule:evenodd;clip-rule:evenodd;fill:#FFFFFF;" d="M5.2-3.3C4.9-2.7,4.45-2.15,3.85-1.65L2.95-0.9l0.9-0.5
			c0.667-0.4,1.117-0.733,1.35-1C5.9-3.233,5.9-3.533,5.2-3.3z"/>
	</g>
</symbol>
<symbol  id="water_x5F_01" viewBox="0 -3.064 8.8 3.039">
	<g id="Layer_1_2_">
		<path style="fill-rule:evenodd;clip-rule:evenodd;fill:#BADDD2;" d="M4.4-0.5C3.167-0.367,2.267-0.383,1.7-0.55
			c-1.067-0.333-1.233-0.6-0.5-0.8l0.6,0.3c0.467,0.2,0.95,0.333,1.45,0.4L4.4-0.5z M0-1.5c0,0.667,0.55,1.117,1.65,1.35
			c1.567,0.333,3.95,0,7.15-1C7.633-1.017,6.183-1.367,4.45-2.2C2.883-2.933,1.833-3.2,1.3-3C0.433-2.633,0-2.133,0-1.5z"/>
		<path style="fill-rule:evenodd;clip-rule:evenodd;fill:#FFFFFF;" d="M4.4-0.5L3.25-0.65c-0.5-0.067-0.983-0.2-1.45-0.4l-0.6-0.3
			c-0.733,0.2-0.567,0.467,0.5,0.8C2.267-0.383,3.167-0.367,4.4-0.5z"/>
	</g>
</symbol>
<symbol  id="water_x5F_02" viewBox="0 -4.65 8.134 4.665">
	<g id="Layer_1_3_">
		<path style="fill-rule:evenodd;clip-rule:evenodd;fill:#BADDD2;" d="M6.05-0.35C5.85-0.317,5.533-0.4,5.1-0.6
			C4.733-0.733,4.267-1.033,3.7-1.5L2.9-2.15l1,0.6c0.7,0.4,1.383,0.617,2.05,0.65C6.217-0.567,6.25-0.383,6.05-0.35z M6.05-3
			C4.95-3.1,3.767-3.3,2.5-3.6C1.167-3.933,0.333-4.283,0-4.65L2.15-2.2c1.733,1.6,3.2,2.333,4.4,2.2c1.3-0.167,1.8-0.683,1.5-1.55
			C7.717-2.417,7.05-2.9,6.05-3z"/>
		<path style="fill-rule:evenodd;clip-rule:evenodd;fill:#FFFFFF;" d="M6.05-0.35c0.2-0.033,0.167-0.217-0.1-0.55
			C5.283-0.933,4.6-1.15,3.9-1.55l-1-0.6L3.7-1.5c0.566,0.467,1.033,0.767,1.4,0.9C5.533-0.4,5.85-0.317,6.05-0.35z"/>
	</g>
</symbol>
<use xlink:href="#cactus_1_"  width="138.72" height="126.666" id="cactus" x="-72.95" y="-61.95" transform="matrix(1 0 0 -1 82.5 56.2998)" style="overflow:visible;"/>
</svg>
