<?xml version="1.0" encoding="iso-8859-1"?>
<!-- Generator: Adobe Illustrator 15.1.0, SVG Export Plug-In . SVG Version: 6.00 Build 0)  -->
<!DOCTYPE svg PUBLIC "-//W3C//DTD SVG 1.1//EN" "http://www.w3.org/Graphics/SVG/1.1/DTD/svg11.dtd">
<svg version="1.1" id="Layer_1" xmlns="http://www.w3.org/2000/svg" xmlns:xlink="http://www.w3.org/1999/xlink" x="0px" y="0px"
	 width="68.15px" height="45.75px" viewBox="0 0 68.15 45.75" style="enable-background:new 0 0 68.15 45.75;" xml:space="preserve"
	>
<symbol  id="cheese1" viewBox="0 -432.375 519.925 432.375">
	<g id="Layer_1_2_">
		<path style="fill-rule:evenodd;clip-rule:evenodd;fill:#DDBF79;" d="M318.3-404.55c-7.643,0.4-27.293,13.434-58.95,39.1
			c-40.704,32.995-89.037,74.495-145,124.5c-51.077,45.646-78.944,74.047-83.6,85.2c-0.445,1.066-0.679,1.974-0.7,2.725
			c-0.249,8.604,10.667,21.638,32.75,39.1c22.088,17.458,37.697,30.575,46.825,39.35c9.123,8.781,16.515,15.015,22.175,18.7
			c5.668,3.679,20.118,11.729,43.35,24.15C198.382-19.306,216.465-10.797,229.4-6.2C241.1-2.066,247.3,0,248,0
			c30.8,0,83.2-39.167,157.2-117.5c18.433-19.5,43.433-47.267,75-83.3c20.135-22.999,32.826-36.866,38.075-41.6
			c0.618-1.344,1.168-2.569,1.65-3.675c-0.104-1-0.229-2.034-0.375-3.1c-1.02-0.55-2.12-0.825-3.3-0.825
			c-0.765,0-1.474,0.05-2.125,0.15c-0.562,0.735-1.128,1.469-1.7,2.2c-16.926,21.511-33.668,41.911-50.225,61.2
			c-24.8,28.9-48.567,54.95-71.3,78.15C329.367-45.433,286.066-14,261-14c-13.2,0-32.167-5.283-56.9-15.85
			c-23.367-9.967-47.383-22.65-72.05-38.05c-25.4-15.867-46-31.233-61.8-46.1c-17.501-16.47-26.268-28.262-26.3-35.375
			c-0.031-7.106,11.636-23.806,35-50.1c23.362-26.294,52.712-51.703,88.05-76.225c35.337-24.527,65.729-49.344,91.175-74.45
			c23.76-23.44,43.852-40.006,60.275-49.7C318.422-401.337,318.372-402.904,318.3-404.55z"/>
		<path style="fill-rule:evenodd;clip-rule:evenodd;fill:#F5E1A3;" d="M321.9-401.8c-1.129,0.618-2.279,1.268-3.45,1.95
			c-16.424,9.694-36.516,26.26-60.275,49.7c-25.446,25.105-55.838,49.922-91.175,74.45c-35.337,24.522-64.688,49.931-88.05,76.225
			c-23.364,26.294-35.031,42.994-35,50.1c0.032,7.113,8.799,18.905,26.3,35.375c15.8,14.867,36.4,30.233,61.8,46.1
			c24.667,15.4,48.684,28.083,72.05,38.05C228.833-19.283,247.8-14,261-14c25.066,0,68.367-31.433,129.9-94.3
			c22.733-23.2,46.5-49.25,71.3-78.15c16.557-19.289,33.298-39.688,50.225-61.2c0.572-0.731,1.139-1.465,1.7-2.2
			c0.043-0.048,0.085-0.098,0.125-0.15c-0.833-0.833-2.417-1.417-4.75-1.75l-2.175-0.1c-5.009-4.251-10.934-9.618-17.775-16.1
			c-15-14.233-27.433-26.917-37.3-38.05c-2.667-3.067-9.434-8.25-20.3-15.55c-14.534-9.5-25.917-16.967-34.15-22.4
			c-24.453-16.07-49.053-34.753-73.8-56.05C323.298-400.596,322.598-401.196,321.9-401.8z M208.075-123.75
			c3.33-8.813,10.655-16.196,21.975-22.15c6.267-3.3,13.267-5.867,21-7.7c6.833-1.6,13.15-2.4,18.95-2.4
			c15.6,0,26.917,2.65,33.95,7.95c2.192,1.655,4.083,3.63,5.675,5.925C313.875-136.016,316-127.641,316-117
			c0,15.733-5.95,28.167-17.85,37.3c-3.801,2.929-8.051,5.388-12.75,7.375C282.086-72.108,276.62-72,269-72
			c-5.333,0-11.434-0.833-18.3-2.5c-7.5-1.8-14.4-4.283-20.7-7.45c-16-8.066-24-18.083-24-30.05
			C206-116.165,206.691-120.082,208.075-123.75z M355.15-170.925C354.383-174.031,354-177.39,354-181c0-7.2,3.35-13.517,10.05-18.95
			c5.86-4.741,12.51-7.382,19.95-7.925c0.623-0.05,1.248-0.083,1.875-0.1c0.373-0.017,0.748-0.025,1.125-0.025
			c3.467,0,7.15,2,11.05,6c3.967,4.1,5.95,8.1,5.95,12c0,10.8-2.633,20.167-7.9,28.1c-0.893,1.339-1.843,2.597-2.85,3.775
			C388.666-156.708,383.916-156,379-156c-1.566,0-6.6-1.6-15.1-4.8c-2.1-0.782-4-1.515-5.7-2.2
			C356.859-165.428,355.842-168.07,355.15-170.925z M322.65-232.6c3.154-1.525,5.621-2.475,7.4-2.85
			c1.634-0.367,6.617-0.55,14.95-0.55c3.5,0,6.133,0.083,7.9,0.25c2.967,0.267,5.333,0.85,7.1,1.75c0,1-0.083,1.966-0.25,2.9
			c-1.026,5.469-5.06,9.686-12.1,12.65c-5.901,2.426-13.626,3.901-23.175,4.425c-5.815-3-9.307-7.658-10.475-13.975
			C317.3-229.884,320.184-231.417,322.65-232.6z M232.075-245.55c1.188-0.89,2.513-1.69,3.975-2.4c5.5-2.7,12.817-4.05,21.95-4.05
			c11.633,0,21.667,3.35,30.1,10.05c7.933,6.333,11.9,13.317,11.9,20.95c0,2.767-0.316,5.316-0.95,7.65
			c-1.621,5.865-5.271,10.349-10.95,13.45c-6.422,3.508-15.897,5.45-28.425,5.825c-13.087-2.88-21.979-6.239-26.675-10.075
			c-6-4.9-9-12.85-9-23.85C224-235.689,226.691-241.539,232.075-245.55z M282.6-338.55c2.714-1.925,5.865-3.726,9.45-5.4
			c5.534-2.6,11.617-4.65,18.25-6.15c5.7-1.267,10.6-1.9,14.7-1.9c5.277,0,10.152,0.467,14.625,1.4
			c1.763,0.369,3.463,0.811,5.1,1.325c4.177,1.306,7.952,3.081,11.325,5.325C365.35-337.783,370-328.8,370-317
			c0,3.667-1.283,7.767-3.85,12.3c-2.5,4.5-5.867,8.75-10.1,12.75c-6.151,5.779-12.477,9.762-18.975,11.95H308.65
			c-0.289-0.037-0.581-0.071-0.875-0.1c-17.831-9.247-28.489-15.53-31.975-18.85c-2.4-2.3-4-4.85-4.8-7.65
			c-0.667-2.3-1-5.767-1-10.4c0-7.551,3.4-14.126,10.2-19.725C280.958-337.342,281.757-337.951,282.6-338.55z M181.65-154.95
			c-1.107,4.913-4.974,9.213-11.6,12.9c-7.233,4.033-14.917,6.05-23.05,6.05c-1.566,0.133-3.083,0.183-4.55,0.15
			c-1.353-0.031-2.669-0.156-3.95-0.375c-1.942-1.679-3.742-3.471-5.4-5.375c-3.4-3.867-5.1-7-5.1-9.4c0-6.331,1.333-11.447,4-15.35
			c1.561-2.282,3.578-4.148,6.05-5.6c4.6-2.7,11.25-4.05,19.95-4.05c6.3,0,11.65,1.35,16.05,4.05c5.3,3.233,7.95,7.883,7.95,13.95
			C182-156.957,181.883-155.94,181.65-154.95z M195.525-201.975c-0.593,2.347-1.751,4.339-3.475,5.975
			c-2.077,1.956-4.794,3.197-8.15,3.725c-3.735-0.639-7.885-1.981-12.45-4.025c-6.534-3.3-11.684-5.867-15.45-7.7
			c3.621-3.621,8.313-7.129,14.075-10.525c0.076-0.04,0.151-0.082,0.225-0.125c6.1-3.567,10.667-5.35,13.7-5.35
			c2.9,0,5.583,1.333,8.05,4c2.634,2.833,3.95,6.167,3.95,10C196-204.56,195.842-203.218,195.525-201.975z M440.525-230.8
			c0.691-2.25,2.649-4.633,5.875-7.15c3.467-2.7,5.75-4.05,6.85-4.05c2,0,4.066,2.5,6.2,7.5c0.402,0.956,0.761,1.864,1.075,2.725
			c1.15,3.17,1.725,5.761,1.725,7.775c-0.4,0-1.684,0.333-3.85,1s-4.216,1-6.15,1c-1.63,0-3.055-0.025-4.275-0.075
			c-3.967-1.002-6.325-1.927-7.075-2.775c-0.433-0.467-0.65-1.85-0.65-4.15C440.25-229.59,440.342-230.19,440.525-230.8z"/>
		<path style="fill-rule:evenodd;clip-rule:evenodd;fill:#DDAF64;" d="M309.625-142.125c0.25,1.07,0.375,2.112,0.375,3.125
			c0,9.967-4.65,18.967-13.95,27c-9.3,8-19.65,12-31.05,12c-14.566,0-26.867-2.017-36.9-6.05
			c-10.215-4.114-16.89-10.014-20.025-17.7C206.691-120.082,206-116.165,206-112c0,11.967,8,21.983,24,30.05
			c6.3,3.167,13.2,5.65,20.7,7.45c6.866,1.667,12.966,2.5,18.3,2.5c7.62,0,13.086-0.108,16.4-0.325
			c4.699-1.987,8.949-4.446,12.75-7.375C310.05-88.833,316-101.267,316-117C316-127.641,313.875-136.016,309.625-142.125z
			 M355.15-170.925c0.692,2.854,1.709,5.497,3.05,7.925c1.7,0.685,3.6,1.418,5.7,2.2c8.5,3.2,13.534,4.8,15.1,4.8
			c4.916,0,9.666-0.708,14.25-2.125c1.007-1.178,1.958-2.436,2.85-3.775c5.267-7.934,7.9-17.3,7.9-28.1c0-3.9-1.983-7.9-5.95-12
			c-3.9-4-7.583-6-11.05-6c-0.377,0-0.752,0.008-1.125,0.025c4.239,0.27,7.714,2.211,10.425,5.825c2.467,3.267,3.7,6.65,3.7,10.15
			c0,5.8-2.684,11.15-8.05,16.05c-5.8,5.3-12.784,7.95-20.95,7.95c-3.066,0.133-5.35,0.183-6.85,0.15
			c-2.533-0.066-4.65-0.5-6.35-1.3C356.86-169.585,355.977-170.177,355.15-170.925z M359.75-231.1
			c-8.051,4.733-13.968,7.1-17.75,7.1c-9.551-3.107-16-5.974-19.35-8.6c-2.466,1.183-5.35,2.716-8.65,4.6
			c1.168,6.317,4.66,10.976,10.475,13.975c9.548-0.524,17.273-1.999,23.175-4.425C354.69-221.414,358.724-225.631,359.75-231.1z
			 M299.05-213.35c-0.439,0.265-0.889,0.532-1.35,0.8c-5.2,3.033-9.434,4.55-12.7,4.55c-2.9,0-7.35-1.383-13.35-4.15
			c-5.6-2.6-11.483-5.9-17.65-9.9c-14.667-9.467-22-16.45-22-20.95c0-1.065,0.025-1.915,0.075-2.55
			C226.691-241.539,224-235.689,224-228c0,11,3,18.95,9,23.85c4.696,3.836,13.587,7.194,26.675,10.075
			c12.528-0.375,22.003-2.316,28.425-5.825C293.778-203.001,297.429-207.485,299.05-213.35z M339.625-350.6
			c3.223,1.834,5.798,3.951,7.725,6.35c0.015,0.019,0.031,0.035,0.05,0.05c1.733,3.937,2.6,7.67,2.6,11.2
			c0,5.233-5.983,10.9-17.95,17c-4.366,2.233-8.866,4.167-13.5,5.8c-4.2,1.467-7.05,2.2-8.55,2.2c-6.833,0-13.483-3.3-19.95-9.9
			c-4.851-4.947-7.942-10.172-9.275-15.675c0.424-1.491,1.032-3.149,1.825-4.975c-0.843,0.599-1.643,1.208-2.4,1.825
			C273.4-331.126,270-324.551,270-317c0,4.633,0.333,8.1,1,10.4c0.8,2.8,2.4,5.35,4.8,7.65c3.486,3.32,14.145,9.604,31.975,18.85
			c0.294,0.029,0.586,0.063,0.875,0.1h28.425c6.498-2.188,12.823-6.171,18.975-11.95c4.233-4,7.6-8.25,10.1-12.75
			c2.567-4.533,3.85-8.633,3.85-12.3c0-11.8-4.65-20.783-13.95-26.95c-3.373-2.244-7.147-4.019-11.325-5.325
			C343.088-349.79,341.388-350.231,339.625-350.6z M132-166.35c-2.667,3.903-4,9.02-4,15.35c0,2.4,1.7,5.533,5.1,9.4
			c1.658,1.904,3.458,3.696,5.4,5.375c1.281,0.219,2.598,0.344,3.95,0.375c1.466,0.033,2.983-0.017,4.55-0.15
			c8.133,0,15.816-2.017,23.05-6.05c6.626-3.688,10.493-7.987,11.6-12.9c-0.013,0.019-0.029,0.036-0.05,0.05
			c-4.5,3.267-11.034,4.9-19.6,4.9c-5.434,0-11.4-1.317-17.9-3.95c-8.067-3.3-12.1-7.316-12.1-12.05
			C132-166.118,132-166.234,132-166.35z M170.075-214.525c-5.763,3.396-10.455,6.904-14.075,10.525c3.767,1.833,8.917,4.4,15.45,7.7
			c4.564,2.044,8.714,3.386,12.45,4.025c3.356-0.528,6.073-1.77,8.15-3.725c1.724-1.636,2.882-3.628,3.475-5.975
			C193.277-200.658,190.769-200,188-200c-6.6,0-11.25-1.3-13.95-3.9C171.728-206.108,170.402-209.649,170.075-214.525z
			 M460.525-231.775c-0.589,0.956-1.331,1.581-2.225,1.875c-1,0.367-2.566,0.467-4.7,0.3c-3.434-0.267-5.55-0.4-6.35-0.4
			c-2.661,0-4.902-0.267-6.725-0.8c-0.183,0.61-0.275,1.209-0.275,1.8c0,2.3,0.217,3.683,0.65,4.15
			c0.75,0.848,3.108,1.773,7.075,2.775c1.22,0.05,2.645,0.075,4.275,0.075c1.934,0,3.983-0.333,6.15-1s3.45-1,3.85-1
			C462.25-226.014,461.675-228.605,460.525-231.775z"/>
		<path style="fill-rule:evenodd;clip-rule:evenodd;fill:#BD8437;" d="M208.075-123.75c3.135,7.687,9.81,13.586,20.025,17.7
			c10.033,4.033,22.333,6.05,36.9,6.05c11.4,0,21.75-4,31.05-12c9.3-8.033,13.95-17.033,13.95-27c0-1.013-0.125-2.055-0.375-3.125
			c-1.591-2.294-3.483-4.27-5.675-5.925c-7.034-5.3-18.35-7.95-33.95-7.95c-5.8,0-12.117,0.8-18.95,2.4
			c-7.733,1.833-14.733,4.4-21,7.7C218.73-139.946,211.405-132.563,208.075-123.75z M385.875-207.975
			c-0.627,0.017-1.252,0.05-1.875,0.1c-7.44,0.542-14.09,3.184-19.95,7.925C357.35-194.517,354-188.2,354-181
			c0,3.61,0.383,6.969,1.15,10.075c0.827,0.748,1.71,1.34,2.65,1.775c1.7,0.8,3.817,1.233,6.35,1.3c1.5,0.033,3.784-0.017,6.85-0.15
			c8.167,0,15.15-2.65,20.95-7.95c5.366-4.9,8.05-10.25,8.05-16.05c0-3.5-1.233-6.883-3.7-10.15
			C393.589-205.764,390.114-207.706,385.875-207.975z M322.65-232.6c3.35,2.626,9.799,5.493,19.35,8.6
			c3.782,0,9.699-2.367,17.75-7.1c0.167-0.934,0.25-1.9,0.25-2.9c-1.767-0.9-4.133-1.483-7.1-1.75c-1.767-0.167-4.4-0.25-7.9-0.25
			c-8.333,0-13.316,0.183-14.95,0.55C328.271-235.075,325.804-234.125,322.65-232.6z M232.075-245.55
			c-0.05,0.635-0.075,1.485-0.075,2.55c0,4.5,7.333,11.483,22,20.95c6.167,4,12.05,7.3,17.65,9.9c6,2.767,10.45,4.15,13.35,4.15
			c3.267,0,7.5-1.517,12.7-4.55c0.46-0.269,0.911-0.535,1.35-0.8c0.634-2.333,0.95-4.883,0.95-7.65c0-7.633-3.967-14.617-11.9-20.95
			c-8.434-6.7-18.467-10.05-30.1-10.05c-9.133,0-16.45,1.35-21.95,4.05C234.588-247.24,233.263-246.44,232.075-245.55z
			 M282.6-338.55c-0.793,1.825-1.401,3.484-1.825,4.975c1.333,5.503,4.424,10.728,9.275,15.675c6.467,6.6,13.117,9.9,19.95,9.9
			c1.5,0,4.35-0.733,8.55-2.2c4.634-1.633,9.134-3.566,13.5-5.8c11.967-6.1,17.95-11.767,17.95-17c0-3.53-0.867-7.264-2.6-11.2
			c-0.019-0.015-0.035-0.031-0.05-0.05c-1.927-2.399-4.502-4.516-7.725-6.35c-4.473-0.933-9.348-1.4-14.625-1.4
			c-4.1,0-9,0.633-14.7,1.9c-6.633,1.5-12.716,3.55-18.25,6.15C288.465-342.275,285.314-340.475,282.6-338.55z M132-166.35
			c0,0.116,0,0.232,0,0.35c0,4.733,4.033,8.75,12.1,12.05c6.5,2.633,12.466,3.95,17.9,3.95c8.566,0,15.1-1.633,19.6-4.9
			c0.021-0.015,0.037-0.031,0.05-0.05c0.233-0.99,0.35-2.006,0.35-3.05c0-6.067-2.65-10.717-7.95-13.95
			c-4.4-2.7-9.75-4.05-16.05-4.05c-8.7,0-15.35,1.35-19.95,4.05C135.578-170.499,133.561-168.632,132-166.35z M170.075-214.525
			c0.327,4.875,1.652,8.417,3.975,10.625c2.7,2.6,7.35,3.9,13.95,3.9c2.769,0,5.277-0.658,7.525-1.975
			C195.842-203.218,196-204.56,196-206c0-3.833-1.316-7.167-3.95-10c-2.466-2.667-5.15-4-8.05-4c-3.033,0-7.6,1.783-13.7,5.35
			C170.226-214.607,170.151-214.565,170.075-214.525z M440.525-230.8c1.823,0.533,4.064,0.8,6.725,0.8c0.8,0,2.917,0.133,6.35,0.4
			c2.133,0.167,3.7,0.067,4.7-0.3c0.895-0.294,1.636-0.919,2.225-1.875c-0.314-0.861-0.672-1.77-1.075-2.725
			c-2.134-5-4.2-7.5-6.2-7.5c-1.1,0-3.383,1.35-6.85,4.05C443.174-235.433,441.216-233.049,440.525-230.8z"/>
		<path style="fill-rule:evenodd;clip-rule:evenodd;fill:#EDB348;" d="M30.75-155.75c4.656-11.153,32.523-39.554,83.6-85.2
			c55.963-50.005,104.296-91.505,145-124.5c31.657-25.666,51.307-38.699,58.95-39.1c-0.081-1.732-0.181-3.548-0.3-5.45
			c-0.525-8.41-0.634-15.16-0.325-20.25c-1.433-0.729-2.858-1.438-4.275-2.125c-54.43,19.267-107.046,39.858-157.85,61.775
			c-91.65,39.506-142.8,69.248-153.45,89.225C0.7-278.748,0-276.289,0-274c0,4.702,0.7,11.118,2.1,19.25
			c0.694,4.026,1.561,8.476,2.6,13.35c2.933,13.767,6.667,28.25,11.2,43.45c4.6,15.534,9,28.333,13.2,38.4
			C29.665-158.206,30.215-156.939,30.75-155.75z"/>
		<path style="fill-rule:evenodd;clip-rule:evenodd;fill:#F1E3BE;" d="M519.55-249.175c-0.507-3.607-1.274-7.615-2.3-12.025
			c-0.988-3.804-1.729-6.771-2.225-8.9c-10.723-9.188-24.164-21.338-40.325-36.45c-25.9-24.267-42.833-39.95-50.8-47.05
			c-39.256-35.066-74.665-60.616-106.225-76.65c-0.309,5.09-0.2,11.84,0.325,20.25c0.119,1.902,0.219,3.718,0.3,5.45
			c2.178-0.114,3.378,0.803,3.6,2.75c0.698,0.604,1.398,1.204,2.1,1.8c24.747,21.296,49.347,39.98,73.8,56.05
			c8.233,5.434,19.617,12.9,34.15,22.4c10.866,7.3,17.633,12.483,20.3,15.55c9.867,11.133,22.3,23.817,37.3,38.05
			c6.841,6.482,12.767,11.849,17.775,16.1l2.175,0.1c2.333,0.333,3.917,0.917,4.75,1.75c-0.04,0.052-0.082,0.102-0.125,0.15
			c0.651-0.1,1.36-0.15,2.125-0.15C517.43-250,518.53-249.725,519.55-249.175z"/>
	</g>
</symbol>
<symbol  id="wsize_x5F_cheese1" viewBox="0 -34.274 41.214 34.274">
	<g id="Layer_1_3_">
		
			<use xlink:href="#cheese1"  width="519.925" height="432.375" y="-432.375" transform="matrix(0.0793 0 0 0.0793 0 0)" style="overflow:visible;"/>
	</g>
</symbol>
<use xlink:href="#wsize_x5F_cheese1"  width="41.214" height="34.274" y="-34.274" transform="matrix(1.0922 0 0 -1.0933 0 0)" style="overflow:visible;"/>
</svg>
