<?xml version="1.0" encoding="iso-8859-1"?>
<!-- Generator: Adobe Illustrator 15.1.0, SVG Export Plug-In . SVG Version: 6.00 Build 0)  -->
<!DOCTYPE svg PUBLIC "-//W3C//DTD SVG 1.1//EN" "http://www.w3.org/Graphics/SVG/1.1/DTD/svg11.dtd">
<svg version="1.1" id="flash0.ai" xmlns="http://www.w3.org/2000/svg" xmlns:xlink="http://www.w3.org/1999/xlink" x="0px" y="0px"
	 width="62.3px" height="79.4px" viewBox="0 0 62.3 79.4" style="enable-background:new 0 0 62.3 79.4;" xml:space="preserve">
<symbol  id="flash0.ai_x5F_16_x2F_Layer_8_copy_x2F__x3C_Path_x3E__x5F_6" viewBox="-0.004 -4.754 4.358 4.757">
	<g id="Layer_1_3_">
		
			<radialGradient id="SVGID_1_" cx="-895.9922" cy="-2.3501" r="1.35" gradientTransform="matrix(1 0 -0.1204 -1.0926 897.5596 -4.9185)" gradientUnits="userSpaceOnUse">
			<stop  offset="0" style="stop-color:#FFFFFF"/>
			<stop  offset="1" style="stop-color:#FFFFFF;stop-opacity:0"/>
		</radialGradient>
		<path style="fill-rule:evenodd;clip-rule:evenodd;fill:url(#SVGID_1_);" d="M3.8-0.8c0.4-0.467,0.583-1.034,0.55-1.7
			C4.317-3.133,4.067-3.683,3.6-4.15c-0.467-0.434-0.983-0.633-1.55-0.6c-0.6,0.033-1.1,0.3-1.5,0.8C0.15-3.45-0.033-2.867,0-2.2
			c0.033,0.633,0.283,1.167,0.75,1.6C1.183-0.167,1.7,0.033,2.3,0C2.9-0.033,3.4-0.3,3.8-0.8z"/>
	</g>
</symbol>
<symbol  id="flash0.ai_x5F_16_x2F_Layer_8_copy_x2F__x3C_Path_x3E__x5F_7" viewBox="-0.015 -10.956 10.03 10.962">
	<g id="Layer_1_2_">
		
			<radialGradient id="SVGID_2_" cx="-1024.623" cy="91.501" r="3.1377" gradientTransform="matrix(0.9999 0.012 -0.1354 -1.0876 1041.2437 106.3594)" gradientUnits="userSpaceOnUse">
			<stop  offset="0" style="stop-color:#FFFFFF"/>
			<stop  offset="1" style="stop-color:#FFFFFF;stop-opacity:0"/>
		</radialGradient>
		<path style="fill-rule:evenodd;clip-rule:evenodd;fill:url(#SVGID_2_);" d="M8.8-1.75C9.7-2.883,10.1-4.2,10-5.7
			S9.317-8.467,8.25-9.5C7.217-10.533,6-11.017,4.6-10.95C3.233-10.883,2.1-10.3,1.2-9.2C0.3-8.067-0.1-6.75,0-5.25
			c0.133,1.5,0.717,2.767,1.75,3.8C2.783-0.417,4,0.067,5.4,0C6.767-0.067,7.9-0.65,8.8-1.75z"/>
	</g>
</symbol>
<g>
	<rect style="fill-rule:evenodd;clip-rule:evenodd;fill:#FFFFFF;fill-opacity:0;" width="40" height="40"/>
</g>
<g>
	<g>
		<polygon style="fill-rule:evenodd;clip-rule:evenodd;fill:#8CA101;" points="25.399,8.208 31.214,13.018 32.176,14.242 
			32.919,15.554 33.399,16.909 33.574,17.608 33.706,19.007 33.706,19.619 33.574,20.8 33.269,21.893 32.612,23.16 32.001,23.948 
			31.913,23.991 31.869,24.079 31.52,24.385 31.607,24.079 31.695,23.511 31.65,23.205 31.607,22.461 31.433,21.718 30.82,20.1 
			30.602,19.707 29.552,18.22 28.153,16.777 26.23,15.248 24.612,13.499 23.738,12.144 23.082,10.7 22.514,8.689 22.339,6.722 
			22.383,5.717 22.645,4.23 23.125,2.744 23.476,4.973 23.869,6.154 24.569,7.247 		"/>
		<polygon style="fill-rule:evenodd;clip-rule:evenodd;fill:#616E01;" points="25.006,7.858 25.662,8.471 31.214,13.018 
			32.176,14.242 32.919,15.554 33.399,16.909 33.574,17.608 33.706,18.92 33.618,20.625 33.356,21.674 32.919,22.723 32.132,23.816 
			32.045,23.816 32.045,23.904 31.607,24.385 32.569,22.811 33.007,21.762 33.225,20.669 33.269,20.144 33.094,18.657 
			32.788,17.827 32.744,17.739 32.656,17.608 32.045,16.297 31.258,15.248 30.121,14.111 26.404,11.094 24.743,9.389 23.694,7.64 
			23.125,5.891 22.907,4.667 22.995,3.574 23.169,3.137 23.257,4.055 23.65,5.717 24.481,7.203 		"/>
		<polygon style="fill-rule:evenodd;clip-rule:evenodd;fill:#6C7D02;" points="24,8.034 24.918,9.433 26.623,11.225 26.754,11.269 
			30.689,14.548 31.695,15.728 32.351,16.777 32.831,17.871 33.138,19.051 33.269,20.057 32.831,18.177 31.695,15.947 
			30.558,14.635 29.946,14.067 26.273,11.138 25.049,9.914 23.781,8.077 22.995,6.022 22.732,4.798 23.039,4.536 23.65,7.159 		"/>
		<polygon style="fill-rule:evenodd;clip-rule:evenodd;fill:#687802;" points="22.514,4.973 23.125,2.744 23.301,4.449 
			23.694,5.673 23.957,6.241 23.694,6.373 23.301,6.853 22.951,7.465 22.82,8.165 22.907,8.733 22.907,8.996 23.039,9.914 
			23.476,11.575 22.688,9.389 22.383,7.728 22.339,6.635 		"/>
		<polygon style="fill-rule:evenodd;clip-rule:evenodd;fill:#6C7D02;" points="24.875,10.088 24.962,9.826 25.006,9.739 
			25.049,9.695 25.225,9.782 25.268,9.826 25.268,10.001 25.225,10.088 25.225,10.22 25.181,10.438 25.225,11.75 25.268,11.837 
			25.399,12.362 25.093,11.662 25.006,11.531 24.918,11.182 24.831,10.569 24.831,10.307 		"/>
		<polygon style="fill-rule:evenodd;clip-rule:evenodd;fill:#6C7D02;" points="27.017,11.706 27.061,11.662 27.104,11.662 
			27.323,11.881 27.366,12.056 27.323,12.974 27.41,13.411 27.585,13.848 27.672,13.979 27.716,14.154 27.76,14.198 27.804,14.286 
			27.848,14.417 27.891,14.504 27.935,14.635 27.935,14.723 27.979,14.723 27.979,14.81 27.935,14.723 27.192,13.368 27.017,12.493 
			27.017,12.187 26.973,12.012 26.973,11.837 27.017,11.837 		"/>
		<polygon style="fill-rule:evenodd;clip-rule:evenodd;fill:#6C7D02;" points="29.552,13.761 29.596,14.417 29.858,15.378 
			30.339,16.471 29.946,15.815 29.421,14.548 29.203,13.674 29.203,13.324 29.246,13.368 29.378,13.455 29.465,13.586 		"/>
		<polygon style="fill-rule:evenodd;clip-rule:evenodd;fill:#6C7D02;" points="31.826,18.133 31.563,16.646 31.563,16.516 
			31.52,16.34 31.52,16.297 31.563,16.034 31.607,15.903 31.65,15.859 31.695,15.947 31.913,17.477 31.826,18.701 		"/>
		<polygon style="fill-rule:evenodd;clip-rule:evenodd;fill:#6C7D02;" points="32.744,20.188 32.438,20.843 32.831,19.576 
			32.831,19.313 32.919,18.876 33.007,18.789 33.138,18.876 32.963,19.401 32.919,19.619 		"/>
		<polygon style="fill-rule:evenodd;clip-rule:evenodd;fill:#6C7D02;" points="26.404,9.782 27.192,10.088 26.448,9.958 
			25.88,9.958 25.268,10.088 25.137,9.739 25.268,9.607 25.399,9.521 25.618,9.521 26.055,9.695 		"/>
		<polygon style="fill-rule:evenodd;clip-rule:evenodd;fill:#6C7D02;" points="27.279,11.488 27.891,11.488 28.94,11.793 
			28.459,11.706 28.197,11.619 27.979,11.662 27.848,11.662 27.716,11.706 27.366,12.056 27.017,11.619 		"/>
		<polygon style="fill-rule:evenodd;clip-rule:evenodd;fill:#6C7D02;" points="30.034,13.105 30.165,13.149 30.296,13.236 
			30.82,13.368 30.602,13.324 30.383,13.324 30.121,13.28 29.946,13.28 29.509,13.411 29.421,13.411 29.378,13.455 29.203,13.368 
			29.378,13.192 		"/>
		<polygon style="fill-rule:evenodd;clip-rule:evenodd;fill:#6C7D02;" points="31.65,15.728 32.088,15.728 32.22,15.772 
			32.351,15.903 32.788,16.165 32.263,15.947 32.045,15.903 31.913,15.947 31.695,15.947 31.607,15.859 		"/>
	</g>
	
		<radialGradient id="SVGID_3_" cx="23.4038" cy="13.127" r="14.2863" gradientTransform="matrix(0.5929 0.6427 0.586 -0.6511 -9.1546 19.4643)" gradientUnits="userSpaceOnUse">
		<stop  offset="0" style="stop-color:#FF0008"/>
		<stop  offset="1" style="stop-color:#800005"/>
	</radialGradient>
	<path style="fill-rule:evenodd;clip-rule:evenodd;fill:url(#SVGID_3_);" d="M15.956,22.374c0.67-0.058,1.603-0.189,2.797-0.393
		c0.962-0.088,1.793,0.043,2.492,0.393c1.137,0.525,1.967,1.53,2.492,3.017c0.699,1.924,0.568,4.125-0.394,6.602
		c-0.875,2.215-1.865,3.702-2.973,4.459c-0.554,0.379-1.574,0.685-3.06,0.918c-1.865,0.321-3.381,0.365-4.547,0.132
		c-2.157-0.379-3.76-1.545-4.809-3.498c-1.428-2.71-1.953-5.129-1.574-7.257c0.408-1.982,1.545-3.41,3.41-4.285
		c1.283-0.583,2.419-0.758,3.411-0.524C14.6,22.257,15.519,22.402,15.956,22.374z"/>
	
		<use xlink:href="#flash0.ai_x5F_16_x2F_Layer_8_copy_x2F__x3C_Path_x3E__x5F_7"  width="10.03" height="10.962" x="-0.015" y="-10.956" transform="matrix(0.8744 0 0 -0.8744 7.2002 21.7998)" style="overflow:visible;opacity:0.6211;enable-background:new    ;"/>
	
		<use xlink:href="#flash0.ai_x5F_16_x2F_Layer_8_copy_x2F__x3C_Path_x3E__x5F_6"  width="4.358" height="4.757" x="-0.004" y="-4.754" transform="matrix(0.8744 0 0 -0.8744 13 24.9502)" style="overflow:visible;opacity:0.4492;enable-background:new    ;"/>
	<path style="fill-rule:evenodd;clip-rule:evenodd;fill:#FFFFFF;" d="M10.403,25.74c0.641,0.029,1.107,0.218,1.399,0.568
		c0.292,0.292,0.35,0.598,0.175,0.918c-0.175,0.262-0.524,0.394-1.049,0.394c-0.496-0.029-0.933-0.16-1.312-0.394
		c-0.35-0.233-0.423-0.539-0.219-0.918C9.631,25.93,9.966,25.74,10.403,25.74z"/>
	<path style="fill-rule:evenodd;clip-rule:evenodd;fill:#FF9191;" d="M14.6,23.685l0.525-0.087c0.379-0.029,0.7-0.029,0.962,0
		c0.408,0.029,1.253-0.175,2.536-0.612c-0.525,0.495-1.151,0.86-1.88,1.093c-0.641,0.233-1.137,0.35-1.487,0.35
		c-0.466,0.029-0.947-0.087-1.442-0.35c-0.321-0.175-0.67-0.466-1.049-0.874l-0.481-0.612l0.656,0.394
		C13.493,23.277,14.046,23.511,14.6,23.685z"/>
	<path style="fill-rule:evenodd;clip-rule:evenodd;fill:#800005;" d="M13.114,23.117c0.495,0.088,1.034,0,1.618-0.262
		c0.408-0.029,0.568-0.102,0.48-0.218c0.029-0.059,0.059-0.117,0.087-0.175c0.088-0.116,0.16-0.146,0.219-0.087
		c0.117,0.059,0.466,0.044,1.049-0.043l-0.218,0.306c-0.117,0.204-0.073,0.364,0.131,0.48c0.379,0.175,0.889,0.19,1.53,0.043
		l-0.743,0.306c-0.787,0.321-1.443,0.496-1.968,0.525c-0.408,0.029-0.889-0.102-1.442-0.394L13.114,23.117z"/>
	<path style="fill-rule:evenodd;clip-rule:evenodd;fill:#A2B002;" d="M17.923,12.056c-1.428,3.002-2.201,5.771-2.317,8.307
		c-0.058,1.544,0.087,2.681,0.438,3.41c-0.467,0.262-0.816,0.277-1.049,0.044c-0.117-0.117-0.19-0.321-0.219-0.612l-0.043-0.35
		c-0.117-0.32-0.175-0.86-0.175-1.618c0.029-1.516,0.321-3.41,0.875-5.683c0.67-2.652,1.807-5.145,3.41-7.477
		c1.458-2.127,2.23-3.57,2.317-4.328l0.087-1.18l0.35-0.175c0.321-0.087,0.686-0.029,1.093,0.175c0.583,0.292,0.816,0.539,0.7,0.743
		c-0.554,0.67-0.977,1.443-1.268,2.317c-0.146,0.379-0.714,1.239-1.705,2.58C19.278,9.695,18.448,10.978,17.923,12.056z"/>
	<path style="fill-rule:evenodd;clip-rule:evenodd;fill:#839602;" d="M17.442,12.144c0.816-1.487,1.72-2.872,2.711-4.153
		c0.903-1.195,1.646-2.565,2.23-4.11c0.146-0.379,0.218-0.831,0.218-1.355l0.087,0.043c0.583,0.292,0.816,0.539,0.7,0.743
		c-0.554,0.67-0.977,1.443-1.268,2.317c-0.146,0.379-0.714,1.239-1.705,2.58c-1.137,1.486-1.967,2.769-2.492,3.847
		c-1.428,3.002-2.201,5.771-2.317,8.307c-0.058,1.544,0.087,2.681,0.438,3.41c-0.467,0.262-0.816,0.277-1.049,0.044l-0.175-0.394
		c0.263,0.088,0.423,0.131,0.481,0.131c0.233,0.029,0.306-0.35,0.219-1.137c-0.146-1.487-0.189-2.871-0.131-4.153
		C15.475,16.544,16.16,14.504,17.442,12.144z"/>
	<path style="fill-rule:evenodd;clip-rule:evenodd;fill:#C8DB46;" d="M21.464,3.355c0.029-0.32,0.073-0.51,0.131-0.568
		c0.059-0.029,0.117,0.029,0.175,0.175c0.087,0.174,0,0.67-0.262,1.486c-0.292,0.962-0.918,2.069-1.88,3.323
		c-0.612,0.816-0.977,1.268-1.093,1.355c-0.146,0.117-0.073-0.029,0.218-0.437c0.7-1.079,1.225-1.822,1.574-2.229
		c0.262-0.321,0.525-0.831,0.787-1.53C21.319,4.289,21.435,3.764,21.464,3.355z"/>
</g>
</svg>
