<?xml version="1.0" encoding="iso-8859-1"?>
<!-- Generator: Adobe Illustrator 15.1.0, SVG Export Plug-In . SVG Version: 6.00 Build 0)  -->
<!DOCTYPE svg PUBLIC "-//W3C//DTD SVG 1.1//EN" "http://www.w3.org/Graphics/SVG/1.1/DTD/svg11.dtd">
<svg version="1.1" id="flash0.ai" xmlns="http://www.w3.org/2000/svg" xmlns:xlink="http://www.w3.org/1999/xlink" x="0px" y="0px"
	 width="51.2px" height="44.95px" viewBox="0 0 51.2 44.95" style="enable-background:new 0 0 51.2 44.95;" xml:space="preserve">
<symbol  id="flash0.ai_x5F_2_x2F_Layer_15_copy_2_x2F__x3C_Path_x3E_" viewBox="0 -17.4 0.25 17.4">
	<g id="Layer_1_14_">
		<path style="fill-rule:evenodd;clip-rule:evenodd;fill:#DFF7F7;" d="M0.25-8.7c0-5.8-0.033-8.7-0.1-8.7C0.05-17.4,0-14.5,0-8.7
			C0-2.9,0.05,0,0.15,0C0.217,0,0.25-2.9,0.25-8.7z"/>
	</g>
</symbol>
<symbol  id="flash0.ai_x5F_2_x2F_Layer_15_copy_2_x2F__x3C_Path_x3E__x5F_13" viewBox="0.001 -8.432 11.949 8.432">
	<g id="Layer_1_13_">
		
			<linearGradient id="SVGID_1_" gradientUnits="userSpaceOnUse" x1="5741.3672" y1="-19455.957" x2="5750.3887" y2="-19455.957" gradientTransform="matrix(-0.5431 -0.8396 0.8396 -0.5431 19461.8496 -5748.5039)">
			<stop  offset="0" style="stop-color:#FFFFFF"/>
			<stop  offset="1" style="stop-color:#000000"/>
		</linearGradient>
		<path style="fill-rule:evenodd;clip-rule:evenodd;fill:url(#SVGID_1_);" d="M8.8-0.3L11.95,0L11.3-0.65
			c-0.7-0.667-1.966-1.7-3.8-3.1c-2.4-1.833-4.283-3.1-5.65-3.8c-1.434-0.767-2.033-1.034-1.8-0.8c0.067,0.033,1,0.767,2.8,2.2
			C4.85-4.583,6.833-2.633,8.8-0.3z"/>
	</g>
</symbol>
<symbol  id="flash0.ai_x5F_2_x2F_Layer_15_copy_2_x2F__x3C_Path_x3E__x5F_14" viewBox="0 -10.202 15.95 10.205">
	<g id="Layer_1_12_">
		<linearGradient id="SVGID_2_" gradientUnits="userSpaceOnUse" x1="2.8501" y1="-5.0996" x2="12.6501" y2="-5.0996">
			<stop  offset="0" style="stop-color:#FFFFFF"/>
			<stop  offset="1" style="stop-color:#000000"/>
		</linearGradient>
		<path style="fill-rule:evenodd;clip-rule:evenodd;fill:url(#SVGID_2_);" d="M8.4-0.65c2.567-0.233,5.083-0.467,7.55-0.7l-0.1-7
			c0-1.733-0.85-2.25-2.55-1.55l-2.6,1.55c-0.467,0.4-2,1.55-4.6,3.45C3.5-3.033,1.467-1.4,0,0C0.467,0.033,3.267-0.183,8.4-0.65z"
			/>
	</g>
</symbol>
<symbol  id="flash0.ai_x5F_2_x2F_Layer_15_copy_2_x2F__x3C_Path_x3E__x5F_15" viewBox="0.975 -16.406 43.125 16.031">
	<g id="Layer_1_11_">
		<linearGradient id="SVGID_3_" gradientUnits="userSpaceOnUse" x1="0" y1="-8.3906" x2="44.6" y2="-8.3906">
			<stop  offset="0" style="stop-color:#FFFFFF"/>
			<stop  offset="1" style="stop-color:#000000"/>
		</linearGradient>
		<path style="fill-rule:evenodd;clip-rule:evenodd;fill:url(#SVGID_3_);" d="M22.3-5.1C32-4.233,37.4-3.667,38.5-3.4
			c1.281,0.281,3.148,1.29,5.6,3.025C37.343-5.429,32.776-8.738,30.4-10.3c-3.167-2.067-5.217-3.75-6.15-5.05
			c-0.567-0.867-1.217-1.2-1.95-1c-0.767-0.167-1.433,0.167-2,1c-0.933,1.3-2.983,2.983-6.15,5.05
			C11.829-8.774,7.438-5.574,0.975-0.7c2.191-1.537,3.9-2.438,5.125-2.7C7.2-3.667,12.6-4.233,22.3-5.1z"/>
	</g>
</symbol>
<symbol  id="flash0.ai_x5F_2_x2F_Layer_15_copy_2_x2F__x3C_Path_x3E__x5F_18" viewBox="0 -9.25 43.8 9.25">
	<g id="Layer_1_10_">
		<linearGradient id="SVGID_4_" gradientUnits="userSpaceOnUse" x1="0" y1="-4.625" x2="43.7998" y2="-4.625">
			<stop  offset="0" style="stop-color:#C2E7FF"/>
			<stop  offset="1" style="stop-color:#88ABC2"/>
		</linearGradient>
		<path style="fill-rule:evenodd;clip-rule:evenodd;fill:url(#SVGID_4_);" d="M37.4-1.35c4.267-0.933,6.4-2.033,6.4-3.3
			S41.667-7,37.4-7.9s-9.433-1.35-15.5-1.35c-6.066,0-11.233,0.45-15.5,1.35S0-5.917,0-4.65s2.133,2.367,6.4,3.3
			C10.7-0.45,15.867,0,21.9,0S33.1-0.45,37.4-1.35z"/>
	</g>
</symbol>
<symbol  id="flash0.ai_x5F_2_x2F_Layer_15_copy_2_x2F__x3C_Path_x3E__x5F_19" viewBox="0.05 -3.4 3.109 3.535">
	<g id="Layer_1_9_">
		<path style="fill-rule:evenodd;clip-rule:evenodd;fill:#CEF2F2;" d="M1.8-2c0.3,0.467,0.483,0.867,0.55,1.2
			c0.1,0.333,0.183,0.566,0.25,0.7c0.267,0.434,0.45,0.267,0.55-0.5C3.217-1.3,2.9-1.917,2.2-2.45C1.4-3.083,0.683-3.4,0.05-3.4
			C0.917-2.9,1.5-2.433,1.8-2z"/>
	</g>
</symbol>
<symbol  id="flash0.ai_x5F_2_x2F_Layer_15_copy_2_x2F__x3C_Path_x3E__x5F_20" viewBox="-0.03 -0.704 0.936 0.729">
	<g id="Layer_1_8_">
		<path style="fill-rule:evenodd;clip-rule:evenodd;fill:#CEF2F2;" d="M0.55-0.05C0.917-0.25,1-0.433,0.8-0.6
			C0.6-0.767,0.383-0.733,0.15-0.5c-0.2,0.2-0.233,0.35-0.1,0.45C0.15,0.05,0.317,0.05,0.55-0.05z"/>
	</g>
</symbol>
<symbol  id="flash0.ai_x5F_2_x2F_Layer_15_copy_2_x2F__x3C_Path_x3E__x5F_21" viewBox="-0.04 -3.524 2.531 3.496">
	<g id="Layer_1_7_">
		<path style="fill-rule:evenodd;clip-rule:evenodd;fill:#CEF2F2;" d="M0.7-0.05c0.267,0.1,0.45-0.133,0.55-0.7
			c0.2-0.867,0.517-1.567,0.95-2.1C2.633-3.383,2.583-3.6,2.05-3.5c-0.566,0.1-1.066,0.45-1.5,1.05C-0.283-1.35-0.233-0.55,0.7-0.05
			z"/>
	</g>
</symbol>
<symbol  id="flash0.ai_x5F_2_x2F_Layer_15_copy_2_x2F__x3C_Path_x3E__x5F_23" viewBox="0 -20.65 3.95 20.65">
	<g id="Layer_1_6_">
		<linearGradient id="SVGID_5_" gradientUnits="userSpaceOnUse" x1="0" y1="-10.3252" x2="3.9" y2="-10.3252">
			<stop  offset="0" style="stop-color:#5A9BC9"/>
			<stop  offset="0.4588" style="stop-color:#EDF8FF"/>
			<stop  offset="0.9765" style="stop-color:#61BEFF"/>
		</linearGradient>
		<path style="fill-rule:evenodd;clip-rule:evenodd;fill:url(#SVGID_5_);" d="M1.95-0.75l2,0.75C3.383-0.5,3.1-1.633,3.1-3.4
			c-0.033-2.434-0.033-8.017,0-16.75c-0.1-0.3-0.434-0.467-1-0.5H1.8c-0.533,0.033-0.85,0.2-0.95,0.5
			c0.033,8.733,0.033,14.316,0,16.75C0.817-1.6,0.533-0.467,0,0L1.95-0.75z"/>
	</g>
</symbol>
<symbol  id="flash0.ai_x5F_2_x2F_Layer_15_copy_2_x2F__x3C_Path_x3E__x5F_24" viewBox="-0.013 -2.65 4.457 2.65">
	<g id="Layer_1_5_">
		<linearGradient id="SVGID_6_" gradientUnits="userSpaceOnUse" x1="-0.0376" y1="-1.3252" x2="4.4374" y2="-1.3252">
			<stop  offset="0" style="stop-color:#8F8F8F"/>
			<stop  offset="0.4588" style="stop-color:#FFFFFF"/>
			<stop  offset="0.9765" style="stop-color:#A8A8A8"/>
		</linearGradient>
		<path style="fill-rule:evenodd;clip-rule:evenodd;fill:url(#SVGID_6_);" d="M2.35-2.65H2.1c-1.1,0.1-1.767,0.367-2,0.8
			C-0.2-1.217,0.1-0.6,1,0l1.2-0.4L3.45,0c0.867-0.7,1.167-1.317,0.9-1.85C4.117-2.283,3.45-2.55,2.35-2.65z"/>
	</g>
</symbol>
<symbol  id="flash0.ai_x5F_2_x2F_Layer_15_copy_2_x2F__x3C_Path_x3E__x5F_25" viewBox="0 -8.6 20.4 8.6">
	<g id="Layer_1_4_">
		<path style="fill-rule:evenodd;clip-rule:evenodd;fill:#162C33;" d="M17.4-7.2c-2-0.933-4.4-1.4-7.2-1.4C7.4-8.6,5-8.133,3-7.2
			C1-6.267,0-5.15,0-3.85C0-2.283,1.433-1,4.3,0C3.267-0.633,2.583-1.15,2.25-1.55c-0.467-0.6-0.5-1.3-0.1-2.1
			c0.7-1.4,2.367-2.4,5-3c2.6-0.6,5.2-0.6,7.8,0c1.933,0.433,3.1,1.316,3.5,2.65c0.4,1.2,0.083,2.333-0.95,3.4
			c1.933-0.9,2.9-1.983,2.9-3.25C20.4-5.15,19.4-6.267,17.4-7.2z"/>
	</g>
</symbol>
<symbol  id="flash0.ai_x5F_2_x2F_Layer_15_copy_2_x2F__x3C_Path_x3E__x5F_26" viewBox="0 -9.45 20.4 9.45">
	<g id="Layer_1_3_">
		
			<radialGradient id="SVGID_7_" cx="0.8091" cy="-16325.2754" r="8.6125" gradientTransform="matrix(5.805515e-005 -1 -1.3193 5.805515e-005 -21527.7402 -0.6934)" gradientUnits="userSpaceOnUse">
			<stop  offset="0" style="stop-color:#FFFFFF"/>
			<stop  offset="0.9882" style="stop-color:#83CFE6"/>
		</radialGradient>
		<path style="fill-rule:evenodd;clip-rule:evenodd;fill:url(#SVGID_7_);" d="M20.4-4.7c0-1.3-1-2.417-3-3.35
			c-2-0.934-4.4-1.4-7.2-1.4C7.4-9.45,5-8.983,3-8.05C1-7.117,0-6,0-4.7c0,1.3,1,2.4,3,3.3C4.967-0.467,7.367,0,10.2,0
			c2.8,0,5.2-0.467,7.2-1.4C19.4-2.3,20.4-3.4,20.4-4.7z"/>
	</g>
</symbol>
<symbol  id="flash0.ai_x5F_2_x2F_Layer_15_copy_2_x2F__x3C_Path_x3E__x5F_27" viewBox="0 -5.35 20.35 5.35">
	<g id="Layer_1_2_">
		<path style="fill-rule:evenodd;clip-rule:evenodd;fill:#162C33;" d="M20.35-0.25v-0.4c0-1.3-1-2.417-3-3.35
			c-1.967-0.9-4.367-1.35-7.2-1.35C7.35-5.35,4.967-4.9,3-4C1-3.067,0-1.95,0-0.65L0.05,0C0.183-1.267,1.233-2.333,3.2-3.2
			c1.933-0.867,4.267-1.3,7-1.3c2.633,0,4.933,0.417,6.9,1.25C19-2.45,20.083-1.45,20.35-0.25z"/>
	</g>
</symbol>
<g>
	
		<use xlink:href="#flash0.ai_x5F_2_x2F_Layer_15_copy_2_x2F__x3C_Path_x3E__x5F_27"  width="20.35" height="5.35" y="-5.35" transform="matrix(0.65 0 0 -0.65 18.4502 41.4502)" style="overflow:visible;opacity:0.4219;enable-background:new    ;"/>
	
		<use xlink:href="#flash0.ai_x5F_2_x2F_Layer_15_copy_2_x2F__x3C_Path_x3E__x5F_26"  width="20.4" height="9.45" y="-9.45" transform="matrix(0.65 0 0 -0.65 18.4502 38.2002)" style="overflow:visible;opacity:0.1992;enable-background:new    ;"/>
	
		<use xlink:href="#flash0.ai_x5F_2_x2F_Layer_15_copy_2_x2F__x3C_Path_x3E__x5F_25"  width="20.4" height="8.6" y="-8.6" transform="matrix(0.65 0 0 -0.65 18.4502 38.75)" style="overflow:visible;opacity:0.2109;enable-background:new    ;"/>
	
		<use xlink:href="#flash0.ai_x5F_2_x2F_Layer_15_copy_2_x2F__x3C_Path_x3E__x5F_24"  width="4.457" height="2.65" x="-0.013" y="-2.65" transform="matrix(0.65 0 0 -0.65 23.6499 38.2998)" style="overflow:visible;opacity:0.7109;enable-background:new    ;"/>
	
		<use xlink:href="#flash0.ai_x5F_2_x2F_Layer_15_copy_2_x2F__x3C_Path_x3E__x5F_23"  width="3.95" height="20.65" y="-20.65" transform="matrix(0.65 0 0 -0.65 23.7998 25.5)" style="overflow:visible;opacity:0.1914;enable-background:new    ;"/>
	<path style="fill-rule:evenodd;clip-rule:evenodd;fill:#B4CFE0;" d="M25.95,27.683c-0.021,1.582-0.021,5.211,0,10.887
		c-0.087,0.282-0.325,0.444-0.715,0.488h-0.13l-0.033-0.163l-0.032,0.163h-0.098c-0.238-0.021-0.422-0.098-0.552-0.228
		c-0.087-0.108-0.141-0.173-0.163-0.195c0.021-5.72,0.021-9.37,0-10.952c-0.021-1.083-0.184-1.777-0.487-2.08l0.097-0.26
		l1.235,0.455l1.235-0.455l0.13,0.26C26.112,25.884,25.95,26.577,25.95,27.683z M24.487,27.65c0.022,1.538,0.022,5.167,0,10.887
		c0.13,0.131,0.293,0.206,0.488,0.228h0.195c0.217-0.021,0.39-0.097,0.521-0.228c-0.022-5.72-0.022-9.349,0-10.887
		c0-0.802,0.097-1.42,0.292-1.853l-0.91,0.325l-0.91-0.325C24.357,26.209,24.466,26.827,24.487,27.65z"/>
	<path style="fill-rule:evenodd;clip-rule:evenodd;fill:#B4CFE0;" d="M26.048,25.83l-0.163,0.747
		c-0.043,0.217-0.054,0.802-0.032,1.755c-0.065-0.064-0.108-0.357-0.13-0.877c-0.021-0.391-0.13-0.672-0.325-0.845
		c-0.195-0.174-0.412-0.195-0.65-0.065c-0.195,0.087-0.314,0.325-0.357,0.716c-0.014,0.106-0.024,0.216-0.033,0.324
		c-0.003-0.248-0.046-0.573-0.13-0.975l-0.163-0.716l1.007,0.065C25.506,26.004,25.831,25.96,26.048,25.83z"/>
	
		<use xlink:href="#flash0.ai_x5F_2_x2F_Layer_15_copy_2_x2F__x3C_Path_x3E__x5F_21"  width="2.531" height="3.496" x="-0.04" y="-3.524" transform="matrix(0.65 0 0 -0.65 18.6001 40.4502)" style="overflow:visible;opacity:0.6211;enable-background:new    ;"/>
	
		<use xlink:href="#flash0.ai_x5F_2_x2F_Layer_15_copy_2_x2F__x3C_Path_x3E__x5F_20"  width="0.936" height="0.729" x="-0.03" y="-0.704" transform="matrix(0.65 0 0 -0.65 20.5 42.9004)" style="overflow:visible;opacity:0.6211;enable-background:new    ;"/>
	
		<use xlink:href="#flash0.ai_x5F_2_x2F_Layer_15_copy_2_x2F__x3C_Path_x3E__x5F_19"  width="3.109" height="3.535" x="0.05" y="-3.4" transform="matrix(0.65 0 0 -0.65 29.5 40.7998)" style="overflow:visible;opacity:0.6211;enable-background:new    ;"/>
	
		<use xlink:href="#flash0.ai_x5F_2_x2F_Layer_15_copy_2_x2F__x3C_Path_x3E__x5F_18"  width="43.8" height="9.25" y="-9.25" transform="matrix(0.65 0 0 -0.65 10.8999 11.9502)" style="overflow:visible;opacity:0.2617;enable-background:new    ;"/>
	
		<linearGradient id="SVGID_8_" gradientUnits="userSpaceOnUse" x1="-27.9478" y1="22.626" x2="-12.8978" y2="22.626" gradientTransform="matrix(4.318896e-005 -0.65 0.65 -6.499939e-004 10.3501 9.4503)">
		<stop  offset="0" style="stop-color:#FF5B4F"/>
		<stop  offset="1" style="stop-color:#B32809"/>
	</linearGradient>
	<path style="fill-rule:evenodd;clip-rule:evenodd;fill:url(#SVGID_8_);" d="M28.843,23.133c-0.282,0.217-0.586,0.444-0.91,0.683
		c-0.65,0.52-1.051,0.877-1.202,1.072c-0.109,0.173-0.261,0.412-0.455,0.715c-0.217,0.26-0.531,0.401-0.943,0.423
		c-0.433,0.021-0.779-0.065-1.04-0.261c-0.086-0.064-0.314-0.292-0.683-0.683c-0.238-0.281-0.693-0.692-1.365-1.234
		c-0.65-0.542-1.191-0.954-1.625-1.235l-6.37-4.485h21.612L28.843,23.133z"/>
	
		<linearGradient id="SVGID_9_" gradientUnits="userSpaceOnUse" x1="4.6499" y1="11.9995" x2="38.6499" y2="11.9995" gradientTransform="matrix(0.65 0 0 0.65 10.3498 9.4505)">
		<stop  offset="0" style="stop-color:#FF5B4F"/>
		<stop  offset="1" style="stop-color:#B32809"/>
	</linearGradient>
	<path style="fill-rule:evenodd;clip-rule:evenodd;fill:url(#SVGID_9_);" d="M36.643,17.25c0,0.693-1.116,1.29-3.348,1.788
		c-2.254,0.477-4.973,0.715-8.157,0.715c-3.185,0-5.904-0.238-8.158-0.715c-2.253-0.498-3.38-1.094-3.38-1.788
		s1.126-1.278,3.38-1.755c2.253-0.499,4.973-0.748,8.158-0.748c3.185,0,5.903,0.249,8.157,0.748
		C35.526,15.972,36.643,16.557,36.643,17.25z"/>
	
		<use xlink:href="#flash0.ai_x5F_2_x2F_Layer_15_copy_2_x2F__x3C_Path_x3E__x5F_15"  width="43.125" height="16.031" x="0.975" y="-16.406" transform="matrix(0.65 0 0 -0.65 10.5498 15.3501)" style="overflow:visible;opacity:0.3516;enable-background:new    ;"/>
	
		<use xlink:href="#flash0.ai_x5F_2_x2F_Layer_15_copy_2_x2F__x3C_Path_x3E__x5F_14"  width="15.95" height="10.205" y="-10.202" transform="matrix(0.65 0 0 -0.65 15.7002 17.5)" style="overflow:visible;opacity:0.3594;enable-background:new    ;"/>
	
		<use xlink:href="#flash0.ai_x5F_2_x2F_Layer_15_copy_2_x2F__x3C_Path_x3E__x5F_13"  width="11.949" height="8.432" x="0.001" y="-8.432" transform="matrix(0.65 0 0 -0.65 26.5 17.6001)" style="overflow:visible;opacity:0.3516;enable-background:new    ;"/>
	<path style="fill-rule:evenodd;clip-rule:evenodd;fill:#B4CFE0;" d="M39.632,15.528c-4.593,3.423-7.67,5.644-9.229,6.662
		c-2.058,1.387-3.369,2.47-3.933,3.25c-0.347,0.499-0.769,0.748-1.268,0.748H24.91c-0.498,0-0.92-0.249-1.267-0.748
		c-0.563-0.779-1.874-1.862-3.933-3.25c-1.56-1.018-4.637-3.239-9.23-6.662l-0.065-0.065v-0.26h0.163l0.585,0.325
		c1.863,1.083,3.142,1.711,3.835,1.885c1.69,0.412,3.347,0.683,4.972,0.813c0.91,0.086,2.135,0.141,3.673,0.163h1.495
		c1.387-0.043,3.044-0.163,4.973-0.357c2.491-0.26,4.388-0.553,5.688-0.877c0.952-0.238,2.102-0.834,3.444-1.788
		c0.152-0.108,0.26-0.163,0.325-0.163h0.13v0.26L39.632,15.528z M30.239,21.897c1.235-0.78,3.446-2.361,6.631-4.745l-1.008,0.357
		c-2.275,0.585-5.85,0.997-10.725,1.235l-1.495-0.033c-3.142,0-6.045-0.314-8.71-0.942c-0.455-0.108-1.159-0.422-2.113-0.942
		c3.207,2.405,5.558,4.095,7.053,5.07c2.037,1.344,3.38,2.459,4.03,3.348c0.347,0.498,0.726,0.693,1.138,0.585h0.162
		c0.412,0,0.759-0.194,1.04-0.585C26.806,24.422,28.138,23.306,30.239,21.897z"/>
	<path style="fill-rule:evenodd;clip-rule:evenodd;fill:#B4CFE0;" d="M34.79,12.96c-2.687-0.563-5.915-0.845-9.685-0.845
		c-3.792,0-7.021,0.282-9.686,0.845c-2.687,0.542-4.03,1.213-4.03,2.015c0,0.78,1.343,1.452,4.03,2.015
		c2.665,0.542,5.894,0.813,9.686,0.813c3.77,0,6.998-0.271,9.685-0.813c2.665-0.563,3.997-1.235,3.997-2.015
		C38.787,14.173,37.455,13.502,34.79,12.96z M25.072,11.855c4.052,0,7.519,0.325,10.4,0.975c2.859,0.65,4.29,1.43,4.29,2.34
		c0,0.91-1.431,1.69-4.29,2.34c-2.882,0.65-6.349,0.975-10.4,0.975s-7.518-0.325-10.4-0.975c-2.881-0.65-4.322-1.43-4.322-2.34
		c0-0.91,1.441-1.689,4.322-2.34C17.554,12.18,21.021,11.855,25.072,11.855z"/>
	
		<radialGradient id="SVGID_10_" cx="13.7827" cy="-38.8188" r="13.6061" gradientTransform="matrix(0.1063 0.6412 0.6379 -0.1057 60.0032 1.2208)" gradientUnits="userSpaceOnUse">
		<stop  offset="0" style="stop-color:#A2F225"/>
		<stop  offset="1" style="stop-color:#000000"/>
	</radialGradient>
	<path style="fill-rule:evenodd;clip-rule:evenodd;fill:url(#SVGID_10_);" d="M39.47,18.095c-0.975,0.975-1.95,1.408-2.925,1.3
		c-0.542-0.043-1.116-0.282-1.723-0.715l-0.747-0.618l0.649-0.585c0.477-0.455,0.845-0.834,1.105-1.137
		c0.099-0.121,0.186-0.234,0.26-0.341c-0.03,0.038-0.063,0.076-0.098,0.114c-0.563,0.585-1.397,0.899-2.503,0.942
		c-0.173-0.434-0.292-0.997-0.357-1.69c-0.13-1.365,0.087-2.676,0.65-3.933c0.737-1.582,1.939-2.231,3.607-1.95
		c1.755,0.304,2.86,1.561,3.315,3.771C41.116,15.268,40.705,16.882,39.47,18.095z"/>
	
		<radialGradient id="SVGID_11_" cx="13.9727" cy="-37.5205" r="13.6061" gradientTransform="matrix(0.1063 0.6412 0.6379 -0.1057 58.3425 1.496)" gradientUnits="userSpaceOnUse">
		<stop  offset="0" style="stop-color:#BCFF4F"/>
		<stop  offset="1" style="stop-color:#2E4712"/>
	</radialGradient>
	<path style="fill-rule:evenodd;clip-rule:evenodd;fill:url(#SVGID_11_);" d="M38.625,18.388c-0.976,0.975-1.939,1.408-2.893,1.3
		c-0.542-0.043-1.116-0.281-1.723-0.715l-0.779-0.65l0.649-0.585c0.498-0.434,0.866-0.802,1.105-1.105
		c0.176-0.216,0.317-0.411,0.422-0.585c-0.07,0.106-0.157,0.214-0.26,0.325c-0.563,0.607-1.397,0.932-2.503,0.975
		c-0.173-0.433-0.292-0.997-0.357-1.69c-0.13-1.387,0.087-2.698,0.65-3.933c0.737-1.582,1.939-2.231,3.607-1.95
		c1.755,0.303,2.86,1.549,3.315,3.737C40.293,15.549,39.882,17.174,38.625,18.388z"/>
	
		<radialGradient id="SVGID_12_" cx="14.1509" cy="-37.3901" r="12.4676" gradientTransform="matrix(0.1062 0.6413 0.6413 -0.1062 58.3032 1.5071)" gradientUnits="userSpaceOnUse">
		<stop  offset="0" style="stop-color:#BCFF4F"/>
		<stop  offset="1" style="stop-color:#6BAB2B"/>
	</radialGradient>
	<path style="fill-rule:evenodd;clip-rule:evenodd;fill:url(#SVGID_12_);" d="M38.364,18.193c-0.909,0.866-1.809,1.256-2.696,1.17
		c-0.499-0.043-1.03-0.26-1.593-0.65l-0.683-0.585l1.593-1.56c0.107-0.127,0.199-0.246,0.276-0.358
		c-0.034,0.044-0.071,0.088-0.114,0.13c-0.521,0.542-1.289,0.834-2.308,0.877c-0.152-0.39-0.26-0.899-0.325-1.527
		c-0.13-1.257,0.065-2.459,0.585-3.608c0.672-1.451,1.788-2.047,3.348-1.788c1.604,0.282,2.611,1.43,3.022,3.445
		C39.86,15.582,39.491,17.066,38.364,18.193z"/>
	<path style="fill-rule:evenodd;clip-rule:evenodd;fill:#89B827;" d="M32.84,17.218c-0.13-0.238-0.195-0.877-0.195-1.917
		c0-0.39,0.325-0.553,0.976-0.488c0.368,0.065,0.996,0.065,1.885,0c0.477,0.065,0.304,0.52-0.52,1.365
		c-0.348,0.368-0.759,0.682-1.235,0.942C33.23,17.38,32.927,17.413,32.84,17.218z"/>
	<path style="fill-rule:evenodd;clip-rule:evenodd;fill:#89B827;" d="M35.603,14.52c-0.281,0.043-0.715,0.054-1.301,0.033
		c-0.563-0.021-0.931-0.065-1.104-0.13c-0.151-0.065-0.206-0.314-0.162-0.747c0.021-0.412,0.107-0.823,0.26-1.235
		c0.304-0.694,0.759-0.639,1.365,0.162c0.217,0.282,0.541,0.693,0.975,1.235C35.916,14.25,35.905,14.477,35.603,14.52z"/>
	<path style="fill-rule:evenodd;clip-rule:evenodd;fill:#89B827;" d="M36.024,13.903c-0.216-0.238-0.52-0.639-0.91-1.203
		c-0.433-0.606-0.649-0.975-0.649-1.105c0-0.606,0.466-0.91,1.397-0.91c0.585,0,0.899,0.249,0.942,0.748
		c0.021,0.217-0.043,0.715-0.194,1.495c-0.087,0.52-0.163,0.845-0.229,0.975C36.296,14.054,36.177,14.054,36.024,13.903z"/>
	<path style="fill-rule:evenodd;clip-rule:evenodd;fill:#89B827;" d="M36.739,14.52c-0.259,0.065-0.237-0.401,0.065-1.397
		c0.304-0.997,0.553-1.56,0.747-1.69c0.152-0.108,0.401,0.011,0.748,0.357c0.347,0.368,0.596,0.758,0.748,1.17
		c0.173,0.521,0.021,0.889-0.455,1.105C38.549,14.087,37.932,14.238,36.739,14.52z"/>
	<path style="fill-rule:evenodd;clip-rule:evenodd;fill:#89B827;" d="M38.04,17.445c-0.26-0.303-0.736-1.148-1.43-2.535
		c-0.065-0.108,0.227-0.228,0.877-0.357c0.325-0.065,0.77-0.141,1.332-0.228c0.239-0.065,0.401,0.086,0.488,0.455
		c0.087,0.325,0.087,0.693,0,1.105c-0.108,0.455-0.282,0.877-0.521,1.268C38.506,17.586,38.257,17.683,38.04,17.445z"/>
	<path style="fill-rule:evenodd;clip-rule:evenodd;fill:#89B827;" d="M37.098,16.99c0.173,0.412,0.336,0.802,0.487,1.17
		c-0.022,0.195-0.357,0.434-1.008,0.715c-0.433,0.195-0.921,0.217-1.463,0.065c-0.498-0.151-0.813-0.335-0.941-0.552
		c-0.087-0.13,0.14-0.585,0.683-1.365c0.281-0.412,0.649-0.92,1.104-1.527C36.177,15.148,36.556,15.646,37.098,16.99z"/>
	<path style="fill-rule:evenodd;clip-rule:evenodd;fill:#B4CFE0;" d="M24.195,38.147c0.086,0.152,0.098,0.217,0.033,0.195
		c-0.412-0.065-1.224,0.086-2.438,0.455c-1.3,0.411-2.156,0.823-2.567,1.234c-0.477,0.52-0.726,1.051-0.748,1.593
		c0,0.069,0.005,0.134,0.016,0.194c-0.024-0.104-0.04-0.212-0.048-0.324c-0.044-0.607,0.097-1.072,0.422-1.397
		c0.628-0.606,1.701-1.116,3.217-1.528C22.862,38.375,23.567,38.234,24.195,38.147z"/>
	<path style="fill-rule:evenodd;clip-rule:evenodd;fill:#B4CFE0;" d="M25.982,38.343l-0.032-0.195l0.26-0.033
		c0.347,0.022,0.889,0.131,1.625,0.325c1.604,0.427,2.676,0.897,3.217,1.414c-0.213-0.148-0.743-0.392-1.592-0.73
		c-0.672-0.261-1.462-0.466-2.372-0.618L25.982,38.343z"/>
	<path style="fill-rule:evenodd;clip-rule:evenodd;fill:#DFF7F7;" d="M25.008,32.688c0,3.293-0.054,4.939-0.163,4.939
		c-0.108,0-0.163-1.646-0.163-4.939s0.055-4.939,0.163-4.939C24.954,27.748,25.008,29.395,25.008,32.688z"/>
	
		<use xlink:href="#flash0.ai_x5F_2_x2F_Layer_15_copy_2_x2F__x3C_Path_x3E_"  width="0.25" height="17.4" y="-17.4" transform="matrix(0.65 0 0 -0.65 25.2998 27.1504)" style="overflow:visible;opacity:0.2891;enable-background:new    ;"/>
</g>
</svg>
