<?xml version="1.0" encoding="iso-8859-1"?>
<!-- Generator: Adobe Illustrator 15.1.0, SVG Export Plug-In . SVG Version: 6.00 Build 0)  -->
<!DOCTYPE svg PUBLIC "-//W3C//DTD SVG 1.1//EN" "http://www.w3.org/Graphics/SVG/1.1/DTD/svg11.dtd">
<svg version="1.1" xmlns="http://www.w3.org/2000/svg" xmlns:xlink="http://www.w3.org/1999/xlink" x="0px" y="0px" width="37px"
	 height="37px" viewBox="0 0 37 37" style="enable-background:new 0 0 37 37;" xml:space="preserve">
<symbol  id="element2_1_" viewBox="0 -9.25 7 9.25">
	<g id="Layer_1_4_">
		<path style="fill-rule:evenodd;clip-rule:evenodd;fill:#4ABC29;" d="M7-4.65C7-5.917,6.65-7,5.95-7.9
			C5.283-8.8,4.467-9.25,3.5-9.25S1.7-8.8,1-7.9C0.333-7,0-5.917,0-4.65s0.333,2.367,1,3.3C1.7-0.45,2.533,0,3.5,0
			s1.783-0.45,2.45-1.35C6.65-2.283,7-3.383,7-4.65z"/>
	</g>
</symbol>
<symbol  id="letterd_1_" viewBox="0 -10.5 7.6 10.5">
	<g id="Layer_1_2_">
		<g>
			<path style="fill-rule:evenodd;clip-rule:evenodd;fill:#932696;" d="M7.55-2.9v-1L6.6-3.8v0.95L7.55-2.9z M5.35-1.45L4.4-1.35v1
				l0.95-0.1V-1.45z M6.45-2.65L5.5-2.55v0.95l0.95-0.1V-2.65z M6.45-2.8v-1L5.5-3.7v0.95L6.45-2.8z M5.35-2.55L4.4-2.5v1l0.95-0.1
				V-2.55z M7.55-4.05V-5l-0.9,0.05l-0.05,1L7.55-4.05z M5.5-5l0.95-0.1v-0.95L5.55-6L5.5-5z M6.65-5.1l0.9-0.1L7.6-6.15L6.65-6.1
				V-5.1z M6.45-4.95L5.5-4.85v1l0.95-0.1V-4.95z M3.15-1.25L2.2-1.15v0.95l0.95-0.05V-1.25z M4.25-1.35L3.3-1.25v0.95l0.95-0.05
				V-1.35z M2.05-1.15L1.1-1.05v0.95l0.95-0.05V-1.15z M0.95-1.2v-1L0-2.1v0.95L0.95-1.2z M0-1v1l0.95-0.1v-0.95L0-1z M0.95-2.35v-1
				L0-3.25v1L0.95-2.35z M2.05-2.45V-3.4L1.1-3.35v1L2.05-2.45z M2.05-1.3v-1L1.1-2.2v0.95L2.05-1.3z M2.05-4.55L1.1-4.5v1l0.95-0.1
				V-4.55z M0.95-4.6v-1l-0.9,0.1L0-4.55L0.95-4.6z M0.95-3.5v-0.95L0-4.4v1L0.95-3.5z M1.15-4.65l0.9-0.05l0.05-1L1.15-5.6V-4.65z
				 M1-5.75v-1l-0.95,0.1v0.95L1-5.75z M2.1-5.85v-1l-0.95,0.1v1L2.1-5.85z M1-6.9v-0.95L0.05-7.8v1L1-6.9z M1.15-8.05L2.1-8.1v-1
				L1.15-9V-8.05z M1-9.15v-1l-0.95,0.1v0.95L1-9.15z M1-8.05V-9L0.05-8.9v0.95L1-8.05z M2.1-9.25v-1l-0.95,0.1v0.95L2.1-9.25z
				 M2.1-7.95L1.15-7.9v1L2.1-7V-7.95z M3.2-10.35l-0.95,0.1v1l0.95-0.1V-10.35z M4.45-9.45l0.95-0.1v-0.95l-0.95,0.05V-9.45z
				 M4.3-9.45v-0.95l-0.95,0.05v1L4.3-9.45z M4.45-8.3L5.4-8.4v-1L4.45-9.3V-8.3z M7.6-7.3L6.65-7.2v0.95L7.6-6.3V-7.3z M7.6-8.45
				l-0.95,0.1v1l0.95-0.1V-8.45z M6.5-7.2L5.55-7.1v0.95L6.5-6.2V-7.2z M6.5-8.5v-0.95L5.55-9.4v1L6.5-8.5z M6.5-8.35l-0.95,0.1
				v0.95L6.5-7.35V-8.35z"/>
		</g>
	</g>
</symbol>
<symbol  id="number3_1_" viewBox="0 -22 11.8 22">
	<g id="Layer_1_3_">
		<g>
			<path style="fill-rule:evenodd;clip-rule:evenodd;fill:#3C423C;" d="M9.75-0.65v-2.1l-1.7,0.15v2.1L9.75-0.65z M8.05-2.9
				l1.7-0.15v-2.1L8.05-5V-2.9z M10.05-3.101l1.75-0.15V-5.3l-1.75,0.15V-3.101z M7.75-2.55L6-2.4v2.05L7.75-0.5V-2.55z M11.8-7.7
				l-1.75,0.1v2.1l1.75-0.15V-7.7z M8.05-5.351l1.7-0.15v-2.05L8.05-7.4V-5.351z M9.75-7.9v-2.05L8.05-9.8v2.05L9.75-7.9z
				 M9.75-10.3v-2.05l-1.7,0.15v2.05L9.75-10.3z M11.8-8.05v-2.1L10.05-10v2.1L11.8-8.05z M9.75-12.7v-2.1l-1.7,0.15v2.1L9.75-12.7z
				 M9.75-17.2l-1.7,0.15v2.1l1.7-0.15V-17.2z M10.05-15.15l1.75-0.15v-2.05l-1.75,0.15V-15.15z M9.75-17.5v-2.1l-1.7,0.15v2.05
				L9.75-17.5z M11.8-12.851v-2.1l-1.75,0.15v2.05L11.8-12.851z M7.75-12.2L6-12.05V-10l1.75-0.15V-12.2z M0-2.25L1.7-2.4v-2.05
				L0-4.351V-2.25z M2,0l1.75-0.15v-2.1L2-2.101V0z M4-2.25v2.05l1.75-0.1v-2.1L4-2.25z M1.7-16.851v-2.1L0-18.8v2.1L1.7-16.851z
				 M5.75-9.95v-2.1L4-11.9v2.1L5.75-9.95z M3.75-21.5L2-21.351v2.05l1.75-0.15V-21.5z M4-19.45l1.75-0.15v-2.05L4-21.55V-19.45z
				 M6-19.601l1.75-0.15v-2.1L6-21.7V-19.601z M8.05-19.8l1.7-0.15V-22l-1.7,0.15V-19.8z M11.8-19.75l-1.75,0.15v2.05l1.75-0.15
				V-19.75z"/>
		</g>
	</g>
</symbol>
<g id="Base">
	<g>
		<g>
			
				<linearGradient id="SVGID_1_" gradientUnits="userSpaceOnUse" x1="493.3779" y1="-671.6929" x2="538.278" y2="-671.6929" gradientTransform="matrix(1.670379e-005 0.75 -0.75 -7.499999e-004 -484.7995 -368.8002)">
				<stop  offset="0" style="stop-color:#884A16"/>
				<stop  offset="0.7961" style="stop-color:#723E11"/>
				<stop  offset="1" style="stop-color:#65380E"/>
			</linearGradient>
			<path style="fill-rule:evenodd;clip-rule:evenodd;fill:url(#SVGID_1_);" d="M29.737,1.138c2.8,0.4,4.763,1.438,5.888,3.113
				c0.926,1.35,1.388,3.337,1.388,5.962l-0.075,17.625c-0.05,3.324-1.2,5.737-3.45,7.237c-1.999,1.35-4.949,1.987-8.85,1.912
				l-15.113-5.85c-1.675-0.476-2.8-1.226-3.375-2.25c-0.6-1.075-0.899-2.963-0.899-5.662L1.013,5.862
				c-0.35-2.149,0.649-3.687,3-4.612c1.725-0.675,4.35-1.05,7.875-1.125L29.737,1.138z"/>
			
				<linearGradient id="SVGID_2_" gradientUnits="userSpaceOnUse" x1="651.3496" y1="494.2637" x2="691.0186" y2="494.2637" gradientTransform="matrix(0.75 0 0 0.75 -484.7998 -368.7998)">
				<stop  offset="0" style="stop-color:#D26F24"/>
				<stop  offset="1" style="stop-color:#A65B1C"/>
			</linearGradient>
			<path style="fill-rule:evenodd;clip-rule:evenodd;fill:url(#SVGID_2_);" d="M3.712,1.4c1-0.5,2.3-0.85,3.9-1.049
				c1.051-0.125,2.475-0.2,4.275-0.225l17.85,1.012c1.125,0.15,2.063,0.388,2.813,0.713c0.525,0.225,0.825,0.475,0.9,0.75
				c0.075,0.274-0.15,0.487-0.675,0.637C31.5,3.588,30.388,3.726,29.438,3.65c-0.825-0.05-1.775-0.287-2.85-0.712
				c-1.225-0.475-5.338-0.85-12.337-1.125c-0.275,0-2.288-0.1-6.038-0.3C6.213,1.388,4.713,1.35,3.712,1.4z"/>
			<path style="fill-rule:evenodd;clip-rule:evenodd;fill:#C26D22;" d="M23.625,2.337c2.75,0.275,4.825,1.325,6.226,3.15
				c1.274,1.625,1.912,3.7,1.912,6.225l-0.075,17.625c-0.05,3.275-0.775,5.463-2.175,6.563c-1.2,0.925-3.2,1.25-6,0.975
				L4.275,32.638c-1.675-0.476-2.8-1.226-3.375-2.25C0.3,29.313,0,27.425,0,24.726L0.038,8.9c0.05-5.5,2.05-8.012,6-7.538
				L23.625,2.337z"/>
			<g>
				<path style="fill-rule:evenodd;clip-rule:evenodd;fill:#AB5E1A;" d="M22.275,2.263l0.6,0.037L22.8,6.688
					c-0.149,3.875-0.225,6.812-0.225,8.813c0,0.1-0.013,1.712-0.037,4.837c-0.025,1.875-0.013,3.263,0.037,4.162
					c0.05,0.801,0.175,1.775,0.375,2.925c0.25,1.426,0.425,2.638,0.525,3.638c0.175,1.65,0.325,3.601,0.449,5.851l-0.637-0.075
					c-0.325-3.3-0.488-5.476-0.488-6.525c0-1.3-0.225-2.463-0.675-3.487c-0.475-1.024-0.712-1.862-0.712-2.513
					c0-0.175,0.037-0.712,0.112-1.612s0.112-3.175,0.112-6.825c0-2.875,0.087-5.326,0.263-7.351
					C22.1,6.125,22.225,4.037,22.275,2.263z"/>
				<path style="fill-rule:evenodd;clip-rule:evenodd;fill:#AB5E1A;" d="M14.175,1.813l0.638,0.038l0.075,1.65
					c0.15,2.25,0.45,4.313,0.9,6.188c0.124-1.875,0.225-4.462,0.299-7.763l0.75,0.038V2c-0.175,5.35-0.363,8.725-0.563,10.125
					l-0.262,1.5c-0.25-0.65-0.513-1.638-0.787-2.962C14.675,8.038,14.325,5.088,14.175,1.813z"/>
				<path style="fill-rule:evenodd;clip-rule:evenodd;fill:#AB5E1A;" d="M10.763,2.375v-0.75l1.05,0.038l0.674,32.774l-1.049-0.225
					l-0.226-10.838c-0.175-5.175-0.287-8.912-0.337-11.212C10.75,8.263,10.713,5,10.763,2.375z"/>
				<path style="fill-rule:evenodd;clip-rule:evenodd;fill:#AB5E1A;" d="M1.237,3.388C1.413,3.113,1.625,2.85,1.875,2.601
					C1.6,7.875,1.462,11.988,1.462,14.938c0,7.875-0.062,13.2-0.188,15.975l-0.413-0.601L0.9,26.938
					c-0.1-6.075-0.025-12.7,0.226-19.875L1.237,3.388z"/>
				<path style="fill-rule:evenodd;clip-rule:evenodd;fill:#AB5E1A;" d="M6.188,1.362L6.825,1.4L6.862,4.25
					c0,5.8,0.175,15.5,0.525,29.1l-0.75-0.188l-0.113-4.538C6.3,16.75,6.188,8.5,6.188,3.875V1.362z"/>
				<path style="fill-rule:evenodd;clip-rule:evenodd;fill:#AB5E1A;" d="M26.7,10.063c-0.399-2.55-0.612-4.951-0.638-7.201
					L26.7,3.087c0.075,2.701,0.45,6.463,1.125,11.288C28.2,16.9,28.525,20,28.8,23.675c0.325,4.351,0.501,8.45,0.525,12.301
					c-0.274,0.225-0.663,0.425-1.162,0.6L28.05,28.25c-0.05-4.225-0.2-7.588-0.449-10.087C27.226,15.388,26.925,12.688,26.7,10.063z
					"/>
				<path style="fill-rule:evenodd;clip-rule:evenodd;fill:#AB5E1A;" d="M2.325,2.188l0.3-0.226C2.7,4.037,2.737,6.05,2.737,8
					c0,11.875-0.074,19.437-0.225,22.687l-0.075,1.237l-0.451-0.3l0.076-3.563c0-12.375,0.075-20.437,0.225-24.187L2.325,2.188z"/>
				<path style="fill-rule:evenodd;clip-rule:evenodd;fill:#AB5E1A;" d="M4.575,1.325h0.637c0.1,1.15,0.15,1.938,0.15,2.363
					c0.05,0.975,0.05,4.424,0,10.35c-0.024,6.074-0.024,9.812,0,11.212c0.025,0.35,0.063,2.912,0.113,7.688l-0.451-0.112
					c0.05-3.726,0.05-7.063,0-10.013C4.875,12.388,4.763,6.2,4.688,4.25L4.575,1.325z"/>
				<path style="fill-rule:evenodd;clip-rule:evenodd;fill:#AB5E1A;" d="M31.763,11.712l-0.037,12.863
					C31.275,21.7,31,19.851,30.9,19.025c-0.2-1.7-0.263-3.188-0.188-4.462c0.025-0.3,0.088-1.125,0.188-2.476
					c0.025-0.375,0.037-1.962,0.037-4.762C31.488,8.601,31.763,10.063,31.763,11.712z"/>
				<path style="fill-rule:evenodd;clip-rule:evenodd;fill:#AB5E1A;" d="M7.65,1.438l0.675,0.038
					C8.4,4.975,8.563,10.338,8.813,17.563c0.075,3,0.349,8.425,0.825,16.275l-0.675-0.15L8.7,27.5
					C8.051,13.851,7.7,5.162,7.65,1.438z"/>
				<polygon style="fill-rule:evenodd;clip-rule:evenodd;fill:#AB5E1A;" points="3.3,1.625 3.938,1.438 4.125,32.601 3.413,32.375 
									"/>
				<path style="fill-rule:evenodd;clip-rule:evenodd;fill:#AB5E1A;" d="M29.7,14.9c-0.325-2.774-0.487-5.887-0.487-9.337V4.775
					c0.375,0.375,0.712,0.788,1.013,1.238v5.55c0,1.649,0.1,4.512,0.3,8.587c0.199,4.1,0.3,6.55,0.3,7.35
					c0,1.25,0.15,3.051,0.45,5.4c-0.2,0.725-0.438,1.313-0.713,1.763c-0.25-1.5-0.4-2.575-0.45-3.226
					c-0.024-0.899-0.024-3.213,0-6.938C30.162,20.7,30.025,17.5,29.7,14.9z"/>
				<path style="fill-rule:evenodd;clip-rule:evenodd;fill:#AB5E1A;" d="M12.712,1.737h0.525c-0.1,5.05-0.05,8.388,0.15,10.013
					c0.05,0.349,0.3,1.95,0.75,4.799c0.3,1.825,0.476,3.476,0.525,4.95c0.05,1.25,0.138,2.925,0.262,5.025
					c0.125,1.85,0.188,3.112,0.188,3.787c0,1.1-0.037,2.663-0.112,4.688l-0.976-0.188L13.95,31.25c0-1.1,0.15-2.05,0.45-2.85
					c0.15-0.4,0-2.138-0.45-5.213c-0.525-3.85-0.875-7.037-1.05-9.562c-0.125-2.125-0.188-5.125-0.188-9V1.737z"/>
				<path style="fill-rule:evenodd;clip-rule:evenodd;fill:#AB5E1A;" d="M24.525,2.45l0.563,0.113v4.5c0,1.675,0.25,4.125,0.75,7.35
					c0.5,3.2,0.75,5.874,0.75,8.024c0,3.725-0.063,8.55-0.188,14.476c-0.15,0.024-0.388,0.037-0.713,0.037
					c0.075-5.75,0.1-9.399,0.075-10.95c-0.05-2.8-0.087-4.287-0.112-4.462c-0.15-0.7-0.3-2.088-0.45-4.163
					c-0.3-3.725-0.476-6.263-0.525-7.613C24.575,7.863,24.525,5.425,24.525,2.45z"/>
				<path style="fill-rule:evenodd;clip-rule:evenodd;fill:#AB5E1A;" d="M17.775,2l0.6,0.038
					c-0.425,7.149-0.937,13.075-1.538,17.774c-0.275,2.25-0.387,3.988-0.337,5.213c0.025,0.75,0.1,2.012,0.225,3.787
					c0.024,0.95,0.462,3.238,1.313,6.862l-0.975-0.225c-0.575-2.575-0.976-4.575-1.201-6c-0.299-1.95-0.437-3.726-0.412-5.325
					c0.025-1.8,0.3-4.05,0.825-6.75c0.55-3.026,0.925-6.213,1.125-9.563L17.775,2z"/>
				<path style="fill-rule:evenodd;clip-rule:evenodd;fill:#AB5E1A;" d="M19.763,2.112l1.05,0.076
					c-0.05,2.549-0.075,5.737-0.075,9.563c0,0.75,0,1.925,0,3.524c0,1.351-0.074,2.3-0.225,2.851c-0.2,0.75-0.425,1.787-0.675,3.112
					c-0.25,1.476-0.375,2.563-0.375,3.263c0,0.5-0.025,1.263-0.075,2.288c0,0.824,0.138,1.313,0.412,1.462
					c0.825,0.45,1.376,0.888,1.65,1.313c0.75,1.225,1.125,3.35,1.125,6.375v0.713l-0.713-0.15c-0.024-0.899-0.138-1.9-0.337-3
					c-0.275-1.8-0.575-2.875-0.9-3.225c-0.375-0.1-0.688-0.275-0.938-0.525c-0.45-0.05-0.762-0.137-0.938-0.263
					c-0.275-0.225-0.412-1.263-0.412-3.112c0-1.05-0.088-2.188-0.263-3.412c-0.101-0.625-0.013-1.863,0.263-3.713
					c0.45-1.875,0.762-3.187,0.938-3.937c0.275-1.25,0.412-4.063,0.412-8.438L19.763,2.112z"/>
			</g>
			
				<linearGradient id="SVGID_3_" gradientUnits="userSpaceOnUse" x1="760.8623" y1="-312.2725" x2="812.5062" y2="-312.2725" gradientTransform="matrix(0.3812 0.6459 -0.6459 0.3812 -484.7995 -368.7998)">
				<stop  offset="0" style="stop-color:#130C0E;stop-opacity:0"/>
				<stop  offset="1" style="stop-color:#130C0E;stop-opacity:0.349"/>
			</linearGradient>
			<path style="fill-rule:evenodd;clip-rule:evenodd;fill:url(#SVGID_3_);" d="M23.625,2.337c2.75,0.275,4.825,1.325,6.226,3.15
				c1.274,1.625,1.912,3.7,1.912,6.225l-0.075,17.625c-0.05,3.275-0.775,5.463-2.175,6.563c-1.2,0.925-3.2,1.25-6,0.975
				L4.275,32.638c-1.675-0.476-2.8-1.226-3.375-2.25C0.3,29.313,0,27.425,0,24.726L0.038,8.9c0.05-5.5,2.05-8.012,6-7.538
				L23.625,2.337z"/>
			<path style="fill-rule:evenodd;clip-rule:evenodd;fill:#BD6D23;" d="M31.763,11.712l-0.075,17.625
				c-0.05,3.275-0.775,5.463-2.175,6.563c-1.2,0.925-3.2,1.25-6,0.975l-12.375-2.7c2.351,0.375,5.925,1.001,10.725,1.875
				c5.025,0.925,7.976-0.637,8.851-4.688c0.4-1.8,0.612-4.949,0.638-9.449C31.351,16.988,31.488,13.587,31.763,11.712z"/>
			<path style="fill-rule:evenodd;clip-rule:evenodd;fill:#E88A32;" d="M12.282,1.7c-0.391-0.013-0.759-0.025-1.107-0.037
				c-3.8-0.101-6.399,0.262-7.799,1.087C1.775,3.7,0.788,5.45,0.413,8c-0.184,1.33-0.309,3.274-0.375,5.831V8.9
				c0.05-5.5,2.05-8.012,6-7.538L12.282,1.7z"/>
			<path style="fill-rule:evenodd;clip-rule:evenodd;fill:#E88A32;" d="M2.851,2.226C2.725,2.3,2.525,2.537,2.25,2.938L1.313,3.237
				l0.825-0.975c0.75-0.7,1.7-1.25,2.85-1.65c1.201-0.425,2.9-0.625,5.1-0.6c1.125,0,2.113,0.05,2.962,0.15
				c-0.874,0-1.875,0.037-3,0.112C7.825,0.475,6.075,0.85,4.8,1.4C3.525,1.95,2.875,2.226,2.851,2.226z"/>
		</g>
		<g>
			<path style="fill-rule:evenodd;clip-rule:evenodd;fill:#C77326;" d="M29.625,11.75l-0.037,12.337
				c-0.051,2.15-0.688,3.588-1.913,4.313c-1.024,0.625-2.774,0.85-5.25,0.675L5.625,26.601c-1.45-0.325-2.425-0.825-2.925-1.5
				c-0.55-0.726-0.825-1.976-0.825-3.75L1.913,9.875c0.05-3.601,1.799-5.25,5.25-4.951l15.375,0.6c2.374,0.2,4.187,0.9,5.438,2.101
				C29.075,8.725,29.625,10.101,29.625,11.75z"/>
			
				<linearGradient id="SVGID_4_" gradientUnits="userSpaceOnUse" x1="-525.2168" y1="667.0449" x2="-498.4168" y2="667.0449" gradientTransform="matrix(2.798508e-005 -0.75 0.75 -7.499999e-004 -484.8 -368.7997)">
				<stop  offset="0" style="stop-color:#834715"/>
				<stop  offset="1" style="stop-color:#512C0B"/>
			</linearGradient>
			<path style="fill-rule:evenodd;clip-rule:evenodd;fill:url(#SVGID_4_);" d="M29.25,11.487l-0.037,12.188
				c-0.051,2.126-0.688,3.55-1.913,4.275c-1.024,0.6-2.749,0.813-5.175,0.638L5.4,26.112c-1.45-0.325-2.425-0.812-2.924-1.462
				c-0.525-0.725-0.788-1.963-0.788-3.713L1.726,9.65c0.05-3.575,1.787-5.212,5.212-4.913l15.262,0.6
				c2.375,0.2,4.175,0.888,5.4,2.063C28.7,8.475,29.25,9.837,29.25,11.487z"/>
			<path style="fill-rule:evenodd;clip-rule:evenodd;fill:#A45D1C;" d="M27.601,7.7c1.1,1.05,1.649,2.4,1.649,4.05l-0.037,12.187
				c-0.025,1.475-0.338,2.6-0.938,3.375c-1.05,0.375-2.55,0.487-4.5,0.338L7.05,25.213C5.6,24.888,4.625,24.4,4.125,23.75
				c-0.525-0.725-0.788-1.963-0.788-3.712L3.375,8.712c0-1.45,0.312-2.599,0.938-3.45C4.987,5.013,5.863,4.925,6.938,5L22.2,5.638
				C24.575,5.813,26.375,6.5,27.601,7.7z"/>
			<path style="fill-rule:evenodd;clip-rule:evenodd;fill:#C26D22;" d="M27.601,7.4c1.1,1.075,1.649,2.438,1.649,4.087
				l-0.037,12.188c-0.025,1.426-0.338,2.551-0.938,3.375c-0.95,0.351-2.45,0.463-4.5,0.338L7.05,24.913
				C5.6,24.588,4.625,24.1,4.125,23.45c-0.525-0.726-0.788-1.962-0.788-3.713L3.375,8.45C3.375,7,3.688,5.85,4.313,5
				c0.775-0.275,1.649-0.363,2.625-0.263l15.262,0.6C24.575,5.537,26.375,6.225,27.601,7.4z"/>
			<path style="fill-rule:evenodd;clip-rule:evenodd;fill:#FEF5E4;" d="M27.601,7.4c1.1,1.075,1.649,2.438,1.649,4.087
				l-0.037,12.188c-0.025,1.426-0.338,2.551-0.938,3.375c-0.95,0.351-2.45,0.463-4.5,0.338L7.05,24.913
				C5.6,24.588,4.625,24.1,4.125,23.45c-0.525-0.726-0.788-1.962-0.788-3.713L3.375,8.45C3.375,7,3.688,5.85,4.313,5
				c0.775-0.275,1.649-0.363,2.625-0.263l15.262,0.6C24.575,5.537,26.375,6.225,27.601,7.4z"/>
			
				<radialGradient id="SVGID_5_" cx="21.1475" cy="18.895" r="25.9581" gradientTransform="matrix(0.748 0.0552 0.0495 -0.6714 -1.9787 26.8192)" gradientUnits="userSpaceOnUse">
				<stop  offset="0" style="stop-color:#130C0E;stop-opacity:0"/>
				<stop  offset="0.9137" style="stop-color:#130C0E;stop-opacity:0.2196"/>
				<stop  offset="1" style="stop-color:#130C0E;stop-opacity:0.3294"/>
			</radialGradient>
			<path style="fill-rule:evenodd;clip-rule:evenodd;fill:url(#SVGID_5_);" d="M22.199,5.325c2.376,0.2,4.176,0.887,5.4,2.063
				c1.101,1.075,1.65,2.438,1.65,4.087l-0.037,12.188c-0.025,1.426-0.338,2.551-0.938,3.375c-0.95,0.351-2.45,0.463-4.5,0.338
				L7.05,24.9c-1.45-0.325-2.425-0.813-2.925-1.463c-0.525-0.725-0.787-1.962-0.787-3.713L3.375,8.438c0-1.45,0.313-2.6,0.938-3.45
				c0.775-0.275,1.65-0.362,2.625-0.263L22.199,5.325z"/>
			
				<linearGradient id="SVGID_6_" gradientUnits="userSpaceOnUse" x1="-451.6343" y1="723.2656" x2="-443.1034" y2="723.2656" gradientTransform="matrix(0.0857 -0.7451 0.7451 0.0857 -484.8001 -368.7996)">
				<stop  offset="0" style="stop-color:#000000;stop-opacity:0.2392"/>
				<stop  offset="1" style="stop-color:#000000;stop-opacity:0"/>
			</linearGradient>
			<path style="fill-rule:evenodd;clip-rule:evenodd;fill:url(#SVGID_6_);" d="M3.337,19.813h25.875v3.862
				c-0.025,1.426-0.338,2.551-0.938,3.375c-0.95,0.351-2.45,0.463-4.5,0.338L7.05,24.913C5.6,24.588,4.625,24.1,4.125,23.45
				C3.601,22.75,3.337,21.538,3.337,19.813z"/>
		</g>
		<g>
			<path style="fill-rule:evenodd;clip-rule:evenodd;fill:#583213;" d="M6.75,29.45c0.125,0.774,0.025,1.476-0.3,2.1
				c-0.3,0.626-0.725,0.987-1.275,1.088C4.625,32.713,4.113,32.5,3.638,32s-0.775-1.15-0.9-1.95C2.613,29.275,2.7,28.575,3,27.95
				c0.299-0.625,0.738-0.987,1.313-1.088C4.863,26.788,5.388,27,5.888,27.5C6.363,28,6.65,28.65,6.75,29.45z"/>
			
				<radialGradient id="SVGID_7_" cx="-638.3848" cy="-550.4077" r="5.7152" gradientTransform="matrix(-0.7497 0.0229 0.0164 0.538 -463.1395 339.9538)" gradientUnits="userSpaceOnUse">
				<stop  offset="0.1961" style="stop-color:#F2D838"/>
				<stop  offset="0.6549" style="stop-color:#AE7E1F"/>
				<stop  offset="0.8157" style="stop-color:#CFA129"/>
				<stop  offset="1" style="stop-color:#C29929"/>
			</radialGradient>
			<path style="fill-rule:evenodd;clip-rule:evenodd;fill:url(#SVGID_7_);" d="M6.226,29.525c0,0.725-0.2,1.35-0.6,1.875
				c-0.375,0.524-0.838,0.787-1.388,0.787c-0.6,0-1.175-0.263-1.725-0.787C1.938,30.85,1.65,30.225,1.65,29.525
				c0-0.7,0.288-1.325,0.863-1.875c0.55-0.5,1.125-0.75,1.725-0.75c0.55,0,1.013,0.25,1.388,0.75
				C6.025,28.175,6.226,28.801,6.226,29.525z"/>
			<path style="fill-rule:evenodd;clip-rule:evenodd;fill:#FCF5B4;" d="M5.025,29.563c0,0.575-0.149,1.075-0.45,1.5
				c-0.3,0.426-0.663,0.638-1.088,0.638S2.7,31.488,2.4,31.063c-0.299-0.425-0.45-0.925-0.45-1.5c0-0.574,0.15-1.074,0.45-1.5
				c0.3-0.4,0.663-0.6,1.087-0.6s0.788,0.199,1.088,0.6C4.875,28.488,5.025,28.988,5.025,29.563z"/>
			
				<linearGradient id="SVGID_8_" gradientUnits="userSpaceOnUse" x1="696.7432" y1="-465.4033" x2="701.2427" y2="-465.4033" gradientTransform="matrix(0.2209 0.7167 -0.7167 0.2209 -484.7999 -368.7998)">
				<stop  offset="0" style="stop-color:#EFD43B"/>
				<stop  offset="1" style="stop-color:#C29124"/>
			</linearGradient>
			<path style="fill-rule:evenodd;clip-rule:evenodd;fill:url(#SVGID_8_);" d="M4.726,29.525c0,0.574-0.15,1.074-0.451,1.5
				c-0.299,0.4-0.662,0.6-1.087,0.6c-0.425,0-0.788-0.199-1.087-0.6C1.8,30.6,1.65,30.1,1.65,29.525c0-0.575,0.15-1.075,0.451-1.5
				C2.4,27.6,2.763,27.388,3.188,27.388c0.425,0,0.788,0.212,1.087,0.638C4.575,28.45,4.726,28.95,4.726,29.525z"/>
		</g>
		<g>
			<path style="fill-rule:evenodd;clip-rule:evenodd;fill:#583213;" d="M27.15,32.563c0.125,0.875,0.012,1.65-0.338,2.325
				s-0.85,1.063-1.5,1.162c-0.625,0.101-1.225-0.124-1.8-0.675c-0.55-0.55-0.888-1.262-1.013-2.138
				c-0.149-0.874-0.05-1.649,0.3-2.324c0.375-0.676,0.888-1.063,1.538-1.163s1.25,0.125,1.8,0.675S27.025,31.688,27.15,32.563z"/>
			
				<radialGradient id="SVGID_9_" cx="-664.502" cy="-554.8145" r="6.5905" gradientTransform="matrix(-0.7496 0.0239 0.0163 0.5107 -462.4991 330.4438)" gradientUnits="userSpaceOnUse">
				<stop  offset="0.1961" style="stop-color:#F2D838"/>
				<stop  offset="0.6549" style="stop-color:#AE7E1F"/>
				<stop  offset="0.8157" style="stop-color:#CFA129"/>
				<stop  offset="1" style="stop-color:#C29929"/>
			</radialGradient>
			<path style="fill-rule:evenodd;clip-rule:evenodd;fill:url(#SVGID_9_);" d="M26.55,32.638c0,0.8-0.225,1.487-0.675,2.063
				s-1,0.862-1.649,0.862c-0.676,0-1.325-0.287-1.95-0.862c-0.675-0.6-1.013-1.288-1.013-2.063s0.338-1.463,1.013-2.063
				c0.625-0.55,1.274-0.825,1.95-0.825c0.624,0,1.175,0.287,1.649,0.862C26.325,31.162,26.55,31.838,26.55,32.638z"/>
			<path style="fill-rule:evenodd;clip-rule:evenodd;fill:#FCF5B4;" d="M25.163,32.675c0,0.65-0.175,1.2-0.525,1.65
				S23.863,35,23.362,35c-0.499,0-0.912-0.225-1.237-0.675c-0.35-0.45-0.524-1-0.524-1.65c0-0.624,0.175-1.162,0.524-1.612
				c0.325-0.45,0.738-0.675,1.237-0.675c0.501,0,0.925,0.225,1.275,0.675C24.988,31.488,25.163,32.025,25.163,32.675z"/>
			
				<linearGradient id="SVGID_10_" gradientUnits="userSpaceOnUse" x1="707.7129" y1="-490.2969" x2="712.6554" y2="-490.2969" gradientTransform="matrix(0.22 0.717 -0.717 0.22 -484.7996 -368.7994)">
				<stop  offset="0" style="stop-color:#EFD43B"/>
				<stop  offset="1" style="stop-color:#C29124"/>
			</linearGradient>
			<path style="fill-rule:evenodd;clip-rule:evenodd;fill:url(#SVGID_10_);" d="M24.825,32.638c0,0.625-0.175,1.175-0.525,1.65
				c-0.35,0.449-0.774,0.675-1.274,0.675c-0.475,0-0.888-0.226-1.237-0.675c-0.351-0.45-0.525-1.001-0.525-1.65
				s0.175-1.2,0.525-1.65c0.35-0.449,0.763-0.675,1.237-0.675c0.5,0,0.925,0.226,1.274,0.675
				C24.65,31.463,24.825,32.013,24.825,32.638z"/>
		</g>
	</g>
</g>
<g id="letterd">
	<g>
		
			<use xlink:href="#letterd_1_"  width="7.6" height="10.5" y="-10.5" transform="matrix(0.75 0 0 -0.75 22.2998 18.3501)" style="overflow:visible;"/>
	</g>
</g>
<g id="number3">
	<g>
		
			<use xlink:href="#number3_1_"  width="11.8" height="22" y="-22" transform="matrix(0.75 0 0 -0.75 11.2002 8.6001)" style="overflow:visible;"/>
	</g>
</g>
<g id="element2">
	<g>
		
			<use xlink:href="#element2_1_"  width="7" height="9.25" y="-9.25" transform="matrix(0.75 0 0 -0.75 4.6499 16.6499)" style="overflow:visible;"/>
	</g>
</g>
</svg>
