<?xml version="1.0" encoding="iso-8859-1"?>
<!-- Generator: Adobe Illustrator 15.1.0, SVG Export Plug-In . SVG Version: 6.00 Build 0)  -->
<!DOCTYPE svg PUBLIC "-//W3C//DTD SVG 1.1//EN" "http://www.w3.org/Graphics/SVG/1.1/DTD/svg11.dtd">
<svg version="1.1" id="pig" xmlns="http://www.w3.org/2000/svg" xmlns:xlink="http://www.w3.org/1999/xlink" x="0px" y="0px"
	 width="90px" height="60px" viewBox="0 0 90 60" style="enable-background:new 0 0 90 60;" xml:space="preserve">
<symbol  id="Piggy_x5F_Eye" viewBox="-28.304 -19.369 49.304 42.718">
	<g id="Layer_1_11_">
		<path style="fill-rule:evenodd;clip-rule:evenodd;fill:#6C3E34;" d="M0.25,17.5c-0.167-0.1-1.259-0.267-3.275-0.5
			c-1.145-0.134-2.387-0.092-3.725,0.125c0.045-0.085,0.112-0.126,0.2-0.125c0.267,0,0.466-0.117,0.6-0.35l0.15-0.35
			c0-0.4-1.05-0.8-3.15-1.2c-0.595-0.112-1.212-0.212-1.85-0.3c0.1-0.138,0.15-0.372,0.15-0.7c0-1.4-1.684-2.733-5.05-4
			c-2.933-1.1-5.417-1.65-7.45-1.65c-1.367,0-2.35,0.2-2.95,0.6c-0.267,0.2-0.417,0.417-0.45,0.65c0,0.033,0.333,0.05,1,0.05
			c0.667,0.033,1.667,0.1,3,0.2c1.333,0.133,3.133,0.617,5.4,1.45c2.267,0.867,3.35,1.383,3.25,1.55l1.45,1.3
			c0.215,0.179,0.406,0.321,0.575,0.425c-1.544-0.15-3.219-0.225-5.025-0.225c-2.567,0-4.8,0.333-6.7,1
			c-1.6,0.568-3,1.026-4.2,1.375c-1.2,0.348-0.259,0.356,2.825,0.025c3.084-0.334,6.868-0.243,11.35,0.275
			c2.062,0.241,3.653,0.391,4.775,0.45c-0.377,0.107-0.761,0.224-1.15,0.35c-2.634,0.855-4.876,2.138-6.725,3.85
			c-1.849,1.71-1.715,2.027,0.4,0.95c2.116-1.08,5.674-2.08,10.675-3c2.669-0.493,4.361-0.826,5.075-1
			c0.701-0.114,1.076-0.322,1.125-0.625C0.55,17.8,0.45,17.6,0.25,17.5z"/>
		<g>
			<path style="fill-rule:evenodd;clip-rule:evenodd;fill:#6C3E34;" d="M15.4,11.55C19.133,7.417,21,2.883,21-2.05
				c0-4.967-1.867-8.784-5.6-11.45c-4.133-3.1-8.883-4.133-14.25-3.1c-5.133,0.833-9.667,3.3-13.6,7.4
				c-3.933,4.133-5.9,8.583-5.9,13.35c0,4.934,1.967,8.85,5.9,11.75c3.934,2.9,8.467,3.934,13.6,3.1
				C6.517,17.967,11.267,15.483,15.4,11.55z"/>
			<g>
				<path style="fill-rule:evenodd;clip-rule:evenodd;fill:#FFFFFF;" d="M15.2,9.2c3.6-4.1,5.4-8.633,5.4-13.6
					c0-4.934-1.8-8.767-5.4-11.5C11.467-18.967,7.117-20,2.15-19c-4.933,0.867-9.2,3.35-12.8,7.45c-3.733,4.1-5.6,8.617-5.6,13.55
					c0,4.967,1.867,8.817,5.6,11.55c3.6,2.9,7.867,3.917,12.8,3.05C7.117,15.567,11.467,13.1,15.2,9.2z"/>
			</g>
		</g>
	</g>
</symbol>
<symbol  id="Piggy_x5F_Pupil" viewBox="-10.866 -11.947 21.73 23.844">
	<g id="Layer_1_10_">
		<g>
			<path style="fill-rule:evenodd;clip-rule:evenodd;" d="M10.25,0.75C10.65-2.283,10-5,8.3-7.4c-1.7-2.4-4.05-3.733-7.05-4
				C-1.483-11.667-4-10.8-6.3-8.8c-2.233,2.033-3.55,4.566-3.95,7.6c-0.4,3.3,0.233,6.15,1.9,8.55c1.733,2.4,3.967,3.733,6.7,4
				c3,0.267,5.633-0.6,7.9-2.6C8.517,6.717,9.85,4.05,10.25,0.75z"/>
			
				<path style="fill-rule:evenodd;clip-rule:evenodd;fill:none;stroke:#000000;stroke-linecap:round;stroke-linejoin:round;stroke-miterlimit:3;" d="
				M10.25,0.75C10.65-2.283,10-5,8.3-7.4c-1.7-2.4-4.05-3.733-7.05-4C-1.483-11.667-4-10.8-6.3-8.8
				c-2.233,2.033-3.55,4.566-3.95,7.6c-0.4,3.3,0.233,6.15,1.9,8.55c1.733,2.4,3.967,3.733,6.7,4c3,0.267,5.633-0.6,7.9-2.6
				C8.517,6.717,9.85,4.05,10.25,0.75z"/>
		</g>
		<path style="fill-rule:evenodd;clip-rule:evenodd;fill:#FFFFFF;" d="M-4.711,2.639c-0.563-0.054-1.154,0.099-1.773,0.46
			C-7.129,3.671-7.49,4.27-7.57,4.896C-7.675,5.729-7.474,6.382-6.96,6.852c0.486,0.68,1.012,1.046,1.575,1.1
			C-4.82,8.006-4.215,7.749-3.57,7.177c0.618-0.361,0.979-0.96,1.085-1.793c0.079-0.626-0.123-1.279-0.609-1.959
			C-3.606,2.955-4.146,2.693-4.711,2.639z"/>
		
			<path style="fill-rule:evenodd;clip-rule:evenodd;fill:none;stroke:#FFFFFF;stroke-linecap:round;stroke-linejoin:round;stroke-miterlimit:3;" d="
			M-4.711,2.639c-0.563-0.054-1.154,0.099-1.773,0.46C-7.129,3.671-7.49,4.27-7.57,4.896C-7.675,5.729-7.474,6.382-6.96,6.852
			c0.486,0.68,1.012,1.046,1.575,1.1C-4.82,8.006-4.215,7.749-3.57,7.177c0.618-0.361,0.979-0.96,1.085-1.793
			c0.079-0.626-0.123-1.279-0.609-1.959C-3.606,2.955-4.146,2.693-4.711,2.639z"/>
	</g>
</symbol>
<symbol  id="Piggy_x5F_body" viewBox="-195.035 -105.868 392.225 220.218">
	<g id="Layer_1_21_">
		<path style="fill-rule:evenodd;clip-rule:evenodd;fill:#D5B2A9;" d="M189.65-61.7c-1.3-1-3.283-2.483-5.95-4.45
			c-0.1,0-0.217-0.017-0.35-0.05c-1.533-0.333-3.067-0.683-4.6-1.05c0.033,0.033,0.067,0.067,0.1,0.1
			c2.633,1.5,4.517,2.75,5.65,3.75c0.067,0.033,0.133,0.083,0.2,0.15c0.5,0.267,1,0.55,1.5,0.85l-0.65,0.65
			c-0.267-0.1-0.533-0.2-0.8-0.3c-5.267-1.767-10.117-3.434-14.55-5c0.667,0.733,1,1.433,1,2.1l0.35,1.3
			c-2.767-2.267-5.4-4.167-7.9-5.7c-2.233-0.8-4.333-1.566-6.3-2.3c-0.934-0.167-1.85-0.333-2.75-0.5
			c-0.333-0.033-0.667-0.083-1-0.15c0.733,0.4,1.417,0.767,2.05,1.1c1.434,0.667,3.217,1.483,5.35,2.45
			c4.033,1.7,6.267,3.183,6.7,4.45l-8.1-3.9c0.3,0.367,0.55,0.717,0.75,1.05c-2.733-0.7-6.367-2.05-10.9-4.05
			c0.167,0.2,0.3,0.367,0.4,0.5l-0.35,0.35c-2.333-1.066-4.517-2.1-6.55-3.1c-0.867-0.066-1.717-0.133-2.55-0.2
			c2.333,1.167,3.567,1.95,3.7,2.35c-2.167-0.833-4.05-1.667-5.65-2.5c-0.333,0-0.65-0.017-0.95-0.05
			c2.9,1.733,4.35,3.117,4.35,4.15l-0.65,0.6c-2.667-1.533-5.833-3.167-9.5-4.9c-1.1,0-2.167,0-3.2,0c0.3,0.3,0.5,0.55,0.6,0.75
			c-0.533-0.233-1.033-0.467-1.5-0.7c-1.033,0.034-2.017,0.067-2.95,0.1c0.733,0.6,1.267,1.133,1.6,1.6
			c-1.233-0.5-2.417-0.983-3.55-1.45l-11.725-1.5c-24.563-2.607-41.263-4.365-50.1-5.275l-0.55-0.075
			c-0.07-0.007-0.137-0.016-0.2-0.025c-1.745-0.257-2.212-0.34-1.4-0.25c-18.606-2.463-29.223-3.646-31.85-3.55
			c-2.007-0.516-4.099-0.958-6.275-1.325c-9.767-1.066-20.083-1.167-30.95-0.3c-1.9,0.2-3.7,0.3-5.4,0.3
			c-2.05,0.148-4.117,0.315-6.2,0.5l0.05,0.2c-1.033,0.767-1.767,1.15-2.2,1.15l-0.15-0.4c0.403-0.344,0.762-0.627,1.075-0.85
			c-0.327,0.036-0.651,0.07-0.975,0.1c-1.934,0.833-2.967,1.25-3.1,1.25c0.133-0.167,0.283-0.333,0.45-0.5
			c-3.733,2.467-5.684,3.7-5.85,3.7v-0.65c1.033-0.667,2.683-1.816,4.95-3.45c-1.333,0.167-2.65,0.333-3.95,0.5
			c-2.7,1.433-5.583,2.95-8.65,4.55v-0.95c1.4-0.867,3.05-1.917,4.95-3.15c-0.533,0.1-1.05,0.184-1.55,0.25
			c-4.533,2.767-8.117,4.684-10.75,5.75v-0.65c1.334-1.1,2.917-2.316,4.75-3.65v-0.55c-0.467,0.1-0.95,0.183-1.45,0.25
			c-6.667,4.966-10.534,7.983-11.6,9.05l-0.35-0.6c0.533-0.833,1.767-2.066,3.7-3.7c-4.733,2.6-8.301,4.25-10.7,4.95
			c2.267-1.533,4.283-2.883,6.05-4.05v-0.25l-7.65,5.25v-0.6c1-1.133,2.117-2.267,3.351-3.4c-2.9,1.867-5.084,3.517-6.55,4.95
			L-68.7-71c1.9-2.567,5.834-5.65,11.8-9.25c0.032-0.032,0.066-0.049,0.101-0.05c-0.068,0-0.135,0-0.2,0
			c-5.769,3.559-11.019,7.167-15.75,10.825c-0.171-0.275-0.337-0.533-0.5-0.775c1.056-1.039,2.163-2.063,3.325-3.075
			c-1.173,0.652-2.548,1.46-4.125,2.425c-2,1.233-3.367,1.867-4.101,1.9l-0.074-0.2c-0.908,0.619-1.55,1.02-1.926,1.2l-0.1-0.35
			c0.896-1.356,2.371-2.806,4.425-4.35l-0.024-0.025c0.181-0.121,0.364-0.246,0.55-0.375c0.635-0.458,1.318-0.924,2.05-1.4
			c0.105-0.07,0.214-0.136,0.325-0.2c-0.717,0.295-1.475,0.596-2.275,0.9c-0.305,0.143-0.588,0.276-0.85,0.4
			c-0.166,0.113-0.332,0.221-0.5,0.325c-0.087-0.038-0.17-0.08-0.25-0.125c-2.081,0.81-3.364,1.376-3.851,1.7l-0.1-0.1
			c0.701-0.722,1.685-1.43,2.95-2.125c-0.055-0.033-0.104-0.066-0.15-0.1c0.111-0.042,0.229-0.084,0.351-0.125
			c-0.061,0.07-0.119,0.136-0.176,0.2c0.194-0.107,0.395-0.216,0.601-0.325l-0.075-0.075c0.434-0.233,0.866-0.467,1.3-0.7
			c1.167-0.733,2.334-1.433,3.5-2.1c-0.918,0.241-1.827,0.474-2.725,0.7c-0.439,0.269-0.898,0.552-1.375,0.85
			c-0.541,0.315-1.05,0.599-1.525,0.85c-0.124,0.118-0.249,0.235-0.375,0.35c-0.031-0.03-0.064-0.063-0.1-0.1
			c-1.532,0.809-2.6,1.226-3.2,1.25v-1.2c0.574-0.558,1.258-1.142,2.05-1.75c-0.033-0.02-0.066-0.036-0.1-0.05
			c-0.06-0.127-0.118-0.261-0.175-0.4c-0.295,0.168-0.536,0.301-0.726,0.4c-1.287,0.663-2.313,1.112-3.075,1.35
			c-1.599,0.686-2.923,1.069-3.975,1.15v-1.2c0.178-0.076,2.169-1.276,5.975-3.6h-5.05c-0.651,0.401-1.227,0.718-1.725,0.95
			l-0.025-0.05c-0.494,0.266-0.92,0.482-1.274,0.65c-2.601,1.3-4.367,1.8-5.301,1.5c0.554-0.252,1.554-0.752,3-1.5
			c0.308-0.41,1.041-0.926,2.2-1.55h-2.1c-0.251,0.009-0.501,0.017-0.75,0.025c-0.443,0.253-0.894,0.511-1.351,0.775
			c0.111-0.211,0.328-0.461,0.65-0.75c-1.453,0.042-2.902,0.075-4.35,0.1c-8.717,0.579-13.1,1.345-13.15,2.3
			c-10.479,2.403-17.088,4.27-19.825,5.6c-14.019,6.803-21.61,10.92-22.774,12.35c-1.334,1.767-2.367,3.4-3.101,4.9
			c-0.8,1-1.649,2.033-2.55,3.1c0.533-0.9,1.15-1.85,1.85-2.85c1.467-1.934,3.483-4.817,6.051-8.65l-0.301-0.3
			c-3,4.033-5.233,7.017-6.699,8.95c-1.167,1.867-2.084,3.566-2.75,5.1c-1.834,2.233-3.851,4.65-6.051,7.25
			c0.5-0.966,1.084-2,1.75-3.1v-0.35c-0.1,0.1-0.216,0.2-0.35,0.3l4.8-8.9l-0.6-0.3c-0.434,1.267-1.717,3.816-3.851,7.65
			c-0.566,0.967-1.033,1.85-1.399,2.65c-0.8,0.933-1.601,2.067-2.4,3.4c-0.366,0.7-0.666,1.367-0.899,2
			c-0.101,0.133-0.184,0.267-0.25,0.4c-0.567,0.667-1.15,1.35-1.75,2.05c-2.4,2.9-4.551,5.75-6.45,8.55
			c0.233-0.6,0.467-1.217,0.7-1.85c-0.467,0.7-0.934,1.667-1.4,2.9c-3.2,4.833-5.7,9.5-7.5,14c-0.1,0.433-0.184,0.867-0.25,1.3h-0.1
			l-1.25,6.4l0.149,1.3c-0.5,4.267-0.75,8.5-0.75,12.7c-0.666-3.066-1-6.566-1-10.5V-0.2c-0.434,0.867-0.649,2.15-0.649,3.85
			c0,3.767,0.566,7.083,1.699,9.95c0,0.533,0.017,1.05,0.051,1.55c-1.267-4.3-1.95-7.816-2.051-10.55l-0.35,2.25
			c0,2.767,0.65,6.6,1.95,11.5c0.3,1,0.583,1.9,0.85,2.7c0.3,3,0.75,5.983,1.351,8.95c-1.667-4.033-2.983-7.75-3.95-11.15
			c0-0.733,0.05-1.434,0.149-2.1h-0.649v0.35c-0.601-2.3-1.033-4.45-1.3-6.45h-0.601c0.533,3.167,1.167,6.117,1.9,8.85v3
			c0.3,5.233,2.35,10.2,6.149,14.9c1.167,4.333,2.617,8.616,4.351,12.85c1.166,2.733,2.333,5.4,3.5,8
			c0.3,0.733,0.616,1.45,0.95,2.15c-0.2-0.034-0.4-0.067-0.601-0.101c4.917,7.829,8.65,13.513,11.2,17.05l3.55,4.2l-0.35,0.851
			l-5.45,1.949c0,0.233,0.05,0.417,0.15,0.551c0.033,0.033,0.116,0.033,0.25,0c0.133,0.033,0.283,0.066,0.449,0.1
			c0.034,0.033,0.051,0.066,0.051,0.1c0.033,0.101,0.05,0.184,0.05,0.25l6.149-2.25l-0.399,0.95l0.95,0.3l1.649-1.3
			c2.344,0.731,4.811,1.54,7.4,2.425c1.467,0.517,2.934,1.042,4.399,1.575c5.9,2,12.051,3.142,18.45,3.425
			c1.749,0.118,3.115,0.193,4.101,0.226c-1.757,0.339-3.123,0.813-4.101,1.425L-130,93.3l1.3-0.175
			c1.089-0.232,2.372-0.591,3.851-1.075c1.433-0.033,2.916-0.149,4.449-0.35c1.334,0.3,2.7,0.616,4.101,0.95h-6.351l-0.3,0.35
			l2.55,0.65l6.851-0.4c1.2,0.267,2.416,0.533,3.649,0.8c-3.166,0.566-6.767,0.634-10.8,0.2c6.434,1.267,10.95,1.4,13.55,0.4
			c0.367,0.1,0.733,0.183,1.101,0.25c18.934,4.267,41.8,7.033,68.6,8.3c13.633,0.633,25.917,1.05,36.85,1.25
			c-4.167,1.7-7.617,3.083-10.35,4.149l0.3,0.351c1.7-0.634,5.217-2.117,10.55-4.45l0.05-0.05c2.8,0.066,5.5,0.116,8.1,0.149
			L3.5,108.9C0.367,111-1.8,112.4-3,113.1c1.433-0.733,6.617-3.566,15.55-8.5c1.333,0.034,2.633,0.034,3.9,0
			c-1.5,0.967-3.133,2-4.9,3.101L5,110.2c1.367-0.134,3.483-0.667,6.35-1.601c0.667-0.199,1.367-0.416,2.1-0.649
			c0.533-0.2,1.117-0.4,1.75-0.601c2.2-0.8,4.15-1.583,5.85-2.35c-0.566,1-0.9,2-1,3c-1.733,2.3-2.933,3.684-3.6,4.15v0.6
			c1.733-0.833,3.767-3.066,6.1-6.7c0.333-0.533,0.667-1.033,1-1.5c0.833,0,1.667-0.017,2.5-0.05l-5.45,4.75h0.35
			c0.667-0.3,1.517-0.783,2.55-1.45c-1.2,1.5-2.683,3.367-4.45,5.601h0.6c1.367-1.733,2.75-3.351,4.15-4.851v0.05h0.65
			c0.167,0,2.75-1.416,7.75-4.25c12.966-0.366,20.483-0.649,22.55-0.85c3.233,0,6.483-0.05,9.75-0.15
			c-5.267,0.867-9.367,1.567-12.3,2.101c6.6-0.434,10.75-0.75,12.45-0.95c1.4-0.333,3.017-0.767,4.85-1.3
			c1.4-0.033,2.85-0.084,4.35-0.15c-1.167,0.667-2.217,1.351-3.15,2.05c-1.034,0.801-1.934,1.617-2.7,2.45
			c-3,2.267-5.5,4.533-7.5,6.8c1.733-1.133,5.417-3.8,11.05-8c0.967-0.267,3.034-1.416,6.2-3.449c0.4,0,0.783,0,1.15,0
			c0.267,0,0.517,0,0.75,0v-0.351c1,0.134,1.95,0.25,2.85,0.351c0.2,0,0.417-0.017,0.65-0.051c9-0.466,17.983-0.699,26.95-0.699
			c1.683,0,3.367-0.017,5.05-0.051c9.921,0.305,22.496-1.313,37.725-4.85c11.285-2.614,20.11-11.748,26.475-27.4
			c2.167-4.3,4.217-8.649,6.15-13.05c3.461-7.88,6.12-15.914,7.975-24.1c0.768-3.458,1.393-6.925,1.875-10.4
			c1.566-11.667,2.133-23.4,1.7-35.2c-0.566-14.8-2.55-29.35-5.95-43.65c-0.452-1.676-0.935-3.326-1.45-4.95
			c0.002-0.033,0.002-0.067,0-0.1C189.65-61.633,189.65-61.667,189.65-61.7z M188.05-65.1c-0.233-0.066-0.45-0.133-0.65-0.2
			c0.267,0.2,0.55,0.383,0.85,0.55C188.183-64.883,188.117-65,188.05-65.1z M27.15,105.3c0.367-0.267,0.733-0.55,1.1-0.85
			c-0.667,0.566-1.267,1.05-1.8,1.45C26.683,105.7,26.917,105.5,27.15,105.3z M138.05,34.9h-0.65l1.25-0.601L138.05,34.9z
			 M91.5-80.3l-0.1-0.35c-0.545-0.043-1.095-0.093-1.65-0.15L91.5-80.3z M179.05-66.05c-0.933-0.534-1.833-1.1-2.7-1.7
			c-0.8-0.167-1.6-0.333-2.4-0.5C175.75-67.517,177.45-66.783,179.05-66.05z M68.825-78.425c-1.854-0.162-3.712-0.337-5.575-0.525
			C58.638-79.485,60.496-79.311,68.825-78.425z M-188.05,30.15c-1.467-2.934-2.4-5.667-2.8-8.2c1.166,3.8,2.55,7.183,4.149,10.149
			c0.066,0.267,0.134,0.517,0.2,0.75C-187.167,31.783-187.684,30.884-188.05,30.15z"/>
		<path style="fill-rule:evenodd;clip-rule:evenodd;fill:#C18C80;" d="M189.65-61.7c-0.467-1.033-0.933-2.05-1.4-3.05
			c-0.3-0.167-0.583-0.35-0.85-0.55c0.2,0.066,0.417,0.133,0.65,0.2c-3.513-7.22-8.129-13.536-13.85-18.95
			c-24.418-6.257-52.102-11.274-83.05-15.05c-1.066-0.1-2.133-0.2-3.2-0.3c-6.267-0.767-12.667-1.45-19.2-2.05
			c-6.467-0.667-12.967-1.333-19.5-2c-6.667-0.7-13.3-1.383-19.9-2.05c-6.434-0.3-12.85-0.417-19.25-0.35
			c-4.934,0.033-9.867,0.05-14.8,0.05c-4.966,0.033-9.933,0.066-14.9,0.1c-4.933,0-9.867,0.05-14.8,0.15
			c-4.6,0.066-9.2,0.183-13.8,0.35c-6.3,0.534-12.616,1.284-18.95,2.25c-6.267,0.967-12.483,2.15-18.649,3.55
			c-6.267,1.367-12.367,3.267-18.3,5.7c-13.235,5.037-25.918,11.287-38.051,18.75c-4.267,2.6-8.483,5.267-12.649,8
			c-0.476,0.324-0.95,0.648-1.425,0.975l0.074,0.075c-8.066,8.733-14.233,15.65-18.5,20.75c-9.566,10.833-15.833,22.2-18.8,34.1
			c-4.267,24.066,0.084,46.416,13.05,67.05c0.434,0.6,0.851,1.167,1.25,1.7c0.634,0.899,1.284,1.767,1.95,2.6
			c0.2,0.033,0.4,0.066,0.601,0.101c-0.334-0.7-0.65-1.417-0.95-2.15c-1.167-2.6-2.334-5.267-3.5-8
			c-1.733-4.233-3.184-8.517-4.351-12.85c-3.8-4.7-5.85-9.667-6.149-14.9v-3c-0.733-2.733-1.367-5.683-1.9-8.85h0.601
			c0.267,2,0.699,4.15,1.3,6.45v-0.35h0.649c-0.1,0.667-0.149,1.367-0.149,2.1c0.967,3.4,2.283,7.117,3.95,11.15
			c-0.601-2.967-1.051-5.95-1.351-8.95c-0.267-0.8-0.55-1.7-0.85-2.7c-1.3-4.9-1.95-8.733-1.95-11.5l0.35-2.25
			c0.101,2.733,0.784,6.25,2.051,10.55c-0.034-0.5-0.051-1.017-0.051-1.55c-1.133-2.867-1.699-6.184-1.699-9.95
			c0-1.7,0.216-2.983,0.649-3.85v0.35c0,3.934,0.334,7.434,1,10.5c0-4.2,0.25-8.433,0.75-12.7l-0.149-1.3l1.25-6.4h0.1
			c0.066-0.433,0.15-0.867,0.25-1.3c1.8-4.5,4.3-9.167,7.5-14c0.467-1.233,0.934-2.2,1.4-2.9c-0.233,0.633-0.467,1.25-0.7,1.85
			c1.899-2.8,4.05-5.65,6.45-8.55c0.6-0.7,1.183-1.383,1.75-2.05c0.066-0.133,0.149-0.267,0.25-0.4c0.233-0.633,0.533-1.3,0.899-2
			c0.8-1.333,1.601-2.467,2.4-3.4c0.366-0.8,0.833-1.683,1.399-2.65c2.134-3.833,3.417-6.383,3.851-7.65l0.6,0.3l-4.8,8.9
			c0.134-0.1,0.25-0.2,0.35-0.3v0.35c-0.666,1.1-1.25,2.133-1.75,3.1c2.2-2.6,4.217-5.017,6.051-7.25
			c0.666-1.533,1.583-3.233,2.75-5.1c1.466-1.934,3.699-4.917,6.699-8.95l0.301,0.3c-2.567,3.833-4.584,6.717-6.051,8.65
			c-0.699,1-1.316,1.95-1.85,2.85c0.9-1.066,1.75-2.1,2.55-3.1c0.733-1.5,1.767-3.133,3.101-4.9
			c1.164-1.43,8.756-5.546,22.774-12.35c2.737-1.331,9.346-3.197,19.825-5.6c0.051-0.955,4.434-1.722,13.15-2.3
			c1.447-0.025,2.896-0.058,4.35-0.1c-0.322,0.289-0.539,0.539-0.65,0.75c0.457-0.264,0.907-0.522,1.351-0.775
			c0.249-0.008,0.499-0.016,0.75-0.025h2.1c-1.159,0.624-1.893,1.141-2.2,1.55c-1.446,0.748-2.446,1.248-3,1.5
			c0.934,0.3,2.7-0.2,5.301-1.5c0.354-0.168,0.78-0.385,1.274-0.65l0.025,0.05c0.498-0.232,1.073-0.549,1.725-0.95h5.05
			c-3.806,2.324-5.797,3.524-5.975,3.6v1.2c1.052-0.081,2.376-0.464,3.975-1.15c0.763-0.237,1.788-0.687,3.075-1.35
			c0.189-0.099,0.431-0.232,0.726-0.4c0.057,0.14,0.115,0.273,0.175,0.4c0.033,0.014,0.066,0.03,0.1,0.05
			c-0.792,0.608-1.476,1.192-2.05,1.75v1.2c0.601-0.024,1.668-0.441,3.2-1.25c0.035,0.036,0.068,0.069,0.1,0.1
			c0.126-0.115,0.251-0.231,0.375-0.35c0.476-0.251,0.984-0.535,1.525-0.85c0.477-0.298,0.936-0.581,1.375-0.85
			c0.897-0.226,1.807-0.459,2.725-0.7c-1.166,0.667-2.333,1.367-3.5,2.1c-0.434,0.233-0.866,0.467-1.3,0.7l0.075,0.075
			c-0.206,0.109-0.406,0.218-0.601,0.325c0.057-0.064,0.115-0.13,0.176-0.2c-0.122,0.041-0.239,0.083-0.351,0.125
			c0.046,0.034,0.096,0.067,0.15,0.1c-1.266,0.695-2.249,1.403-2.95,2.125l0.1,0.1c0.486-0.324,1.77-0.89,3.851-1.7
			c0.08,0.045,0.163,0.087,0.25,0.125c0.168-0.104,0.334-0.211,0.5-0.325c0.262-0.124,0.545-0.257,0.85-0.4
			c0.801-0.305,1.559-0.605,2.275-0.9c-0.111,0.064-0.22,0.13-0.325,0.2c-0.731,0.476-1.415,0.942-2.05,1.4
			c-0.186,0.129-0.369,0.254-0.55,0.375l0.024,0.025c-2.054,1.544-3.529,2.994-4.425,4.35l0.1,0.35
			c0.376-0.181,1.018-0.581,1.926-1.2l0.074,0.2c0.733-0.033,2.101-0.667,4.101-1.9c1.577-0.965,2.952-1.773,4.125-2.425
			c-1.162,1.012-2.27,2.037-3.325,3.075c0.163,0.242,0.329,0.5,0.5,0.775c4.731-3.658,9.981-7.266,15.75-10.825
			c0.065,0,0.132,0,0.2,0c-0.034,0.001-0.068,0.018-0.101,0.05c-5.966,3.6-9.899,6.683-11.8,9.25l0.601,0.3
			c1.466-1.433,3.649-3.083,6.55-4.95c-1.233,1.133-2.351,2.267-3.351,3.4v0.6l7.65-5.25v0.25c-1.767,1.167-3.783,2.517-6.05,4.05
			c2.399-0.7,5.967-2.35,10.7-4.95c-1.934,1.633-3.167,2.867-3.7,3.7l0.35,0.6c1.066-1.067,4.934-4.083,11.6-9.05
			c0.5-0.067,0.983-0.15,1.45-0.25V-82c-1.833,1.333-3.417,2.55-4.75,3.65v0.65c2.634-1.066,6.217-2.983,10.75-5.75
			c0.5-0.066,1.017-0.15,1.55-0.25c-1.9,1.233-3.55,2.284-4.95,3.15v0.95c3.066-1.6,5.95-3.117,8.65-4.55
			c1.3-0.167,2.617-0.333,3.95-0.5c-2.267,1.633-3.917,2.783-4.95,3.45v0.65c0.167,0,2.117-1.233,5.85-3.7
			c-0.167,0.167-0.317,0.333-0.45,0.5c0.133,0,1.167-0.417,3.1-1.25c0.324-0.03,0.648-0.064,0.975-0.1
			c-0.313,0.223-0.672,0.506-1.075,0.85l0.15,0.4c0.434,0,1.167-0.383,2.2-1.15l-0.05-0.2c2.083-0.185,4.15-0.352,6.2-0.5
			c1.7,0,3.5-0.1,5.4-0.3c10.867-0.867,21.184-0.767,30.95,0.3c2.176,0.368,4.268,0.809,6.275,1.325
			c2.627-0.096,13.244,1.087,31.85,3.55c-0.812-0.09-0.345-0.007,1.4,0.25c0.063,0.01,0.13,0.018,0.2,0.025l0.55,0.075
			c8.837,0.91,25.537,2.668,50.1,5.275l11.725,1.5c1.133,0.467,2.316,0.95,3.55,1.45c-0.333-0.467-0.867-1-1.6-1.6
			c0.934-0.033,1.917-0.066,2.95-0.1c0.467,0.233,0.967,0.467,1.5,0.7c-0.1-0.2-0.3-0.45-0.6-0.75c1.033,0,2.1,0,3.2,0
			c3.667,1.733,6.833,3.367,9.5,4.9l0.65-0.6c0-1.033-1.45-2.417-4.35-4.15c0.3,0.033,0.617,0.05,0.95,0.05
			c1.6,0.833,3.483,1.667,5.65,2.5c-0.133-0.4-1.367-1.184-3.7-2.35c0.833,0.066,1.684,0.133,2.55,0.2c2.033,1,4.216,2.034,6.55,3.1
			l0.35-0.35c-0.1-0.133-0.233-0.3-0.4-0.5c4.533,2,8.167,3.35,10.9,4.05c-0.2-0.333-0.45-0.684-0.75-1.05l8.1,3.9
			c-0.434-1.267-2.667-2.75-6.7-4.45c-2.133-0.967-3.917-1.783-5.35-2.45c-0.633-0.333-1.316-0.7-2.05-1.1
			c0.333,0.066,0.667,0.117,1,0.15c0.9,0.167,1.816,0.333,2.75,0.5c1.967,0.733,4.066,1.5,6.3,2.3c2.5,1.533,5.133,3.434,7.9,5.7
			l-0.35-1.3c0-0.667-0.333-1.367-1-2.1c4.433,1.566,9.283,3.233,14.55,5c0.267,0.1,0.533,0.2,0.8,0.3l0.65-0.65
			c-0.5-0.3-1-0.583-1.5-0.85c-0.067-0.067-0.133-0.117-0.2-0.15c-1.133-1-3.017-2.25-5.65-3.75c-0.033-0.033-0.067-0.067-0.1-0.1
			c1.533,0.367,3.067,0.717,4.6,1.05c0.133,0.034,0.25,0.05,0.35,0.05C186.367-64.183,188.35-62.7,189.65-61.7z M179.05-66.05
			c-1.6-0.733-3.3-1.467-5.1-2.2c0.8,0.167,1.6,0.333,2.4,0.5C177.217-67.15,178.117-66.583,179.05-66.05z M91.5-80.3l-1.75-0.5
			c0.555,0.057,1.104,0.107,1.65,0.15L91.5-80.3z M-188.05,30.15c0.366,0.733,0.883,1.633,1.55,2.699
			c-0.066-0.233-0.134-0.483-0.2-0.75c-1.6-2.966-2.983-6.35-4.149-10.149C-190.45,24.483-189.517,27.217-188.05,30.15z
			 M68.825-78.425c-8.329-0.886-10.188-1.061-5.575-0.525C65.113-78.762,66.971-78.587,68.825-78.425z"/>
	</g>
</symbol>
<symbol  id="Piggy_x5F_ear_x5F_l" viewBox="-5.15 -21.725 58.614 80.425">
	<g id="Layer_1_16_">
		<path style="fill-rule:evenodd;clip-rule:evenodd;fill:#C69385;" d="M51,51.1c2.067-5.333,2.833-10.899,2.3-16.699
			c-0.533-5.601-1.85-11.017-3.95-16.25c-1.267-3.167-2.934-6.167-5-9c-0.8-1.233-1.733-2.65-2.8-4.25L38.6,0.425L38.5,0.3
			c-0.124,0.16-13.724-7.182-40.8-22.025C15.814-3.501,19.13,8.09,7.65,13.05c-2.298,0.993-3.973,1.76-5.025,2.3
			c-3.638,1.197-6.23,2.314-7.775,3.35L3.2,35.1c0.233,0.434,0.45,0.75,0.65,0.95c4.467,6.601,10.1,11.601,16.9,15
			c4.033,2.134,8.617,3.733,13.75,4.8c4.467,1.067,9.033,2.017,13.7,2.851C49.167,56.634,50.1,54.1,51,51.1z M35.2,4.95
			c-0.033,0.046-0.067,0.096-0.1,0.15c-0.19,0.246-0.382,0.488-0.575,0.725C34.76,5.523,34.985,5.231,35.2,4.95z"/>
	</g>
</symbol>
<symbol  id="Piggy_x5F_ear_x5F_r" viewBox="-36.383 -10.75 57.933 70.8">
	<g id="Layer_1_3_">
		<path style="fill-rule:evenodd;clip-rule:evenodd;fill:#D5B2A9;" d="M11.95,34.35c1.867-1.333,3.267-4.133,4.2-8.399
			c0.267-0.7,0.533-1.4,0.8-2.1c0.167-0.5,0.35-1.017,0.55-1.55c-0.3,1.434-0.55,2.784-0.75,4.05c0.433-2.133,1.067-3.934,1.9-5.4
			c0.434-0.633,0.65-2.017,0.65-4.15c0-0.5-0.033-1-0.1-1.5c0.133-0.7,0.25-1.417,0.35-2.15c0.3-0.2,0.55-0.483,0.75-0.85
			c0.034,0.867,0.017,1.717-0.05,2.55h0.65l0.3-5.1c0-0.233-0.017-0.483-0.05-0.75c0.033-0.467,0.05-0.95,0.05-1.45
			c0-0.8-0.15-1.816-0.45-3.05c0.233,0.3,0.5,0.567,0.8,0.8L21.2,2.75c0-0.327-0.65-4.827-1.95-13.5h-41.325
			c-1.675,3.596-3.616,7.663-5.825,12.2c-1,1.3-1.9,2.633-2.7,4c-8,13.233-7.7,29.083,0.9,47.55c-1.566,0.634-2.95,1.366-4.15,2.2
			h0.25l2.3-0.8c-0.067,0.1-0.117,0.183-0.15,0.25c0.4-0.067,1.133-0.284,2.2-0.65c0.033,0.033,0.05,0.066,0.05,0.1
			c0.934-0.233,1.85-0.466,2.75-0.699c-4.367,2-7.117,4.216-8.25,6.649h0.3c1.133-1.5,2.933-2.916,5.4-4.25V56
			c0.933-0.333,2.067-0.917,3.4-1.75c-0.433,0.634-0.767,1.3-1,2h0.3c0.433-0.533,0.883-1.05,1.35-1.55v0.5h0.25l7-3.75
			c1.034-0.267,2.117-0.55,3.25-0.851c0.2-0.166,0.017-0.25-0.55-0.25l-1.05,0.25l1.1-0.6c10.967-3.7,19.2-8.066,24.7-13.1
			c1.667-2.167,3.133-4.417,4.4-6.75C13.583,31.816,12.85,33.217,11.95,34.35z M16.25-6.9c0.167-0.033,0.333-0.067,0.5-0.1v2.1h-0.3
			v1.6c0.1,0.3,0.2,0.6,0.3,0.9v3.85c-3.4,14.267-9.567,24.167-18.5,29.7c-11.067,7-17.017,9.767-17.85,8.3
			c-0.367,0.366-0.783-0.601-1.25-2.9c0-0.033,0-0.083,0-0.149c-0.033-0.034-0.05-0.101-0.05-0.2c-0.067-0.066-0.117-0.15-0.15-0.25
			c-0.434-0.9-0.817-1.783-1.15-2.65c-5.533-13.6-3.617-26.65,5.75-39.15C-12.883-6.083-9.5-6.367-6.3-6.7
			c-1,0.9-2.15,1.817-3.45,2.75h0.35c2.066-0.433,3.8-1.433,5.2-3C-3.567-7.017-2.933-7.1-2.3-7.2
			c-1.667,2.667-3.934,4.284-6.8,4.85v1.25c2.033-0.467,3.8-1.3,5.3-2.5c1.9-0.933,3.383-2.267,4.45-4
			C1.017-7.633,1.4-7.683,1.8-7.75c-0.933,1.5-1.9,2.767-2.9,3.8h0.3c1.5-1,2.733-2.333,3.7-4C3.233-7.983,3.583-8.033,3.95-8.1
			c-0.3,0.4-0.6,0.783-0.9,1.15c-0.466,0.534-1,1.1-1.6,1.7C-3.017-1.183-6,1.7-7.5,3.4h0.65c1.667-1.7,4.267-4.15,7.8-7.35
			c-1.167,1.733-2.284,3.534-3.35,5.4h0.65l5.9-8.1c0.7-0.133,1.333-0.417,1.9-0.85C5.05-5.7,4.367-4.2,4-3h0.65
			c0.267-0.267,0.533-0.55,0.8-0.85c-1.9,4.9-4.3,8.583-7.2,11.05l0.3,0.65c3.633-2.533,6.3-6.367,8-11.5
			C6.65-3.983,6.767-4.3,6.9-4.6h0.6C7.3-5.633,8.117-7.183,9.95-9.25l0.3,1.75c-0.667,1.233-1.367,2.317-2.1,3.25
			c0.567,0.2,1.233-0.233,2-1.3L10.3-5.1c-0.066,0.9-0.15,1.75-0.25,2.55c-0.5,0.7-1.033,1.4-1.6,2.1L8.8-0.1
			c0.3-0.333,0.617-0.65,0.95-0.95c-0.6,2.4-1.567,4.517-2.9,6.35L7.8,5.6c1.6-3.2,2.7-5.934,3.3-8.2c1.4-1.633,2.55-3.25,3.45-4.85
			h0.3l0.35-0.6l0.3,1.25C15.733-6.833,15.983-6.867,16.25-6.9z M20.2,10.45c-0.1,0.933-0.3,1.617-0.6,2.05
			c0.066-0.5,0.117-1.017,0.15-1.55l0.05-0.2c0.067-0.7,0.117-1.417,0.15-2.15C20.05,9.233,20.133,9.85,20.2,10.45z M11.45-7.8
			C11.717-8.367,12-9,12.3-9.7c0-0.033,0.017-0.083,0.05-0.15c0.1,0,0.217-0.017,0.35-0.05c-0.333,0.9-0.733,1.7-1.2,2.4
			C11.5-7.6,11.483-7.7,11.45-7.8z M11.25-9.55c-0.067,0.066-0.1,0.133-0.1,0.2c-0.033-0.066-0.05-0.133-0.05-0.2
			C11.133-9.55,11.183-9.55,11.25-9.55z M16.55-10.45c0.133,0.8,0.2,1.467,0.2,2c-0.467,0.167-0.967,0.284-1.5,0.35L16.55-10.45z
			 M5.55-8.4c-0.167,0.167-0.333,0.333-0.5,0.5L5.4-8.35C5.433-8.35,5.483-8.367,5.55-8.4z M-23.65,53.4c1.4-0.5,2.917-1,4.55-1.5
			l-5.7,2.699C-24.433,54.167-24.05,53.767-23.65,53.4z M-16.75,50.75l-2.1,0.5c1.067-0.3,2.117-0.634,3.15-1L-16.75,50.75z"/>
		<path style="fill-rule:evenodd;clip-rule:evenodd;fill:#B17665;" d="M16.25-6.9C16.083-3.467,12.533,2.933,5.6,12.3
			c-8.1,10.633-15.45,16.967-22.05,19c-2.533,0.767-4.45,1.434-5.75,2c0.333,0.867,0.717,1.75,1.15,2.65
			c0.033,0.1,0.083,0.184,0.15,0.25c0,0.1,0.017,0.166,0.05,0.2c0,0.066,0,0.116,0,0.149c0.467,2.3,0.883,3.267,1.25,2.9
			c0.833,1.467,6.783-1.3,17.85-8.3c8.933-5.534,15.1-15.434,18.5-29.7V-2.4c-0.1-0.3-0.2-0.6-0.3-0.9v-1.6h0.3V-7
			C16.583-6.967,16.417-6.933,16.25-6.9z"/>
		<path style="fill-rule:evenodd;clip-rule:evenodd;fill:#C69385;" d="M-22.2,33.3c1.3-0.566,3.217-1.233,5.75-2
			c6.6-2.033,13.95-8.367,22.05-19C12.533,2.933,16.083-3.467,16.25-6.9c-0.267,0.033-0.517,0.066-0.75,0.1l-0.3-1.25l-0.35,0.6
			h-0.3c-0.9,1.6-2.05,3.217-3.45,4.85c-0.6,2.267-1.7,5-3.3,8.2L6.85,5.3c1.333-1.833,2.3-3.95,2.9-6.35
			C9.417-0.75,9.1-0.433,8.8-0.1L8.45-0.45c0.566-0.7,1.1-1.4,1.6-2.1c0.1-0.8,0.184-1.65,0.25-2.55l-0.15-0.45
			c-0.767,1.066-1.433,1.5-2,1.3c0.733-0.933,1.434-2.017,2.1-3.25l-0.3-1.75C8.117-7.183,7.3-5.633,7.5-4.6H6.9
			C6.767-4.3,6.65-3.983,6.55-3.65c-1.7,5.133-4.367,8.967-8,11.5l-0.3-0.65c2.9-2.467,5.3-6.15,7.2-11.05
			C5.183-3.55,4.917-3.267,4.65-3H4c0.367-1.2,1.05-2.7,2.05-4.5c-0.566,0.433-1.2,0.717-1.9,0.85l-5.9,8.1H-2.4
			c1.066-1.867,2.183-3.667,3.35-5.4c-3.534,3.2-6.133,5.65-7.8,7.35H-7.5C-6,1.7-3.017-1.183,1.45-5.25
			c0.6-0.6,1.133-1.167,1.6-1.7c0.3-0.367,0.6-0.75,0.9-1.15C3.583-8.033,3.233-7.983,2.9-7.95c-0.967,1.667-2.2,3-3.7,4h-0.3
			c1-1.033,1.967-2.3,2.9-3.8C1.4-7.683,1.017-7.633,0.65-7.6c-1.066,1.733-2.55,3.067-4.45,4c-1.5,1.2-3.267,2.033-5.3,2.5v-1.25
			c2.867-0.566,5.133-2.183,6.8-4.85c-0.633,0.1-1.267,0.184-1.9,0.25c-1.4,1.567-3.133,2.567-5.2,3h-0.35
			C-8.45-4.883-7.3-5.8-6.3-6.7c-3.2,0.333-6.583,0.617-10.15,0.85C-25.817,6.65-27.733,19.7-22.2,33.3z M5.55-8.4
			C5.483-8.367,5.433-8.35,5.4-8.35L5.05-7.9C5.217-8.067,5.383-8.233,5.55-8.4z M16.55-10.45l-1.3,2.35
			c0.533-0.066,1.033-0.183,1.5-0.35C16.75-8.983,16.683-9.65,16.55-10.45z M11.25-9.55c-0.067,0-0.117,0-0.15,0
			c0,0.066,0.017,0.133,0.05,0.2C11.15-9.417,11.183-9.483,11.25-9.55z M11.45-7.8c0.033,0.1,0.05,0.2,0.05,0.3
			c0.467-0.7,0.867-1.5,1.2-2.4c-0.133,0.033-0.25,0.05-0.35,0.05C12.317-9.783,12.3-9.733,12.3-9.7C12-9,11.717-8.367,11.45-7.8z"
			/>
	</g>
</symbol>
<symbol  id="Piggy_x5F_eyespot" viewBox="-74.95 -33 74.95 66">
	<g id="Layer_1_13_">
		<path style="fill-rule:evenodd;clip-rule:evenodd;fill:#C69385;" d="M-63.15,17.05c-0.233,0-0.449,0-0.649,0l1.25-0.6
			L-63.15,17.05z M-56.45,28.9l0.3,0.3c-2.966,1.066-6.05,2.017-9.25,2.85V33c3.634-0.4,7.351-1.25,11.15-2.55l0.35,0.35
			c0.834-0.434,1.9-0.966,3.2-1.6h1.55v0.3l-2.55,1.95c0.434,0.2,0.867,0.3,1.3,0.3h0.301c0.633,0.434,1.283,0.65,1.949,0.65
			l0.95-0.95l0.65,0.6V32.4c0.399,0.199,0.916,0.3,1.55,0.3c0-0.2,0.117-0.3,0.35-0.3h0.3c0.633-0.434,1.383-0.967,2.25-1.601
			l0.3-0.35l-0.3,0.649c-0.433,0.634-0.867,1.167-1.3,1.601c0.633,0,1.383-0.101,2.25-0.3c0.2-0.233,0.417-0.351,0.65-0.351h0.3
			l3.2-1.899l0.65,0.3v0.35c-0.433,0.434-0.867,0.851-1.3,1.25c0.433,0,0.867,0,1.3,0c0.1-0.033,0.2-0.05,0.3-0.05
			c2.033-0.4,4.05-0.8,6.05-1.2c4.533-1.233,8.567-2.733,12.1-4.5c0.8-0.4,1.566-0.816,2.3-1.25c6.167-3.833,10.517-8.833,13.05-15
			C-1.283,7.083-0.433,3.9,0,0.5C0-1,0-2.6,0-4.3c0-4.267-0.85-8.2-2.55-11.8c-0.434-0.867-0.967-1.833-1.6-2.9
			c-0.633-0.967-1.317-1.883-2.05-2.75c-1.433-1.633-3.05-3.05-4.85-4.25c-4.6-2.967-10.483-4.45-17.65-4.45c-0.433,0-0.75,0-0.95,0
			c-2.333-1.7-4.567-2.55-6.7-2.55l-1.3,0.3c1.3,1.267,3,2.017,5.1,2.25c-1.9,0.2-3.6,0.3-5.1,0.3c-5.1-1.267-8.284-1.9-9.55-1.9
			c-1.5,0-2.25,0.2-2.25,0.6c2.134,0,5.333,0.534,9.6,1.6c-1.733,0.434-3.333,0.75-4.8,0.95c-1.5-0.2-3.633-0.3-6.4-0.3
			c-3.4,0-5.95,0.434-7.65,1.3c-1.467,0.6-2.517,0.917-3.149,0.95c1.566,0,5.699-0.117,12.399-0.35
			c-1.267,0.667-2.434,1.316-3.5,1.95c1.267,0.2,2.334,0.517,3.2,0.95c-0.634,0.2-2.45,0.517-5.45,0.95c-0.2,0-0.416,0-0.649,0
			c-0.4,0.434-0.717,0.75-0.95,0.95c1.066,0,1.717,0.433,1.95,1.3c-1.934,0.633-3.434,1.167-4.5,1.6c-0.4,0.2-0.717,0.2-0.95,0
			l-0.3,0.3c-4.467,1.9-7.45,3.283-8.95,4.15v0.95l8.95-3.85c-0.434,0.667-0.75,1.316-0.95,1.95c-0.233,0.434-0.351,0.75-0.351,0.95
			c-5.533,2.967-9.883,5.733-13.05,8.3c1.9,0.833,5.517-0.017,10.851-2.55c0,0.433-0.117,0.75-0.351,0.95
			C-70.816-5.683-74-3.233-74-1.1c0.634-0.633,3.184-2.017,7.65-4.15h0.3c0.434-0.433,0.967-0.867,1.6-1.3l0.65-0.3
			c1.066-0.633,2.233-1.383,3.5-2.25l-2.55,1.9l1.3-0.3c-0.434,1.067-1.283,1.6-2.55,1.6l-0.65,0.3c-0.434,1.7-0.75,3.2-0.95,4.5
			C-69.1,0.6-71.866,2.083-74,3.35V4.3c0.634,0.233,3.4-0.833,8.3-3.2c-0.233,0.867-0.233,1.717,0,2.55
			c0.634-0.2,1.584-0.617,2.851-1.25c2.767-1.066,4.683-1.5,5.75-1.3C-61.134,3.467-64,4.967-65.7,5.6c0,0.633,0,1.167,0,1.6
			c-3.2,1.9-5.434,3.283-6.7,4.15c0.834,0.2,2.101-0.017,3.801-0.65v-0.65c4.899-2.133,7.983-3.417,9.25-3.85l-0.95,0.65
			c-1.5,1.5-3.101,2.566-4.8,3.2c0,0.434,0,0.75,0,0.95c0.233,0.867,0.449,1.717,0.649,2.55c1.934-1.066,3.75-1.7,5.45-1.9v0.3
			c-2.134,1.5-3.733,2.566-4.8,3.2c0,0.2,0.1,0.517,0.3,0.95c-1.066,0.433-2.017,0.867-2.85,1.3l0.3,0.65
			c0.233,0,0.55-0.117,0.95-0.35l0.649-0.3c0.233,0,0.667-0.117,1.3-0.35c0,0.667,0.101,1.1,0.301,1.3
			c5.533-1.7,8.517-2.667,8.949-2.9c-0.433,0.667-1.716,1.633-3.85,2.9s-3.4,2.117-3.8,2.55c0,0.2,0,0.417,0,0.65
			c-0.867,0.2-1.717,0.3-2.55,0.3v0.65c1.033,0.2,2.199,0.3,3.5,0.3C-59.533,25.367-58.15,27.4-56.45,28.9z"/>
	</g>
</symbol>
<symbol  id="Piggy_x5F_hair01" viewBox="0 0 82.466 9.823">
	<g id="Layer_1_5_">
		<path style="fill-rule:evenodd;clip-rule:evenodd;fill:#824D40;" d="M2.1,0.55C1.4,0.383,0.7,0.2,0,0c0.5,0.267,1,0.533,1.5,0.8
			c1.667,0.867,3.383,1.65,5.15,2.35c1.434,0.7,3.55,1.4,6.35,2.1c2.1,0.5,4.45,0.983,7.05,1.45c4.434,0.7,8.767,1.283,13,1.75
			C35.117,8.65,37.2,8.833,39.3,9c0.5,0.067,1,0.117,1.5,0.15h7.7c7.767,1.167,16.683,0.817,26.75-1.05
			c10.067-1.633,9.6-2.1-1.4-1.4C62.583,7.4,52.967,7.283,45,6.35c-2.267-0.2-4.4-0.4-6.4-0.6c-5.167-0.467-9.6-0.867-13.3-1.2
			C20.233,4.55,12.5,3.217,2.1,0.55z"/>
	</g>
</symbol>
<symbol  id="Piggy_x5F_hair02" viewBox="0 0 66.45 23.2">
	<g id="Layer_1_4_">
		<path style="fill-rule:evenodd;clip-rule:evenodd;fill:#824D40;" d="M3.85,3.85c0.7,0.467,1.4,1.05,2.1,1.75
			c4.233,3.033,10.917,6.316,20.05,9.85c7.267,2.833,14.8,4.883,22.6,6.15c5.8,0.967,11.75,1.5,17.85,1.6
			c-6.5-1.034-12.3-2.2-17.4-3.5c-1.933-0.467-3.75-0.95-5.45-1.45c-6.333-1.633-11.483-3.15-15.45-4.55
			C25.083,13,15.783,8.467,0.25,0.1C0.183,0.067,0.1,0.033,0,0c0.067,0.067,0.133,0.117,0.2,0.15C1.3,1.283,2.517,2.517,3.85,3.85z"
			/>
	</g>
</symbol>
<symbol  id="Piggy_x5F_head" viewBox="-0.436 -97 203.167 194.425">
	<g id="Layer_1_14_">
		<path style="fill-rule:evenodd;clip-rule:evenodd;fill:#D5B2A9;" d="M189.625-59.675c-15.856-1.271-39.165-4.229-69.925-8.875
			c3.033,2.267,5.15,3.783,6.35,4.55l-0.65,0.6c-1.733-0.9-3.933-2.25-6.6-4.05c1.267,1.267,3.05,3.15,5.35,5.65
			c-3.333-2-6.55-4.517-9.65-7.55c-0.3-0.033-0.6-0.066-0.9-0.1c-0.064,0-0.115-0.017-0.15-0.05c1.8,1.801,3.017,3.518,3.65,5.15
			c-0.567-0.3-2.833-2.15-6.8-5.55c-0.6-0.067-1.2-0.133-1.8-0.2h0.3c-0.233-0.066-0.466-0.117-0.7-0.15
			c-0.233-0.067-0.45-0.133-0.65-0.2c0.267,0.2,0.55,0.383,0.85,0.55c2.467,1.566,3.7,2.783,3.7,3.65c0,0.2-0.217,0.517-0.65,0.95
			c-0.2-0.267-0.75-0.784-1.65-1.55c-1.3-1-3.284-2.483-5.95-4.45c-0.1,0-0.217-0.017-0.35-0.05c-1.533-0.333-3.066-0.683-4.6-1.05
			c0.034,0.033,0.067,0.066,0.1,0.1c2.633,1.5,4.517,2.75,5.65,3.75c0.067,0.033,0.133,0.083,0.2,0.15c0.5,0.267,1,0.55,1.5,0.85
			l-0.65,0.65c-0.267-0.1-0.533-0.2-0.8-0.3c-5.267-1.767-10.117-3.433-14.55-5c0.667,0.733,1,1.434,1,2.1l0.35,1.3
			c-2.767-2.267-5.4-4.167-7.9-5.7c-2.233-0.8-4.333-1.567-6.3-2.3c-0.933-0.167-1.85-0.333-2.75-0.5
			c-0.333-0.034-0.667-0.083-1-0.15c0.733,0.4,1.417,0.767,2.05,1.1c1.433,0.667,3.216,1.483,5.35,2.45
			c4.034,1.7,6.267,3.183,6.7,4.45l-8.1-3.9c0.3,0.367,0.55,0.717,0.75,1.05c-2.733-0.7-6.367-2.05-10.9-4.05
			c0.167,0.2,0.3,0.367,0.4,0.5l-0.35,0.35c-2.333-1.067-4.517-2.1-6.55-3.1c-0.867-0.066-1.717-0.133-2.55-0.2
			c2.333,1.167,3.566,1.95,3.7,2.35c-2.167-0.833-4.05-1.667-5.65-2.5c-0.333,0-0.65-0.017-0.95-0.05
			c2.9,1.733,4.35,3.117,4.35,4.15l-0.65,0.6c-2.667-1.533-5.833-3.167-9.5-4.9c-1.1,0-2.167,0-3.2,0c0.3,0.3,0.5,0.55,0.6,0.75
			c-0.533-0.233-1.033-0.467-1.5-0.7c-1.033,0.033-2.017,0.067-2.95,0.1c0.733,0.6,1.267,1.133,1.6,1.6
			c-1.233-0.5-2.417-0.983-3.55-1.45c-0.367,0.033-0.717,0.067-1.05,0.1c-1.471,2.302-5.546,10.102-12.225,23.4
			c-4.989,9.941-9.139,20.05-12.45,30.325C3.546,7.492-2.129,36.05,0,60.65c0.506,15.732,2.998,27.991,7.475,36.774
			C15.578,97.142,23.136,97,30.15,97c4.767,0,9.533-0.15,14.3-0.45c5.066-0.3,10.15-0.767,15.25-1.399
			c2.333-0.301,4.683-0.65,7.05-1.051c6.967-1.133,13.833-2.649,20.6-4.55c0.1-0.033,0.217-0.066,0.35-0.1
			c4.267,0.267,8.433,0.684,12.5,1.25c-2.3-1.334-5.583-2.15-9.85-2.45c0.767-0.3,1.55-0.65,2.35-1.05
			c2.2,0.434,5.233,0.649,9.1,0.649l6.4-0.649c-5.233-0.601-9.317-1.05-12.25-1.351c1.2-0.5,2.417-1.033,3.65-1.6
			c-0.1-0.066-0.2-0.116-0.3-0.15c0.6,0,1.217-0.033,1.85-0.1c3.633-0.434,7.033-1.7,10.2-3.8l1-0.351h-4.6
			c1.133-0.833,2.233-1.783,3.3-2.85c0.267-0.267,0.55-0.55,0.85-0.85c0.133-0.034,0.267-0.084,0.4-0.15
			c-0.1,0.033-0.2,0.05-0.3,0.05c0.533-0.533,1.067-1.066,1.6-1.6c0.633-0.634,1.267-1.283,1.9-1.95c1.3-1.7,2.683-3.5,4.15-5.4
			c1.067-1.699,2.133-3.399,3.2-5.1c1.267-2.333,2.433-4.884,3.5-7.65c0.033-0.033,0.066-0.083,0.1-0.149
			c0.367-0.834,0.65-1.851,0.85-3.05c0.233-0.434,0.45-0.867,0.65-1.301c0.233-1.033,0.55-2.199,0.95-3.5
			c0.233-0.433,0.45-0.966,0.65-1.6c0.2-0.833,0.417-1.783,0.65-2.85c0.2-1.067,0.833-2.884,1.9-5.45l0.35-0.3
			c0.833-2.334,2.533-6.267,5.1-11.8c1.067-2.133,3.3-5.65,6.7-10.55c0.8-1.1,1.617-2.133,2.45-3.1c4.5-5.167,9.466-8.483,14.9-9.95
			c-2.533-1.2-5.25-4.5-8.15-9.9c-3.167-5.733-4.017-13.817-2.55-24.25c1.3,4.267,2.8,8.517,4.5,12.75
			c2.087,5.632,4.846,10.607,8.275,14.925c-2.117-4.657-3.175-8.582-3.175-11.775l0.6-4.15c0,0.233,2.233,4.917,6.7,14.05
			c1.7,3.367,2.9,5.9,3.6,7.6c0.267,0.033,0.533,0.067,0.8,0.1l-0.25-1.25l0.35-15l1.6,5.75c1.167,4.833,1.717,8.533,1.65,11.1
			c7.03,1.669,14.68,5.686,22.95,12.05c0.313,0.248,0.63,0.498,0.95,0.75l0.95,0.95c-0.153-0.703-0.345-1.403-0.575-2.1
			C205.876,3.987,202.477-20.021,189.625-59.675z M58.1,29.75c-0.233,0-0.45,0-0.65,0l1.25-0.6L58.1,29.75z M99.1-71.2
			c-0.934-0.533-1.833-1.1-2.7-1.7c-0.8-0.167-1.6-0.333-2.4-0.5C95.8-72.667,97.5-71.933,99.1-71.2z"/>
		<path style="fill-rule:evenodd;clip-rule:evenodd;fill:#C18C80;" d="M171.4,0c-0.7-1.7-1.9-4.233-3.6-7.6
			c-4.466-9.133-6.7-13.816-6.7-14.05l-0.6,4.15c0,3.193,1.058,7.118,3.175,11.775c-3.429-4.318-6.188-9.293-8.275-14.925
			c-1.7-4.233-3.2-8.483-4.5-12.75c-1.467,10.433-0.617,18.517,2.55,24.25c2.9,5.4,5.617,8.7,8.15,9.9
			c0.267,0.133,0.533,0.233,0.8,0.3l5.5-0.5c0.067,0.067,0.15,0.117,0.25,0.15h3.5C171.583,0.5,171.5,0.267,171.4,0z M172.2,0.1
			l0.1,0.65l3.2,0.65c0.033-0.233,0.05-0.467,0.05-0.7c0.067-2.567-0.483-6.267-1.65-11.1l-1.6-5.75l-0.35,15L172.2,0.1z
			 M193.35-61.15l-1.9-1.3l1.6,1.3H193.35z M189.625-59.675c1.197,0.105,2.356,0.197,3.475,0.275l-4.5-3.05l-0.65-1.6
			c-5.733-2.333-11.267-4.767-16.6-7.3c-8.934-4.066-26.4-8.933-52.4-14.6c-13.2-3.167-22.65-5.316-28.35-6.45
			c-3.067-0.6-6.2-1.25-9.4-1.95c-2.333-0.5-4.717-1.033-7.15-1.6c-3-0.6-8.966-0.95-17.9-1.05l6.375,0.75
			c-4.25-0.395-7.941,1.139-11.075,4.6c-3.235,3.57-6.485,7.87-9.75,12.9c0.333-0.033,0.683-0.067,1.05-0.1
			c1.133,0.467,2.317,0.95,3.55,1.45c-0.333-0.467-0.867-1-1.6-1.6c0.933-0.033,1.917-0.067,2.95-0.1
			c0.467,0.233,0.967,0.467,1.5,0.7c-0.1-0.2-0.3-0.45-0.6-0.75c1.034,0,2.1,0,3.2,0c3.667,1.733,6.833,3.367,9.5,4.9l0.65-0.6
			c0-1.033-1.45-2.417-4.35-4.15c0.3,0.033,0.617,0.05,0.95,0.05c1.6,0.833,3.483,1.667,5.65,2.5c-0.133-0.4-1.367-1.183-3.7-2.35
			c0.833,0.066,1.683,0.133,2.55,0.2c2.033,1,4.217,2.033,6.55,3.1l0.35-0.35c-0.1-0.133-0.233-0.3-0.4-0.5
			c4.533,2,8.167,3.35,10.9,4.05c-0.2-0.333-0.45-0.684-0.75-1.05l8.1,3.9c-0.433-1.267-2.667-2.75-6.7-4.45
			c-2.133-0.967-3.917-1.783-5.35-2.45c-0.633-0.333-1.317-0.7-2.05-1.1c0.333,0.067,0.667,0.117,1,0.15
			c0.9,0.167,1.817,0.333,2.75,0.5c1.967,0.733,4.067,1.5,6.3,2.3c2.5,1.533,5.133,3.433,7.9,5.7l-0.35-1.3
			c0-0.667-0.333-1.367-1-2.1c4.433,1.567,9.283,3.233,14.55,5c0.267,0.1,0.534,0.2,0.8,0.3l0.65-0.65c-0.5-0.3-1-0.583-1.5-0.85
			c-0.067-0.067-0.133-0.117-0.2-0.15c-1.133-1-3.017-2.25-5.65-3.75c-0.033-0.034-0.066-0.067-0.1-0.1
			c1.534,0.367,3.067,0.717,4.6,1.05c0.133,0.033,0.25,0.05,0.35,0.05c2.667,1.966,4.65,3.45,5.95,4.45
			c0.9,0.767,1.45,1.283,1.65,1.55c0.433-0.434,0.65-0.75,0.65-0.95c0-0.867-1.233-2.083-3.7-3.65c-0.3-0.167-0.583-0.35-0.85-0.55
			c0.2,0.067,0.417,0.133,0.65,0.2c0.233,0.033,0.467,0.083,0.7,0.15h-0.3c0.6,0.067,1.2,0.133,1.8,0.2
			c3.967,3.4,6.233,5.25,6.8,5.55c-0.633-1.632-1.85-3.349-3.65-5.15c0.035,0.033,0.085,0.05,0.15,0.05c0.3,0.034,0.6,0.067,0.9,0.1
			c3.1,3.033,6.317,5.55,9.65,7.55c-2.3-2.5-4.083-4.383-5.35-5.65c2.667,1.8,4.867,3.15,6.6,4.05l0.65-0.6
			c-1.2-0.767-3.316-2.283-6.35-4.55C150.46-63.903,173.769-60.945,189.625-59.675z M99.1-71.2c-1.6-0.733-3.3-1.466-5.1-2.2
			c0.8,0.167,1.6,0.333,2.4,0.5C97.267-72.3,98.167-71.733,99.1-71.2z"/>
	</g>
</symbol>
<symbol  id="Piggy_x5F_headcomp" viewBox="0.014 -126.2 203.167 194.425">
	<g id="Layer_1_23_">
		
			<use xlink:href="#Piggy_x5F_head"  width="203.167" height="194.425" x="-0.436" y="-97" transform="matrix(1 0 0 1 0.4502 -29.2002)" style="overflow:visible;"/>
	</g>
</symbol>
<symbol  id="Piggy_x5F_leg_x5F_f" viewBox="-41.229 -124.3 73.755 131.45">
	<g id="Layer_1_2_">
		<path style="fill-rule:evenodd;clip-rule:evenodd;fill:#D5B2A9;" d="M32.3,0.75c0.034,0,0.083-0.017,0.15-0.05l0.05-0.05
			l-0.05-0.2l-6.2-21.7c-0.967-3.333-1.95-6.667-2.95-10c-0.367-1.2-0.816-2.35-1.35-3.45c-1.567-3.267-2.85-6.6-3.85-10
			c-0.2-0.667-0.383-1.333-0.55-2c-0.033-0.066-0.05-0.15-0.05-0.25l-0.05-0.1c-0.333-1.367-0.55-2.233-0.65-2.6
			c-0.167-0.3-0.333-0.617-0.5-0.95c-3.933-11.066-5.35-22.5-4.25-34.3c0.2-2.267,0.383-4.533,0.55-6.8l0.05-1l0.3-0.3
			c-0.833-0.233-3.483-1.083-7.95-2.55c-0.133-0.034-0.267-0.067-0.4-0.1c-1.167,1.4-2.633,3.233-4.4,5.5h-0.65
			c1.3-2.367,2.6-4.283,3.9-5.75c-0.367-0.033-0.733-0.083-1.1-0.15c-1.267,1.867-2.3,3.2-3.1,4c0-0.2-0.217-0.417-0.65-0.65
			c0-0.4,0.783-1.583,2.35-3.55c-0.367,0-0.733-0.017-1.1-0.05c-0.434-0.034-0.867-0.05-1.3-0.05
			c-1.733,2.467-2.783,4.117-3.15,4.95c0.533-1.767,1.2-3.417,2-4.95c-0.733,0.033-1.45,0.067-2.15,0.1
			c-0.333,0.533-0.7,1.083-1.1,1.65c-1.7,2.767-2.55,4.25-2.55,4.45l-0.35,0.95c-0.633-0.4-0.95-0.716-0.95-0.95l2.55-5.4
			C-7.083-95.683-7-95.833-6.9-96c-0.733,0.133-1.45,0.283-2.15,0.45l-7.35,17.2c-0.633,1.934-1.367,4.067-2.2,6.4
			c-1.5,4.067-2.75,7.983-3.75,11.75c-0.1,0.434-0.2,0.867-0.3,1.3c-1.133,4.467-1.917,8.733-2.35,12.8
			c-0.333,2.8-0.517,5.533-0.55,8.2l-0.1,0.4c0,0.3,0.033,0.7,0.1,1.2c0,0.4,0.017,0.8,0.05,1.2c-0.167-0.467-0.317-0.95-0.45-1.45
			c-1.066-3.833-1.716-6.917-1.95-9.25h-0.6l-0.35,3.5c0,3.433,1.217,7.383,3.65,11.85c0.067,1.3,0.167,2.617,0.3,3.95l-1.7-5.9
			h-0.3l-0.35,2.55c0,1.067,0.85,3.733,2.55,8c0.034,0.133,0.083,0.25,0.15,0.35c0.167,2.133,0.333,4.283,0.5,6.45
			c-0.9-2.9-1.967-6.45-3.2-10.65h-0.3l0.3,2.9c0,0.633,0.367,2.2,1.1,4.7c-0.1,0.033-0.15,0.267-0.15,0.7
			c0,0.267,0.017,0.533,0.05,0.8c-0.833-1.933-1.483-3.267-1.95-4h-0.3c0.667,2.4,1.5,4.583,2.5,6.55
			c0.033,0.233,0.067,0.45,0.1,0.65c-0.7-1.3-1.25-2.417-1.65-3.35h-0.65v2.25c1.267,2.767,2.217,4.883,2.85,6.35
			c0.067,0.1,0.133,0.2,0.2,0.3c0.267,1.033,0.633,2.167,1.1,3.4c-0.4-0.8-0.934-1.6-1.6-2.4h-0.3l2.55,6.05h0.3
			c0-0.534-0.066-1.083-0.2-1.65c0.133,0.367,0.267,0.717,0.4,1.05c0.133,1.533,0.267,3.083,0.4,4.65
			c-0.933-1.767-1.55-3.533-1.85-5.3H-25c0.667,2.667,1.533,4.667,2.6,6c0.066,1.033,0.15,2.066,0.25,3.1
			C1.183,7.35,19.333,5.25,32.3,0.75z"/>
		<path style="fill-rule:evenodd;clip-rule:evenodd;fill:#C18C80;" d="M32.45,0.7c-0.067,0.033-0.117,0.05-0.15,0.05l0.1,0.35
			C32.4,0.967,32.417,0.833,32.45,0.7z M32.45,0.45c0.367-7.534-0.6-14.767-2.9-21.7L19.45-46.8l-2-0.25l0.05,0.1
			c0,0.1,0.017,0.184,0.05,0.25c0.167,0.667,0.35,1.333,0.55,2c1,3.4,2.283,6.733,3.85,10c0.533,1.1,0.983,2.25,1.35,3.45
			c1,3.333,1.983,6.667,2.95,10L32.45,0.45z M-28.85-94.3l-6.35,15.95c-2.167,6.467-3.716,11.867-4.65,16.2
			c-2.4,12.133-1.667,24.45,2.2,36.95c2.5,9.867,6.4,19.383,11.7,28.55c1.034,1.433,2.267,2.667,3.7,3.7
			c0.033,0.034,0.067,0.067,0.1,0.1c0-0.033,0-0.066,0-0.1c-0.1-1.033-0.184-2.066-0.25-3.1c-1.067-1.333-1.934-3.333-2.6-6h0.65
			c0.3,1.767,0.917,3.533,1.85,5.3c-0.133-1.567-0.267-3.117-0.4-4.65c-0.133-0.333-0.267-0.684-0.4-1.05
			c0.133,0.567,0.2,1.117,0.2,1.65h-0.3l-2.55-6.05h0.3c0.667,0.8,1.2,1.6,1.6,2.4c-0.467-1.233-0.833-2.367-1.1-3.4
			c-0.067-0.1-0.133-0.2-0.2-0.3c-0.633-1.467-1.583-3.583-2.85-6.35v-2.25h0.65c0.4,0.933,0.95,2.05,1.65,3.35
			c-0.033-0.2-0.067-0.417-0.1-0.65c-1-1.967-1.833-4.15-2.5-6.55h0.3c0.467,0.733,1.117,2.067,1.95,4
			c-0.033-0.267-0.05-0.533-0.05-0.8c0-0.434,0.05-0.667,0.15-0.7c-0.733-2.5-1.1-4.066-1.1-4.7l-0.3-2.9h0.3
			c1.233,4.2,2.3,7.75,3.2,10.65c-0.167-2.167-0.333-4.317-0.5-6.45c-0.067-0.1-0.117-0.217-0.15-0.35c-1.7-4.267-2.55-6.933-2.55-8
			l0.35-2.55h0.3l1.7,5.9c-0.133-1.333-0.233-2.65-0.3-3.95c-2.433-4.466-3.65-8.417-3.65-11.85l0.35-3.5h0.6
			c0.233,2.333,0.883,5.417,1.95,9.25c0.133,0.5,0.284,0.983,0.45,1.45c-0.033-0.4-0.05-0.8-0.05-1.2c-0.067-0.5-0.1-0.9-0.1-1.2
			l0.1-0.4c0.033-2.667,0.216-5.4,0.55-8.2c0.433-4.066,1.217-8.333,2.35-12.8c0.1-0.434,0.2-0.867,0.3-1.3
			c1-3.767,2.25-7.683,3.75-11.75c0.833-2.333,1.567-4.466,2.2-6.4l7.35-17.2L-28.85-94.3z"/>
		<path style="fill-rule:evenodd;clip-rule:evenodd;fill:#824D40;" d="M4.6-95.65c0.133,0.033,0.267,0.066,0.4,0.1
			c4.467,1.466,7.117,2.316,7.95,2.55c3.633-7.667,6.617-16.5,8.95-26.5c-4.033,1.5-6.583,2.567-7.65,3.2
			c-5.533,3.833-10.433,7.867-14.7,12.1l-0.95-4.15l-7.65,12.8c0.7-0.167,1.417-0.317,2.15-0.45c2-3.367,3.617-5.35,4.85-5.95
			l-0.3,0.35c-0.333,1.5-1.133,3.283-2.4,5.35c0.7-0.033,1.417-0.067,2.15-0.1c1.6-3.2,3.7-5.8,6.3-7.8l0.35,0.3
			c-2.3,3.033-4.133,5.533-5.5,7.5c0.434,0,0.867,0.017,1.3,0.05c0.367,0.033,0.733,0.05,1.1,0.05c0.066-0.067,0.133-0.15,0.2-0.25
			c1.7-2.133,2.983-3.317,3.85-3.55L4.65-99.7c-0.833,1.4-1.6,2.617-2.3,3.65c0.367,0.066,0.733,0.117,1.1,0.15
			c1.267-1.367,2.517-2.317,3.75-2.85C6.767-98.283,5.9-97.25,4.6-95.65z"/>
		<path style="fill-rule:evenodd;clip-rule:evenodd;fill:#C69385;" d="M0.95-96.25C-0.617-94.283-1.4-93.1-1.4-92.7
			c0.433,0.233,0.65,0.45,0.65,0.65c0.8-0.8,1.833-2.133,3.1-4c0.7-1.034,1.467-2.25,2.3-3.65L5-100.05
			c-0.867,0.233-2.15,1.417-3.85,3.55C1.083-96.4,1.017-96.317,0.95-96.25z M4.6-95.65c1.3-1.6,2.167-2.633,2.6-3.1
			c-1.233,0.533-2.483,1.483-3.75,2.85c-1.3,1.467-2.6,3.383-3.9,5.75H0.2C1.967-92.417,3.433-94.25,4.6-95.65z M-2.6-96.35
			c-0.8,1.533-1.467,3.184-2,4.95c0.367-0.833,1.417-2.483,3.15-4.95c1.367-1.967,3.2-4.467,5.5-7.5l-0.35-0.3
			C1.1-102.15-1-99.55-2.6-96.35z M-4.75-96.25c1.267-2.067,2.067-3.85,2.4-5.35l0.3-0.35c-1.233,0.6-2.85,2.583-4.85,5.95
			c-0.1,0.167-0.184,0.317-0.25,0.45l-2.55,5.4c0,0.233,0.317,0.55,0.95,0.95l0.35-0.95c0-0.2,0.85-1.684,2.55-4.45
			C-5.45-95.167-5.083-95.717-4.75-96.25z"/>
		<path style="fill-rule:evenodd;clip-rule:evenodd;fill:#64392F;" d="M-1.4-108.35l-0.95-15.95c-1.267,1.066-2.433,2.133-3.5,3.2
			c-9.367,7.434-17.033,16.367-23,26.8l19.8-1.25L-1.4-108.35z"/>
	</g>
</symbol>
<symbol  id="Piggy_x5F_legshadow_x5F_b" viewBox="-22.25 -43.5 44.55 86.95">
	<g id="Layer_1_19_">
		<path style="fill-rule:evenodd;clip-rule:evenodd;fill:#C18C80;" d="M8.1,42c1.133-1.767,2.133-3.75,3-5.95
			c0.267,0.167,0.533,0.316,0.8,0.45c0.133-0.233,0.267-0.467,0.4-0.7c0.467-3.767,1.65-10.267,3.55-19.5l0.35,3.5l-2.1,12.7
			c0.9-1.8,1.767-3.717,2.6-5.75l0.75-9.8l-1.25-6.4h0.3c1.267,3.833,1.9,7.35,1.9,10.55c0,0.4,0,0.8,0,1.2
			c0.4-1.133,0.783-2.3,1.15-3.5c-0.133-1.233-0.3-2.6-0.5-4.1c-0.633-4.467-1.583-8.184-2.85-11.15h0.3
			c2.567,5.733,3.95,9.034,4.15,9.9c0.067,0.2,0.117,0.566,0.15,1.1c0.067-0.167,0.117-0.333,0.15-0.5
			c0.033-0.1,0.066-0.216,0.1-0.35l-2.3-5.35c-1.7-3.833-2.55-6.817-2.55-8.95h0.3c0.233,1.067,1.3,3.934,3.2,8.6
			c0.7,1.633,1.267,3.017,1.7,4.15c0.3-1.467,0.533-2.95,0.7-4.45c-1.1-1.767-2.434-4.217-4-7.35c-2.333-4.467-3.5-7.117-3.5-7.95
			c0-1.066,0.1-1.283,0.3-0.65c3.467,6.4,5.917,11.05,7.35,13.95c0.033-0.3,0.05-0.6,0.05-0.9c-3.433-8.367-6.216-14.216-8.35-17.55
			c1.066,1.3,2.983,4.5,5.75,9.6C20.767-1.117,21.633,0.6,22.3,2c-0.066-1.433-0.2-2.867-0.4-4.3c-4.233-6.733-7.833-11.8-10.8-15.2
			c2.933,2.367,6.45,6.85,10.55,13.45c-0.566-2.934-1.433-5.867-2.6-8.8c-0.966-1.133-1.917-2.367-2.85-3.7
			c-0.934-1.233-1.8-2.383-2.6-3.45c-0.633-0.633-1.267-1.3-1.9-2c-3.8-4.667-6.667-7.95-8.6-9.85h0.65
			c1.133,1.333,3.283,3.633,6.45,6.9c1.566,1.367,3.25,3.083,5.05,5.15c0.367,0.4,0.75,0.783,1.15,1.15
			c-0.833-1.533-1.75-3.067-2.75-4.6c-0.7-1.1-2.8-4.133-6.3-9.1C0.983-37.55-3.433-41.267-5.9-43.5l-16.35,5.05
			c0.458,0.348,1.125,0.865,2,1.55c0.624,2.568,4.182,8.801,10.675,18.7C-3.09-8.309,2.968,8.675,8.6,32.75L7.7,42
			c-0.133,0.3-0.267,0.583-0.4,0.85c-0.1,0.233-0.216,0.434-0.35,0.601c0.233-0.267,0.466-0.55,0.7-0.851
			c0.033-0.033,0.067-0.083,0.1-0.149c0.067-0.066,0.133-0.134,0.2-0.2C7.983,42.184,8.033,42.1,8.1,42z M8.825,35.4
			c0.169-1.254,0.294-2.154,0.375-2.7C9.033,36,8.683,38.634,8.15,40.6c0.252-1.955,0.461-3.572,0.625-4.85
			c0.014,0.265,0.022,0.531,0.025,0.8C8.808,36.156,8.816,35.773,8.825,35.4z M9.225,23.2L9.5,23.65L9.35,25l-0.2-1.95l0.025,0.025
			V23.1L9.2,23.125v0.025l0.025,0.025V23.2z M10.45-22.6h0.65c4.467,5.3,7.433,10.083,8.9,14.35
			C15.333-15.483,12.15-20.267,10.45-22.6z"/>
	</g>
</symbol>
<symbol  id="Piggy_x5F_mouth" viewBox="-49 -9.586 98 19.186">
	<g id="Layer_1_8_">
		<path style="fill-rule:evenodd;clip-rule:evenodd;fill:#824D40;" d="M-49,9.6c6.3-2.333,15.25-5.1,26.85-8.3
			c11.467-2.966,21-4.983,28.6-6.05c7.466-1.067,14.1-1.5,19.9-1.3C32.15-5.617,39.7-5.083,49-4.45
			c-6.133-2.966-13.517-4.667-22.15-5.1c-8.6-0.2-17.633,0.433-27.1,1.9c-9.6,1.7-18.05,3.833-25.35,6.4
			C-33.067,1.283-40.867,4.9-49,9.6z"/>
	</g>
	<g id="Layer_3_1_">
	</g>
	<g id="Layer_2_2_">
	</g>
</symbol>
<symbol  id="Piggy_x5F_nose" viewBox="-14.2 -43.9 28.399 87.75">
	<g id="Layer_1_6_">
		<path style="fill-rule:evenodd;clip-rule:evenodd;fill:#A97765;" d="M-5.85-25.7c-0.433,1.067-0.75,2.233-0.95,3.5
			C-6.4-10.7-4.6-1.45-1.4,5.55c3.833,9.8,6.283,8.85,7.35-2.85C3.383-12.4-0.55-21.867-5.85-25.7z"/>
		<path style="fill-rule:evenodd;clip-rule:evenodd;fill:#E0C6C0;" d="M11.95,5.25C8.117-14.117,1.1-29.533-9.1-41l-1.6-1.3
			l-2.55-0.95c-0.433-0.2-0.75-0.417-0.95-0.65l0.65,1.6l0.6,14.7l0.35-5.45c0.434,14.7,1.817,28.533,4.15,41.5L-2.7,31.4
			c0.4,1.066,0.717,2.133,0.95,3.199c1.267,1.934,2.533,3.534,3.8,4.801c1.3,1.466,2.8,2.733,4.5,3.8
			c0.633,0.233,1.367,0.45,2.2,0.649C14.717,37.684,15.783,24.817,11.95,5.25z M-5.85-25.7c5.3,3.833,9.233,13.3,11.8,28.4
			C4.883,14.4,2.433,15.35-1.4,5.55c-3.2-7-5-16.25-5.4-27.75C-6.6-23.467-6.283-24.633-5.85-25.7z"/>
	</g>
</symbol>
<symbol  id="Piggy_x5F_spot" viewBox="-60 -27.783 93.2 56.94">
	<g id="Layer_1_17_">
		<path style="fill-rule:evenodd;clip-rule:evenodd;fill:#D5B2A9;" d="M-46.05,22.55l3.9-0.2L-43.4,22
			C-44.333,22.267-45.217,22.45-46.05,22.55z M-16.6-24.25c2.767-0.2,5.533-0.633,8.3-1.3l-1.3-0.3l-7.3,0.65l-0.35,0.65
			L-16.6-24.25z"/>
		<path style="fill-rule:evenodd;clip-rule:evenodd;fill:#C69385;" d="M-46.05,22.55c0.833-0.1,1.716-0.283,2.65-0.55l1.25,0.35
			L-46.05,22.55c0.1,0.067,0.2,0.133,0.3,0.2c1.633-0.067,3.483-0.1,5.55-0.1h3.2c0.2,0.2,2,0.417,5.4,0.65v0.65
			c-3.033,0.2-6.533,0.466-10.5,0.8c1.8,0.9,3.65,1.667,5.55,2.3c5.267-0.733,12.667-1.45,22.2-2.15l7.95-0.35
			c5.467-0.3,10.733-0.6,15.8-0.9c1.934-0.5,3.867-1.05,5.8-1.65h-2.15l-1.6,0.35V21.7l1.35-0.8c-1,0.033-1.65-0.017-1.95-0.15
			l13.2-2.5c0.133-0.1,0.267-0.2,0.4-0.3l0.1-0.1h0.1c0.067-0.067,0.15-0.133,0.25-0.2c-3.733,1.4-7.033,1.367-9.9-0.1l0.3-0.95
			h2.55c0,1.467,0.967,2.1,2.9,1.9c1-0.2,2.417-0.5,4.25-0.9c0.267-0.2,0.55-0.417,0.85-0.65c-2.467,0.5-4.5,0.483-6.1-0.05
			l0.35-0.65l1.6-0.95h6c0.333-0.367,0.667-0.733,1-1.1l-2.55,0.15V13.9c-0.4,0-0.767-0.05-1.1-0.15l-2.1,0.3h-3.8L18.5,13.7
			c0.867-0.867,2.483-1.1,4.85-0.7l0.25-0.55l2.85-0.35l3.65,0.2c0.433-0.667,0.816-1.367,1.15-2.1c-0.433,0.433-1.6,0.75-3.5,0.95
			c-1.5,0-2.35,0-2.55,0v-0.6c0.433,0,0.85-0.216,1.25-0.65c0.2-0.2,1.35-0.4,3.45-0.6c-0.2-0.1-0.383-0.216-0.55-0.35
			c0.4-0.4,1-0.617,1.8-0.65H25.2L25.5,7H29l2.25-0.6c0.467,0,0.917,0,1.35,0c0.1-0.533,0.2-1.066,0.3-1.6h-3.55V4.15l0.95-0.5
			c-1.633,0.1-2.7-0.367-3.2-1.4l0.95-0.65c0.333-0.1,0.733-0.2,1.2-0.3H28.7l1.6-0.65l2.25,0.3c0.2,0,0.417,0,0.65,0
			c0-0.733-0.017-1.483-0.05-2.25c-0.066-0.767-0.133-1.517-0.2-2.25l-6.8,0.35v-0.65l1.6-0.6l5.1,0.25
			c-0.033-0.2-0.067-0.4-0.1-0.6c-5.633,0-8.783,0-9.45,0l3.15-0.95c-3.6,0-6.367-0.417-8.3-1.25c0.434-0.433,2.25-0.65,5.45-0.65
			l8.6,0.3c-0.067-0.267-0.133-0.533-0.2-0.8c-3.367-0.3-6.483-0.45-9.35-0.45v-0.95L23.6-9.9h2.85c2.533,0.667,4.367,1.167,5.5,1.5
			c-0.2-0.633-0.4-1.233-0.6-1.8h-3.9l-0.3-0.65c-1.033,0.1-1.9,0.2-2.6,0.3l-0.3-0.6l3.1-0.15l0.1-0.2h3.35
			c-0.267-0.6-0.533-1.183-0.8-1.75l-1.95,0.15l-5.75-0.3l0.35-1.3l6.7,0.3c-0.533-0.833-1.1-1.617-1.7-2.35
			c-0.433-0.067-0.717-0.117-0.85-0.15l-3.2,0.3c-4.667,0-7.434-0.217-8.3-0.65l0.6-0.1l-0.3-0.5l4.3-0.45
			c-0.3-0.167-0.55-0.35-0.75-0.55l0.95-0.3l1.9,0.3c1.033,0,2.233-0.033,3.6-0.1c-0.633-0.566-1.3-1.1-2-1.6
			c-7.733,1.2-12.833,1.35-15.3,0.45c4.5-0.433,9.067-0.933,13.7-1.5c-0.167-0.1-0.333-0.2-0.5-0.3L8.3-21.4
			c0-1.267,1.167-1.783,3.5-1.55c2.967,0.4,4.667,0.5,5.1,0.3h3.05c-0.267-0.133-0.534-0.25-0.8-0.35
			c-0.933-0.367-1.9-0.733-2.9-1.1C6.55-23.6,1.133-23.433,0-23.6c0.267-0.2,1.633-0.45,4.1-0.75c-1.1,0.067-2.467,0.1-4.1,0.1
			C-0.867-24.683-2.15-25-3.85-25.2l-2.2-0.35l4.75-0.6c1.267,0,2.383,0.017,3.35,0.05l0.15-0.05h6
			c-0.633-0.133-1.267-0.25-1.9-0.35h-7.6l-1.2-0.25l-4.85,0.25v-0.6c0.533-0.167,1.383-0.35,2.55-0.55
			c-2.567-0.133-5.217-0.167-7.95-0.1c-8.3,0.267-15.75,1.4-22.35,3.4l2.2-0.2c-0.167,0.033-0.35,0.066-0.55,0.1
			c2.467-0.2,5-0.566,7.6-1.1l4.15,0.35c-8.367,1.233-13.85,1.867-16.45,1.9c-0.967,0.333-1.883,0.683-2.75,1.05
			c0.233-0.033,0.533-0.067,0.9-0.1c0.033,0,0.067,0,0.1,0c2.133-0.633,3.517-0.95,4.15-0.95l-0.15,0.15
			c2.167-0.3,5.2-0.45,9.1-0.45c-2.333,0.434-6.167,0.967-11.5,1.6c-0.2,0.2-1.15,0.3-2.85,0.3v-0.05
			c-0.467,0.1-0.95,0.183-1.45,0.25c-1.167,0.533-2.283,1.1-3.35,1.7c-0.399,0.2-0.783,0.417-1.149,0.65c1.3-0.1,2.75-0.2,4.35-0.3
			l-0.95,0.3c-0.9,0.1-1.767,0.183-2.6,0.25v0.05c2.133,0,3.85,0.117,5.15,0.35l0.3,0.3l-11,2.2c-0.167,0.133-0.317,0.267-0.45,0.4
			c1.467-0.233,3.684-0.35,6.649-0.35c0.434,0,0.767,0.034,1,0.1l1.55-0.1l-0.6,0.3l-0.65,0.05c0,0.4,0.1,0.7,0.3,0.9
			c-2.3-0.1-4.167-0.15-5.601-0.15L-53.3-14.2c-0.233,0.1-0.45,0.15-0.65,0.15H-54c-0.2,0.2-0.384,0.383-0.55,0.55
			c0.399-0.067,0.816-0.133,1.25-0.2h4.8v0.6c-2.9,0.434-5.316,0.783-7.25,1.05c-0.1,0.066-0.167,0.15-0.2,0.25
			c0.233,0,0.483,0,0.75,0h4.15c0.2,0.2,0.3,0.517,0.3,0.95c-1,0.133-1.967,0.25-2.9,0.35l-0.449,0.45c1.3-0.133,2.316-0.3,3.05-0.5
			c2.333-0.633,5.416-0.95,9.25-0.95c-1.9,0.6-4.134,1.083-6.7,1.45l0.65,0.15l-3.45,0.15c-0.033,0.033-0.066,0.033-0.101,0
			c-1.267,0.367-2.649,0.633-4.149,0.8L-54.9-8.3L-55.2-8l-3.149,0.25c-0.034,0.033-0.051,0.067-0.051,0.1h0.65L-57.1-7l5.1-0.65
			l-0.65,0.3c-0.966,0.3-2.149,0.6-3.55,0.9c0.2,0,0.417,0.017,0.65,0.05l-0.15,0.2c1.834,0.4,3.05,0.85,3.65,1.35l0.35,0.05
			L-52.1-4.7l-0.551,0.55c-0.199-0.1-0.466-0.2-0.8-0.3h-6c-0.1,0.333-0.166,0.667-0.2,1c0.601-0.033,1.233-0.05,1.9-0.05l3.5,0.95
			L-55.2-1.9c-1.8,0.066-3.366,0.133-4.7,0.2c-0.033,0.133-0.05,0.267-0.05,0.4H-53l0.35,0.35l-1.3,0.3h-6
			C-59.983-0.35-60-0.033-60,0.3c0,0.233,0,0.467,0,0.7l8.6-0.35l2.25,0.3L-50.4,1.3l-4.75,0.1l1.851,0.2l-0.65,0.65
			c-2.133,0.533-3.899,0.833-5.3,0.9l-0.1,0.05h-0.45c0.033,0.433,0.1,0.85,0.2,1.25l2.149-0.3l2.25,0.65l-0.649,0.95
			c-0.733,0.1-1.867,0.217-3.4,0.35c0,0.1,0.017,0.2,0.05,0.3h2.7l0.1,0.05l1.5-0.05l2.25,0.6L-53.6,7.65L-58.7,7.9
			c0.066,0.233,0.15,0.467,0.25,0.7c0.233,0,0.467,0,0.7,0l3.8,0.95C-54.017,9.617-54.1,9.667-54.2,9.7l1.2,0.2v0.65
			c-2,0.8-3.233,1.3-3.7,1.5v0.05c2.4,0.033,3.851,0.15,4.351,0.35c0.633,0.2,1.066,0.617,1.3,1.25l-1.3,0.65
			c-1.2-0.067-2.167-0.1-2.9-0.1c0.1,0.167,0.217,0.317,0.35,0.45c3.4,0,5.217,0.1,5.45,0.3l-5,0.25c0.101,0.133,0.2,0.267,0.3,0.4
			l5.65-0.35l1.9,0.65H-46.9l-6.05,0.95c0.233,0.267,0.483,0.533,0.75,0.8c2.033-0.167,4.434-0.317,7.2-0.45l1.3,0.3
			c-2.899,0.333-5.416,0.6-7.55,0.8c0.366,0.033,0.65,0.083,0.85,0.15v0.3c2.567,0.067,4.367,0.284,5.4,0.65
			c0.667,0.167,1.2,0.4,1.6,0.7c1.267,0.067,2.65,0.15,4.15,0.25l4.15,0.35c-4.467,0.3-8.233,0.55-11.3,0.75l0.45,0.2l-0.8,0.35
			C-46.517,22.217-46.283,22.383-46.05,22.55z M31.4,9.9c-0.167-0.033-0.3-0.066-0.4-0.1l0.25,0.4C31.283,10.1,31.333,10,31.4,9.9z
			 M31.25,3.55l1.8,0.15c0.034-0.167,0.05-0.35,0.05-0.55c-0.467,0.133-0.983,0.25-1.55,0.35C31.45,3.533,31.35,3.55,31.25,3.55z
			 M32,8.4c0-0.033,0.017-0.066,0.05-0.1h-0.8C31.33,8.302,31.58,8.335,32,8.4z M32.35-6.75c-0.7,0.667-2.667,1-5.9,1l6.2,0.35
			C32.55-5.833,32.45-6.283,32.35-6.75z M-0.65,25.5l-0.65,0.65c-0.233,0.067-0.467,0.133-0.7,0.2c2.6-0.5,5.183-1.083,7.75-1.75
			c-4.6,0.4-7.9,0.7-9.9,0.9H-16.3c-0.934,0.2-6.8,0.967-17.6,2.3c0.7,0.2,1.417,0.367,2.15,0.5l7.5-0.85l0.3,0.95
			c-1.367,0.167-2.667,0.333-3.9,0.5c1.733,0.2,3.517,0.283,5.35,0.25C-11.967,27.95-4.683,26.733-0.65,25.5z M-59.95,1.5
			c-0.033,0.033-0.033,0.067,0,0.1h0.25c0.233,0,0.884,0.1,1.95,0.3c1.066,0.233,1.6,0.133,1.6-0.3V1.4L-59.95,1.5z M9.2-24.9H7.35
			c-0.1,0.1-0.283,0.183-0.55,0.25C7.533-24.717,8.333-24.8,9.2-24.9z M-16.6-24.25l-0.65-0.3l0.35-0.65l7.3-0.65l1.3,0.3
			C-11.067-24.883-13.833-24.45-16.6-24.25z M-58.1-5.1c-0.4-0.033-0.784-0.083-1.15-0.15c-0.033,0.1-0.066,0.217-0.1,0.35L-56.8-5
			C-57.233-5.033-57.667-5.067-58.1-5.1z M-57.3-9.8c0.899-0.067,1.717-0.133,2.45-0.2c-0.601-0.033-1.4,0-2.4,0.1
			C-57.283-9.867-57.3-9.833-57.3-9.8z"/>
	</g>
</symbol>
<symbol  id="Piggy_x5F_tail" viewBox="-37.494 -7.36 51.037 59.709">
	<g id="Layer_1_20_">
		<path style="fill-rule:evenodd;clip-rule:evenodd;fill:#D5B2A9;" d="M-3.3,40.15c5.033-5.634,5.083-12.534,0.15-20.7
			c-0.767-1.233-1.317-2.6-1.65-4.1c4.535,1.069,9.551-0.197,15.05-3.8C14.995,5.901,14.612,1.118,9.1-2.8
			C5.467-5.189,2.95-6.381,1.55-6.375C0.155-6.364-1.911-6.605-4.65-7.1c-2.74-0.497-5.732-0.28-8.975,0.65
			C-16.872-5.516-19.663-4.533-22-3.5c-1.7,0.867-2.55,1.617-2.55,2.25c-1.2,0.867-1.983,1.883-2.35,3.05
			c-2.333,3.833-2.517,8.25-0.55,13.25c1.7,4.667,4.467,8.267,8.3,10.8c0.867,0.867,1.617,1.617,2.25,2.25
			c-1.067,0.233-2.133,0.35-3.2,0.35c-10.633,1.899-15.95,3.6-15.95,5.1c-1.267,0.834-1.7,2.533-1.3,5.101
			c0.434,2.533,1.6,4.983,3.5,7.35c1.934,2.333,5.35,4.45,10.25,6.35c-3.4-4.033-5.75-7.75-7.05-11.149
			c6.6,2.333,14.15,2.55,22.65,0.649C-6.133,41.45-4.567,40.884-3.3,40.15z"/>
	</g>
</symbol>
<symbol  id="pig_2_" viewBox="-71.733 1.7 81.355 52.566">
	<g id="Piggy_x5F_leg_x5F_f_3_">
		
			<use xlink:href="#Piggy_x5F_leg_x5F_f"  width="73.755" height="131.45" x="-41.229" y="-124.3" transform="matrix(-0.1533 0.0483 0.0223 0.1462 -37.6494 20.2002)" style="overflow:visible;"/>
	</g>
	<g id="Piggy_x5F_leg_x5F_b_3_">
		<g>
			<path style="fill-rule:evenodd;clip-rule:evenodd;fill:#B9857A;" d="M-4.023,13.761l1.721,0.41
				c1.134,0.284,1.854,0.502,2.157,0.653c0.955,0.227,1.533-0.199,1.733-1.277c0.201-1.076,0.39-2.28,0.568-3.613l0.056-0.819
				l3.195,0.659c0.137,1.429-0.328,3.362-1.396,5.8c-0.048,0.069-0.237,0.59-0.566,1.564c-0.153,0.427-0.338,1.029-0.555,1.805
				c-0.758,0.76-0.704,1.634,0.163,2.621L1.263,22.4c-0.146-0.275-0.389-0.281-0.729-0.018c-0.475,0.288-0.789,0.436-0.943,0.444
				c-0.079,0.005-0.161,0.01-0.246,0.014c-0.084,0.004-0.171,0.005-0.259,0.002c-0.051,0.002-0.101,0.002-0.15,0
				c-0.107,0.003-0.212,0.001-0.315-0.005c-1.217-0.058-2.428-0.365-3.635-0.92c-0.013-0.004-0.025-0.009-0.037-0.015
				c-0.405-0.15-0.747-0.368-1.027-0.652c-0.216-0.222-0.834-0.875-1.856-1.959c0.657-0.569,1.237-1.148,1.742-1.738
				c0.844-1,1.512-2.116,2.003-3.346C-4.133,14.061-4.077,13.913-4.023,13.761z"/>
			<path style="fill-rule:evenodd;clip-rule:evenodd;fill:#D5B2A9;" d="M-1.726,8.957c0.111-0.041,0.228-0.069,0.35-0.085
				C-1.34,8.96-1.301,9.069-1.259,9.197c0.036-0.207,0.08-0.49,0.13-0.848c0.003-0.049,0.005-0.096,0.006-0.14
				c0.005-0.038,0.008-0.078,0.009-0.123C-1.111,8.02-1.106,7.955-1.1,7.89c0.017-0.296,0.066-0.519,0.146-0.668l0.024-0.352
				l0.097,0.011l0.167,1.867C0.196,8.672,1.142,8.794,2.17,9.112l0.041,0.003L2.156,9.935c-0.178,1.333-0.367,2.537-0.568,3.613
				c-0.2,1.078-0.778,1.503-1.733,1.277c-0.304-0.151-1.023-0.37-2.157-0.653l-1.721-0.41l0.58-2.533l0.342-2.842l-0.006,0.407
				C-3.111,8.84-3.112,8.878-3.109,8.905c0.004,0.056,0.02,0.073,0.048,0.051C-2.848,9.05-2.62,9.089-2.376,9.074l-0.045,0.338
				c0.077-0.034,0.131-0.149,0.165-0.346c0.017-0.001,0.035-0.004,0.053-0.01l0.056,0.007l0.135-0.037l-0.041,0.147L-1.95,9.22
				l0.205,0.016L-1.726,8.957z M-1.085,9.38L-1.2,9.373c0.013,0.054,0.028,0.108,0.046,0.163l0.107,0.005l0.011-0.156
				c0.004-0.116,0.006-0.24,0.005-0.375L-1.085,9.38z"/>
			<path style="fill-rule:evenodd;clip-rule:evenodd;fill:#C69385;" d="M-2.376,9.074l0.209-1.394l0.008,0.712
				c-0.019,0.284-0.052,0.509-0.098,0.674c-0.033,0.196-0.088,0.312-0.165,0.346L-2.376,9.074z M-1.726,8.957l-0.02,0.278
				L-1.95,9.22l-0.104-0.046l0.041-0.147l0.031-0.108l-0.113-0.725c0.005-0.098,0.061-0.255,0.166-0.47
				c0.04-0.083,0.085-0.176,0.137-0.279l0.049,0.005l-0.116,0.293c-0.03,0.481,0.019,0.792,0.146,0.934L-1.726,8.957z M-1.376,8.872
				c-0.031-0.07-0.058-0.13-0.083-0.182c0.003-0.033,0.017-0.218,0.04-0.557c0.02-0.345,0.064-0.563,0.135-0.655
				c0.073,0.254,0.127,0.498,0.162,0.73C-1.124,8.253-1.126,8.3-1.129,8.349C-1.18,8.708-1.223,8.99-1.259,9.197
				C-1.301,9.069-1.34,8.96-1.376,8.872z M-1.085,9.38l0.054-0.369C-1.03,9.145-1.032,9.27-1.037,9.385l-0.011,0.156l-0.107-0.005
				C-1.172,9.48-1.188,9.426-1.2,9.373L-1.085,9.38z"/>
			<path style="fill-rule:evenodd;clip-rule:evenodd;fill:#935848;" d="M-3.101,8.386l0.035-1.901
				c0.007-0.816-0.012-1.637-0.058-2.462l0.008-0.207l0.797,0.517l0.219,2.215l0.045,0.105l0.125,1.07
				c-0.105,0.215-0.161,0.372-0.166,0.47l0.113,0.725l-0.031,0.108l-0.135,0.037l-0.056-0.007c-0.019,0.006-0.037,0.009-0.053,0.01
				c0.046-0.165,0.079-0.39,0.098-0.674l-0.008-0.712l-0.209,1.394C-2.62,9.089-2.848,9.05-3.061,8.957
				c-0.028,0.021-0.044,0.004-0.048-0.051C-3.112,8.878-3.111,8.84-3.107,8.793L-3.101,8.386z"/>
			<path style="fill-rule:evenodd;clip-rule:evenodd;fill:#824D40;" d="M-1.726,8.957l0.012-0.28
				c-0.127-0.142-0.175-0.453-0.146-0.934l0.116-0.293l-0.049-0.005C-1.843,7.547-1.889,7.64-1.929,7.723l-0.125-1.07l-0.045-0.105
				l-0.219-2.215l2.307,1.618l0.043,0.054C-0.041,5.595-0.195,4.8-0.431,3.621c0.389,0.299,0.635,0.501,0.739,0.608
				c0.215,0.322,0.436,0.626,0.661,0.913c0.566,0.794,0.958,1.655,1.175,2.584c0.03,0.031,0.045,0.066,0.046,0.105
				c0.02,0.245,0.04,0.451,0.059,0.618L2.17,9.112c-1.029-0.318-1.974-0.44-2.835-0.365L-0.832,6.88L-0.929,6.87l-0.024,0.352
				C-1.034,7.372-1.083,7.594-1.1,7.89c-0.007,0.064-0.012,0.13-0.014,0.196c-0.001,0.044-0.004,0.085-0.009,0.123
				c-0.035-0.232-0.088-0.476-0.162-0.73c-0.07,0.091-0.115,0.31-0.135,0.655c-0.023,0.338-0.036,0.524-0.04,0.557
				c0.024,0.051,0.052,0.112,0.083,0.182C-1.498,8.888-1.614,8.917-1.726,8.957z"/>
			<path style="fill-rule:evenodd;clip-rule:evenodd;fill:#6C3E34;" d="M-0.431,3.621c0.393,0.228,0.641,0.361,0.747,0.402
				c0.53,0.271,1.043,0.525,1.539,0.759C3.187,5.447,4.17,6.481,4.804,7.884c0.302,0.608,0.502,1.238,0.603,1.89L2.211,9.115
				L2.17,9.112L2.249,8.45c-0.02-0.167-0.04-0.373-0.059-0.618c0-0.039-0.016-0.074-0.046-0.105
				C1.927,6.798,1.535,5.937,0.969,5.143C0.744,4.856,0.523,4.552,0.308,4.229C0.205,4.123-0.042,3.92-0.431,3.621z"/>
		</g>
	</g>
	<g id="Layer_92_1_">
	</g>
	<g id="Piggy_x5F_body_1_">
		
			<use xlink:href="#Piggy_x5F_body"  width="392.225" height="220.218" x="-195.035" y="-105.868" transform="matrix(-0.161 0 -0.0048 0.161 -24.3506 28.3501)" style="overflow:visible;"/>
	</g>
	<g id="Piggy_x5F_tail_1_">
		
			<use xlink:href="#Piggy_x5F_tail"  width="51.037" height="59.709" x="-37.494" y="-7.36" transform="matrix(-0.1557 0.0401 0.0401 0.1557 2.2495 38.75)" style="overflow:visible;"/>
	</g>
	<g id="Piggy_x5F_legshadow_x5F_b_1_">
		
			<use xlink:href="#Piggy_x5F_legshadow_x5F_b"  width="44.55" height="86.95" x="-22.25" y="-43.5" transform="matrix(-0.0659 0.136 0.0821 0.1126 -13.2495 21.7495)" style="overflow:visible;"/>
	</g>
	<g id="Piggy_x5F_leg_x5F_b_2_">
		<g>
			<path style="fill-rule:evenodd;clip-rule:evenodd;fill:#D5B2A9;" d="M-11.533,5.896c0.091-0.161,0.199-0.336,0.323-0.524
				c0.496-0.749,0.882-1.21,1.158-1.384c-0.122,0.252-0.433,0.756-0.933,1.512c-0.141,0.237-0.267,0.454-0.379,0.648
				c-0.012,0.02-0.024,0.041-0.036,0.061l0.12,0.245c0.08-0.135,0.154-0.264,0.222-0.384c0.064-0.108,0.125-0.21,0.181-0.305
				c0.411-0.607,0.786-1.059,1.124-1.356c0.014-0.01,0.025-0.02,0.034-0.029c-0.008,0.014-0.017,0.025-0.025,0.033
				c-0.43,0.646-0.792,1.179-1.084,1.599c-0.145,0.217-0.275,0.403-0.389,0.556l0.211,0.429l-0.013-0.107l0.098-0.035l0.046,0.239
				l0.097-0.035c0.019,0.18,0.036,0.35,0.051,0.51l0.389,0.806c-0.073-0.236-0.137-0.416-0.193-0.54l0.08-0.125l0.416,0.899
				l-0.011-0.388l-0.001-0.007l-0.498-1.239c-0.013-0.065-0.008-0.136,0.015-0.213l0.045-0.016l0.47,1.264l0.03-0.011l0.075,0.302
				c0.171,0.221,0.323,0.671,0.455,1.35l0.005,0.398c0.029,0.038,0.058,0.076,0.086,0.113c0.102,0.14,0.197,0.313,0.286,0.522
				c0.01-0.084,0.015-0.168,0.015-0.254c-0.042-0.103-0.079-0.201-0.114-0.295c-0.122-0.325-0.204-0.594-0.245-0.809L-9.5,8.642
				l0.097-0.035c0.011,0.22,0.07,0.496,0.177,0.826c-0.042-0.3-0.062-0.538-0.059-0.715l0.098-0.035c-0.006,0.05-0.006,0.12,0,0.208
				l0.038-0.014l0.223,1.145c-0.008,0.014-0.016,0.027-0.024,0.041c0.009,0.018,0.017,0.034,0.025,0.047
				c0.099,0.205,0.171,0.371,0.217,0.499l0.102,0.524l0.272,0.615l0.223,1.145l0.165,0.333l0.008-0.002
				c0,0.184,0.226,0.448,0.679,0.793c-0.015-0.036-0.03-0.071-0.044-0.104l0.004-0.021c0.016,0.041,0.032,0.084,0.049,0.13
				c0.018,0.042,0.036,0.087,0.054,0.133c0.183,0.091,0.348,0.173,0.497,0.246c0.098,0.051,0.188,0.097,0.271,0.139
				c0.318,0.18,0.581,0.35,0.789,0.51c0.184,0.094,0.38,0.197,0.589,0.309c-0.143-0.104-0.296-0.206-0.46-0.307
				c-0.358-0.192-0.853-0.481-1.484-0.869l0.027-0.066C-6.253,14.52-5.723,14.815-5.377,15c0.295,0.198,0.544,0.381,0.748,0.548
				c0.417,0.218,0.878,0.448,1.385,0.688c-0.144-0.104-0.301-0.212-0.473-0.327l-0.018-0.049c0.017,0.004,0.04,0.012,0.068,0.023
				L-4.964,14.9l0.066-0.072c0.148,0.155,0.506,0.443,1.074,0.864c0.148,0.102,0.278,0.196,0.392,0.284
				c0.177,0.086,0.37,0.198,0.579,0.337c0.102,0.081,0.188,0.159,0.262,0.234c0.029,0.011,0.05,0.025,0.064,0.041
				c0.13,0.065,0.261,0.131,0.391,0.196c0.554,0.266,1.065,0.546,1.535,0.843c-0.074-0.08-0.15-0.154-0.228-0.223
				c0.12,0.069,0.256,0.175,0.407,0.318c0.026,0.017,0.052,0.033,0.077,0.048c0.024,0.016,0.133,0.112,0.329,0.29
				c0.244,0.223,0.62,0.571,1.129,1.044l0.801,0.717c-0.011,0.046-0.025,0.092-0.041,0.139c-0.404,0.424-0.834,0.852-1.29,1.284
				c-0.175,0.175-0.355,0.346-0.542,0.515c-0.975,0.899-2.013,1.742-3.116,2.527c0.006,0.003,0.009,0.008,0.01,0.013l-0.081,0.037
				c-0.014,0.01-0.033,0.022-0.057,0.036c-0.982,0.694-2.016,1.343-3.102,1.946c-0.33,0.172-0.666,0.33-1.006,0.473
				c-0.622,0.266-1.248,0.482-1.878,0.65c-0.269,0.072-0.18,0.291,0.268,0.657c-3.312-2.527-5.047-5.146-5.204-7.856
				c-0.123-2.094-0.164-3.626-0.124-4.596c-0.178-0.34-0.282-0.613-0.312-0.817l0-0.004c-0.017-0.03-0.03-0.059-0.041-0.085
				c-0.023-0.034-0.043-0.072-0.063-0.114c0.033-0.007,0.067-0.014,0.101-0.02c-0.284-0.609-0.443-0.947-0.478-1.013l-0.019-0.098
				c-0.004,0.046,0.006,0.138,0.03,0.277l0,0.004c0.029,0.155,0.076,0.367,0.14,0.635c-0.003,0-0.008,0-0.012,0
				c-0.192-0.694-0.36-1.247-0.503-1.657c-0.018-0.095-0.042-0.179-0.073-0.253l0.127,0.283c-0.08-0.244-0.162-0.487-0.246-0.729
				c-0.112-0.301-0.219-0.591-0.321-0.87l-0.009-0.005c-0.466-1.269-0.814-2.208-1.045-2.82l0.237-0.141l0.255,0.324
				c0.053-0.088,0.072-0.165,0.06-0.229c-0.01-0.055-0.048-0.126-0.114-0.215l0.114-0.073l0.163,0.59
				c0.064-0.193,0.074-0.403,0.03-0.627c-0.004-0.02-0.008-0.042-0.013-0.067l0.137-0.081l0.022-0.008l0.107,0.426l0.098-0.035
				l-0.068-0.472c0.149-0.085,0.296-0.17,0.44-0.254c0.006,0.03,0.011,0.055,0.015,0.075l0.049,0.543l0.071,0.078l0.188-0.067
				c-0.016-0.08-0.019-0.346-0.011-0.797c0.058-0.032,0.114-0.062,0.167-0.092c0.031-0.556,0.095-0.982,0.192-1.278
				c0.024-0.041,0.045-0.014,0.063,0.081c0.024,0.125,0.014,0.417-0.03,0.876c-0.006,0.077-0.013,0.151-0.021,0.224
				c0.229-0.114,0.453-0.216,0.67-0.305l2.44-0.604C-11.654,6.126-11.596,6.015-11.533,5.896z M-15.229,23.421
				c-0.262-0.321-0.586-0.758-0.973-1.313C-16.621,21.507-16.296,21.945-15.229,23.421z M-18.566,17.389
				c0.031-0.059,0.053-0.123,0.067-0.192c0.009-0.009,0.198-0.328,0.567-0.957L-18.566,17.389z M-8.131,16.153
				c-0.088-0.058-0.176-0.116-0.262-0.174c-0.178-0.122-0.328-0.25-0.452-0.386C-8.677,15.806-8.439,15.993-8.131,16.153z
				 M-0.157,18.055c-0.04-0.027-0.063-0.038-0.066-0.032c-0.083,0.116-0.172,0.23-0.266,0.344c0.006-0.001,0.011-0.001,0.016-0.001
				c0.094-0.104,0.183-0.208,0.268-0.313C-0.189,18.053-0.173,18.054-0.157,18.055z M-7.796,13.158
				c0.008-0.002,0.015-0.005,0.022-0.008l0.034,0.028c-0.021-0.005-0.042-0.011-0.064-0.017L-7.796,13.158z M-7.729,13.13
				c0.028-0.012,0.057-0.023,0.085-0.035c-0.001,0.075-0.009,0.11-0.024,0.104C-7.692,13.166-7.712,13.143-7.729,13.13z
				 M-7.501,13.376c0.003,0.007,0.006,0.015,0.008,0.021l0,0.121c-0.009-0.021-0.018-0.04-0.027-0.058
				C-7.525,13.452-7.519,13.424-7.501,13.376z M-7.419,14.044c0.004,0.002,0.009,0.005,0.013,0.007
				c0.011,0.006,0.023,0.011,0.035,0.016c-0.095-0.05-0.135-0.069-0.12-0.057l0.005,0.002C-7.463,14.023-7.441,14.034-7.419,14.044z
				 M-8.566,11.669c-0.06-0.171-0.165-0.438-0.316-0.799c-0.003,0.092-0.014,0.178-0.03,0.259c0.045,0.123,0.087,0.254,0.125,0.396
				l0.383,0.775L-8.566,11.669z M-9.01,10.748c-0.005,0.029-0.008,0.054-0.009,0.076c0.002,0.01,0.003,0.017,0.004,0.022
				c0.008,0.013,0.013,0.022,0.014,0.027c0.004-0.007,0.005-0.015,0.003-0.025C-9.005,10.818-9.008,10.785-9.01,10.748z
				 M-9.515,9.928l0.001,0.008c0.005-0.002,0.007-0.005,0.006-0.01L-9.515,9.928z M-9.951,8.963l0.061,0.314l-0.052-0.35
				C-9.944,8.94-9.948,8.952-9.951,8.963z"/>
			<path style="fill-rule:evenodd;clip-rule:evenodd;fill:#C18C80;" d="M-11.712,27.363c-0.096-0.024-0.216-0.055-0.363-0.094
				c0.196,0.047,0.357,0.078,0.482,0.091C-11.626,27.377-11.666,27.378-11.712,27.363z M-10.829,6.012l1.608-0.386
				c0.044,0.225,0.09,0.464,0.14,0.719C-9.063,6.44-8.57,7.651-7.604,9.979c0.103,0.251,0.209,0.512,0.32,0.782
				c0.255,0.599,0.532,1.262,0.832,1.987c0.007-0.001,0.014-0.002,0.02-0.003l-0.032,0.043l4.188,2.324
				c1.178,0.626,2.057,1.228,2.636,1.805c0.173,0.127,0.397,0.287,0.671,0.479c1.262,0.887,1.606,1.67,1.034,2.348l-0.149,0.077
				l-0.801-0.717c-0.509-0.473-0.885-0.821-1.129-1.044c-0.196-0.178-0.305-0.274-0.329-0.29c-0.025-0.016-0.051-0.032-0.077-0.048
				c-0.151-0.144-0.287-0.25-0.407-0.318c0.077,0.068,0.153,0.143,0.228,0.223c-0.469-0.296-0.981-0.577-1.535-0.843
				c-0.13-0.065-0.261-0.13-0.391-0.196c-0.014-0.016-0.035-0.03-0.064-0.041c-0.074-0.075-0.161-0.153-0.262-0.234
				c-0.208-0.139-0.401-0.251-0.579-0.337c-0.113-0.087-0.244-0.182-0.392-0.284c-0.568-0.42-0.926-0.708-1.074-0.864L-4.964,14.9
				l1.298,0.983c-0.029-0.011-0.052-0.019-0.068-0.023l0.018,0.049c0.172,0.115,0.329,0.224,0.473,0.327
				c-0.506-0.24-0.968-0.47-1.385-0.688c-0.204-0.167-0.453-0.35-0.748-0.548c-0.346-0.186-0.876-0.481-1.591-0.886l-0.027,0.066
				c0.631,0.387,1.125,0.677,1.484,0.869c0.164,0.101,0.317,0.204,0.46,0.307c-0.209-0.112-0.405-0.215-0.589-0.309
				c-0.208-0.16-0.47-0.33-0.789-0.51c-0.083-0.042-0.173-0.087-0.271-0.139c-0.148-0.072-0.314-0.154-0.497-0.246
				c-0.019-0.046-0.037-0.091-0.054-0.133c-0.017-0.045-0.034-0.089-0.049-0.13l-0.004,0.021c0.015,0.033,0.03,0.068,0.044,0.104
				c-0.453-0.345-0.68-0.609-0.679-0.793l-0.008,0.002l-0.165-0.333l-0.223-1.145l-0.272-0.615l-0.102-0.524
				c-0.046-0.127-0.119-0.294-0.217-0.499c-0.008-0.013-0.016-0.029-0.025-0.047c0.008-0.014,0.016-0.027,0.024-0.041L-9.15,8.876
				L-9.188,8.89c-0.006-0.088-0.006-0.158,0-0.208l-0.098,0.035c-0.003,0.177,0.017,0.416,0.059,0.715
				c-0.107-0.33-0.166-0.605-0.177-0.826L-9.5,8.642l0.077,0.685c0.042,0.214,0.124,0.484,0.245,0.809
				c0.035,0.094,0.072,0.193,0.114,0.295c0,0.085-0.004,0.17-0.015,0.254c-0.089-0.209-0.184-0.383-0.286-0.522
				c-0.029-0.038-0.058-0.075-0.086-0.113l-0.005-0.398c-0.132-0.679-0.284-1.129-0.455-1.35l-0.075-0.302l-0.03,0.011l-0.47-1.264
				l-0.045,0.016c-0.022,0.077-0.027,0.148-0.015,0.213l0.498,1.239l0.001,0.007l0.011,0.388l-0.416-0.899l-0.08,0.125
				c0.056,0.124,0.121,0.304,0.193,0.54l-0.389-0.806c-0.015-0.16-0.032-0.33-0.051-0.51l-0.097,0.035l-0.046-0.239l-0.098,0.035
				l0.013,0.107l-0.211-0.429C-11.104,6.415-10.974,6.229-10.829,6.012z M-15.477,12.5l-0.063-0.162
				c-0.006-0.03-0.011-0.06-0.017-0.09c-0.007-0.035-0.013-0.067-0.019-0.097l-0.019-0.097c0.084,0.242,0.167,0.484,0.246,0.729
				L-15.477,12.5z M-7.419,14.044c-0.022-0.01-0.044-0.021-0.066-0.032l-0.005-0.002c-0.015-0.012,0.024,0.007,0.12,0.057
				c-0.012-0.004-0.024-0.01-0.035-0.016C-7.41,14.049-7.415,14.046-7.419,14.044z M-7.501,13.376
				c-0.018,0.047-0.024,0.075-0.02,0.083c0.009,0.018,0.018,0.038,0.027,0.058l0-0.121C-7.495,13.391-7.498,13.384-7.501,13.376z
				 M-7.729,13.13c0.017,0.012,0.037,0.036,0.062,0.07c0.015,0.005,0.022-0.03,0.024-0.104C-7.672,13.107-7.701,13.119-7.729,13.13z
				 M-7.796,13.158l-0.008,0.003c0.021,0.006,0.043,0.012,0.064,0.017l-0.034-0.028C-7.781,13.153-7.788,13.156-7.796,13.158z
				 M-9.951,8.963c0.003-0.012,0.006-0.023,0.009-0.035l0.052,0.35L-9.951,8.963z M-9.515,9.928l0.008-0.002
				c0.001,0.005-0.001,0.008-0.006,0.01L-9.515,9.928z M-9.01,10.748c0.002,0.037,0.005,0.07,0.011,0.1
				c0.002,0.01,0.001,0.019-0.003,0.025c-0.001-0.005-0.005-0.014-0.014-0.027c0-0.005-0.002-0.013-0.004-0.022
				C-9.019,10.801-9.016,10.776-9.01,10.748z M-8.566,11.669l0.163,0.63l-0.383-0.775c-0.038-0.141-0.08-0.273-0.125-0.396
				c0.016-0.081,0.026-0.167,0.03-0.259C-8.731,11.232-8.626,11.499-8.566,11.669z M-11.059,6.07
				c-0.067,0.12-0.142,0.249-0.222,0.384l-0.12-0.245c0.012-0.021,0.024-0.041,0.036-0.061L-11.059,6.07z"/>
			<path style="fill-rule:evenodd;clip-rule:evenodd;fill:#6C3E34;" d="M-9.221,5.626l-1.608,0.386
				c0.292-0.42,0.654-0.953,1.084-1.599C-9.525,4.778-9.35,5.182-9.221,5.626z M-11.364,6.148c0.112-0.195,0.238-0.411,0.379-0.648
				c0.5-0.756,0.811-1.26,0.933-1.512c-0.276,0.174-0.662,0.635-1.158,1.384c-0.124,0.188-0.231,0.363-0.323,0.524
				c-0.019-0.042-0.04-0.082-0.064-0.122c-0.027-0.059-0.058-0.12-0.091-0.183c-0.021-0.051-0.047-0.104-0.079-0.156
				c-0.161-0.305-0.337-0.605-0.528-0.899c-0.11-0.152-0.222-0.302-0.336-0.448c0.098,0.338,0.24,0.819,0.425,1.441l-0.097,0.035
				c-0.031-0.16-0.14-0.377-0.328-0.651l-0.207-1.063c-0.639-0.731-1.383-1.313-2.231-1.745c-0.226-0.09-0.464-0.172-0.714-0.248
				c0.238,0.016,0.461,0.019,0.667,0.008c1.552,0.094,2.911,0.511,4.076,1.252c0.383,0.241,0.712,0.531,0.987,0.871
				c0.111,0.131,0.211,0.271,0.299,0.421c-0.338,0.297-0.712,0.749-1.124,1.356c-0.056,0.095-0.117,0.197-0.181,0.305L-11.364,6.148
				z"/>
			<path style="fill-rule:evenodd;clip-rule:evenodd;fill:#824D40;" d="M-15.783,1.857c0.25,0.076,0.488,0.158,0.714,0.248
				c0.849,0.432,1.592,1.014,2.231,1.745l0.207,1.063c0.188,0.274,0.296,0.492,0.328,0.651l0.097-0.035
				c-0.185-0.622-0.327-1.103-0.425-1.441c0.114,0.146,0.226,0.295,0.336,0.448c0.191,0.294,0.367,0.594,0.528,0.899
				c0.032,0.053,0.058,0.105,0.079,0.156c0.033,0.063,0.064,0.124,0.091,0.183c0.024,0.04,0.045,0.08,0.064,0.122
				c-0.063,0.119-0.121,0.23-0.176,0.335l-2.44,0.604c-0.218,0.089-0.441,0.191-0.67,0.305c0.007-0.072,0.014-0.147,0.021-0.224
				c0.044-0.459,0.055-0.751,0.03-0.876c-0.019-0.095-0.04-0.122-0.063-0.081c-0.098,0.296-0.162,0.723-0.192,1.278
				c-0.053,0.03-0.109,0.06-0.167,0.092c0.014-0.427,0.04-1.021,0.079-1.782l-0.071-0.079l-0.143,0.051
				c-0.148,0.998-0.207,1.657-0.177,1.977c-0.144,0.084-0.291,0.168-0.44,0.254l-0.063-0.45c-0.111-0.574-0.21-0.915-0.295-1.023
				c-0.025,0.201,0.003,0.524,0.084,0.971c-0.096-0.275-0.237-0.644-0.423-1.105l-1.127-2.911l2.554,0.765l0.054,0.029
				C-15.341,3.618-15.549,2.894-15.783,1.857z"/>
			<path style="fill-rule:evenodd;clip-rule:evenodd;fill:#C69385;" d="M-16.734,8.22l-0.506-0.667l-0.193-0.251l0.026-0.114
				c0.025,0.023,0.048,0.044,0.068,0.064c0.402,0.363,0.67,0.645,0.806,0.847c0.065,0.089,0.104,0.161,0.114,0.215
				c0.013,0.065-0.007,0.142-0.06,0.229L-16.734,8.22z M-16.217,7.25c-0.081-0.446-0.109-0.77-0.084-0.971
				c0.085,0.108,0.184,0.449,0.295,1.023l0.063,0.45l0.068,0.472l-0.098,0.035l-0.107-0.426l-0.114-0.463
				C-16.202,7.329-16.209,7.289-16.217,7.25z M-15.503,7.498c-0.03-0.32,0.029-0.979,0.177-1.977l0.143-0.051l0.071,0.079
				c-0.039,0.761-0.065,1.355-0.079,1.782c-0.008,0.451-0.005,0.717,0.011,0.797l-0.188,0.067l-0.071-0.078l-0.049-0.543
				C-15.493,7.552-15.498,7.527-15.503,7.498z M-16.239,7.921c0.005,0.025,0.009,0.047,0.013,0.067
				c0.044,0.225,0.034,0.434-0.03,0.627l-0.163-0.59l-0.377-1.362l-0.096-0.783l0.098-0.035
				C-16.521,6.758-16.336,7.449-16.239,7.921z"/>
			<path style="fill-rule:evenodd;clip-rule:evenodd;fill:#935848;" d="M-16.419,8.026l-0.114,0.073
				c-0.136-0.202-0.404-0.484-0.806-0.847c-0.094-0.292-0.179-0.547-0.253-0.766l-1.084-3.182l0.909-0.07l1.127,2.911
				c0.186,0.461,0.327,0.83,0.423,1.105c0.008,0.04,0.016,0.08,0.023,0.12l0.114,0.463l-0.022,0.008l-0.137,0.081
				c-0.097-0.472-0.282-1.164-0.556-2.074l-0.098,0.035l0.096,0.783L-16.419,8.026z M-17.24,7.553l0.506,0.667l-0.237,0.141
				C-17.065,8.069-17.155,7.799-17.24,7.553z"/>
		</g>
	</g>
	<g id="Piggy_x5F_spot_3_">
		
			<use xlink:href="#Piggy_x5F_spot"  width="93.2" height="56.94" x="-60" y="-27.783" transform="matrix(-0.1652 0 0 0.1585 -18.6499 36.7998)" style="overflow:visible;"/>
	</g>
	<g id="Piggy_x5F_spot_2_">
		
			<use xlink:href="#Piggy_x5F_spot"  width="93.2" height="56.94" x="-60" y="-27.783" transform="matrix(-0.1652 0 0.0346 0.1585 -5.1504 31)" style="overflow:visible;"/>
	</g>
	<g id="Piggy_x5F_ear_x5F_l_1_">
		
			<use xlink:href="#Piggy_x5F_ear_x5F_l"  width="58.614" height="80.425" x="-5.15" y="-21.725" transform="matrix(-0.161 0 0 0.161 -50.9502 38.7998)" style="overflow:visible;"/>
	</g>
	<g id="Piggy_x5F_headcomp_1_">
		
			<use xlink:href="#Piggy_x5F_headcomp"  width="203.167" height="194.425" x="0.014" y="-126.2" transform="matrix(-0.161 0 0 0.161 -37 33.9502)" style="overflow:visible;"/>
	</g>
	<g id="Piggy_x5F_eyespot_1_">
		
			<use xlink:href="#Piggy_x5F_eyespot"  width="74.95" height="66" x="-74.95" y="-33" transform="matrix(-0.161 0 0 0.161 -56.9004 31.0498)" style="overflow:visible;"/>
	</g>
	<g id="Piggy_x5F_Eye_1_">
		
			<use xlink:href="#Piggy_x5F_Eye"  width="49.304" height="42.718" x="-28.304" y="-19.369" transform="matrix(-0.161 0 0 0.161 -51.7998 31.0498)" style="overflow:visible;"/>
	</g>
	<g id="Piggy_x5F_Pupil_1_">
		
			<use xlink:href="#Piggy_x5F_Pupil"  width="21.73" height="23.844" x="-10.866" y="-11.947" transform="matrix(-0.161 0 0 0.161 -53.0498 30.3496)" style="overflow:visible;"/>
	</g>
	<g id="Layer_93_1_">
	</g>
	<g id="Layer_94_1_">
	</g>
	<g id="Piggy_x5F_mouth_1_">
		
			<use xlink:href="#Piggy_x5F_mouth"  width="98" height="19.186" x="-49" y="-9.586" transform="matrix(-0.161 0 0 0.161 -59.5996 19.6997)" style="overflow:visible;"/>
	</g>
	<g id="Layer_91_1_">
	</g>
	<g id="Piggy_x5F_nose_1_">
		
			<use xlink:href="#Piggy_x5F_nose"  width="28.399" height="87.75" x="-14.2" y="-43.9" transform="matrix(-0.1643 0 0 0.161 -69.4004 25.7495)" style="overflow:visible;"/>
	</g>
	<g id="Piggy_x5F_hair01_1_">
		
			<use xlink:href="#Piggy_x5F_hair01"  width="82.466" height="9.823" transform="matrix(-0.161 0 0 0.161 -53.0996 42.75)" style="overflow:visible;"/>
	</g>
	<g id="Piggy_x5F_hair02_1_">
		
			<use xlink:href="#Piggy_x5F_hair02"  width="66.45" height="23.2" transform="matrix(-0.161 0 0 0.161 -51.5498 43.5996)" style="overflow:visible;"/>
	</g>
	<g id="Piggy_x5F_ear_x5F_r_1_">
		
			<use xlink:href="#Piggy_x5F_ear_x5F_r"  width="57.933" height="70.8" x="-36.383" y="-10.75" transform="matrix(-0.161 0 0 0.161 -43.7998 44.5996)" style="overflow:visible;"/>
	</g>
	<g id="Piggy_x5F_leg_x5F_f_2_">
		
			<use xlink:href="#Piggy_x5F_leg_x5F_f"  width="73.755" height="131.45" x="-41.229" y="-124.3" transform="matrix(-0.1602 -0.012 -0.0372 0.1583 -36.4004 21.3501)" style="overflow:visible;"/>
	</g>
	<g id="code_1_">
	</g>
	<g id="Layer_101_1_">
	</g>
	<g id="states_1_">
	</g>
</symbol>
<use xlink:href="#pig_2_"  width="81.355" height="52.566" id="pig_1_" x="-71.733" y="1.7" transform="matrix(-1 0 0 -1 13.4502 59.75)" style="overflow:visible;"/>
</svg>
